{
	"__license": "This file has been derived from Unicode Common Locale Data Repository (CLDR) files (http://cldr.unicode.org). See the copyright and permission notice in the Unicode-Data-Files-LICENSE.txt available at the same location as this file or visit http://www.unicode.org/copyright.html",
	"languages": {
		"aa": "afar",
		"ab": "abjasio",
		"ace": "acehnés",
		"ach": "acoli",
		"ada": "adangme",
		"ady": "adigeo",
		"ae": "avéstico",
		"af": "afrikáans",
		"afh": "afrihili",
		"agq": "aghem",
		"ain": "ainu",
		"ak": "akan",
		"akk": "acadio",
		"ale": "aleutiano",
		"alt": "altái del sur",
		"am": "amárico",
		"an": "aragonés",
		"ang": "inglés antiguo",
		"anp": "angika",
		"ar": "árabe",
		"ar_001": "árabe estándar moderno",
		"arc": "arameo",
		"arn": "mapuche",
		"arp": "arapaho",
		"ars": "árabe de Néyed",
		"arw": "arahuaco",
		"as": "asamés",
		"asa": "asu",
		"ast": "asturiano",
		"av": "avar",
		"awa": "avadhi",
		"ay": "aimara",
		"az": "azerbaiyano",
		"az_alt-short": "azerí",
		"ba": "baskir",
		"bal": "baluchi",
		"ban": "balinés",
		"bas": "basa",
		"bax": "bamun",
		"bbj": "ghomala",
		"be": "bielorruso",
		"bej": "beja",
		"bem": "bemba",
		"bez": "bena",
		"bfd": "bafut",
		"bg": "búlgaro",
		"bgn": "baluchi occidental",
		"bho": "bhoshpuri",
		"bi": "bislama",
		"bik": "bicol",
		"bin": "bini",
		"bkm": "kom",
		"bla": "siksika",
		"bm": "bambara",
		"bn": "bengalí",
		"bo": "tibetano",
		"br": "bretón",
		"bra": "braj",
		"brx": "bodo",
		"bs": "bosnio",
		"bss": "akoose",
		"bua": "buriat",
		"bug": "buginés",
		"bum": "bulu",
		"byn": "blin",
		"byv": "medumba",
		"ca": "catalán",
		"cad": "caddo",
		"car": "caribe",
		"cay": "cayuga",
		"cch": "atsam",
		"ccp": "ccp",
		"ce": "checheno",
		"ceb": "cebuano",
		"cgg": "chiga",
		"ch": "chamorro",
		"chb": "chibcha",
		"chg": "chagatái",
		"chk": "trukés",
		"chm": "marí",
		"chn": "jerga chinuk",
		"cho": "choctaw",
		"chp": "chipewyan",
		"chr": "cheroqui",
		"chy": "cheyene",
		"ckb": "kurdo sorani",
		"co": "corso",
		"cop": "copto",
		"cr": "cree",
		"crh": "tártaro de Crimea",
		"crs": "criollo seychelense",
		"cs": "checo",
		"csb": "casubio",
		"cu": "eslavo eclesiástico",
		"cv": "chuvasio",
		"cy": "galés",
		"da": "danés",
		"dak": "dakota",
		"dar": "dargva",
		"dav": "taita",
		"de": "alemán",
		"de_AT": "alemán austriaco",
		"de_CH": "alto alemán suizo",
		"del": "delaware",
		"den": "slave",
		"dgr": "dogrib",
		"din": "dinka",
		"dje": "zarma",
		"doi": "dogri",
		"dsb": "bajo sorbio",
		"dua": "duala",
		"dum": "neerlandés medieval",
		"dv": "divehi",
		"dyo": "jola-fonyi",
		"dyu": "diula",
		"dz": "dzongkha",
		"dzg": "dazaga",
		"ebu": "embu",
		"ee": "ewé",
		"efi": "efik",
		"egy": "egipcio antiguo",
		"eka": "ekajuk",
		"el": "griego",
		"elx": "elamita",
		"en": "inglés",
		"en_AU": "inglés australiano",
		"en_CA": "inglés canadiense",
		"en_GB": "inglés británico",
		"en_GB-alt-short": "inglés (R. U.)",
		"en_US": "inglés estadounidense",
		"en_US-alt-short": "inglés (EE. UU.)",
		"enm": "inglés medieval",
		"eo": "esperanto",
		"es": "español",
		"es_419": "español latinoamericano",
		"es_ES": "español de España",
		"es_MX": "español de México",
		"et": "estonio",
		"eu": "euskera",
		"ewo": "ewondo",
		"fa": "persa",
		"fan": "fang",
		"fat": "fanti",
		"ff": "fula",
		"fi": "finés",
		"fil": "filipino",
		"fj": "fiyiano",
		"fo": "feroés",
		"fon": "fon",
		"fr": "francés",
		"fr_CA": "francés canadiense",
		"fr_CH": "francés suizo",
		"frc": "francés cajún",
		"frm": "francés medieval",
		"fro": "francés antiguo",
		"frr": "frisón septentrional",
		"frs": "frisón oriental",
		"fur": "friulano",
		"fy": "frisón occidental",
		"ga": "irlandés",
		"gaa": "ga",
		"gag": "gagauzo",
		"gan": "gan (China)",
		"gay": "gayo",
		"gba": "gbaya",
		"gd": "gaélico escocés",
		"gez": "geez",
		"gil": "gilbertés",
		"gl": "gallego",
		"gmh": "alemán de la alta edad media",
		"gn": "guaraní",
		"goh": "alemán de la alta edad antigua",
		"gon": "gondi",
		"gor": "gorontalo",
		"got": "gótico",
		"grb": "grebo",
		"grc": "griego antiguo",
		"gsw": "alemán suizo",
		"gu": "gujarati",
		"guz": "gusii",
		"gv": "manés",
		"gwi": "kutchin",
		"ha": "hausa",
		"hai": "haida",
		"hak": "kejia (China)",
		"haw": "hawaiano",
		"he": "hebreo",
		"hi": "hindi",
		"hil": "hiligainón",
		"hit": "hitita",
		"hmn": "hmong",
		"ho": "hiri motu",
		"hr": "croata",
		"hsb": "alto sorbio",
		"hsn": "xiang (China)",
		"ht": "haitiano",
		"hu": "húngaro",
		"hup": "hupa",
		"hy": "armenio",
		"hz": "herero",
		"ia": "interlingua",
		"iba": "iban",
		"ibb": "ibibio",
		"id": "indonesio",
		"ie": "interlingue",
		"ig": "igbo",
		"ii": "yi de Sichuán",
		"ik": "inupiaq",
		"ilo": "ilocano",
		"inh": "ingusetio",
		"io": "ido",
		"is": "islandés",
		"it": "italiano",
		"iu": "inuktitut",
		"ja": "japonés",
		"jbo": "lojban",
		"jgo": "ngomba",
		"jmc": "machame",
		"jpr": "judeo-persa",
		"jrb": "judeo-árabe",
		"jv": "javanés",
		"ka": "georgiano",
		"kaa": "karakalpako",
		"kab": "cabila",
		"kac": "kachin",
		"kaj": "jju",
		"kam": "kamba",
		"kaw": "kawi",
		"kbd": "kabardiano",
		"kbl": "kanembu",
		"kcg": "tyap",
		"kde": "makonde",
		"kea": "criollo caboverdiano",
		"kfo": "koro",
		"kg": "kongo",
		"kha": "khasi",
		"kho": "kotanés",
		"khq": "koyra chiini",
		"ki": "kikuyu",
		"kj": "kuanyama",
		"kk": "kazajo",
		"kkj": "kako",
		"kl": "groenlandés",
		"kln": "kalenjin",
		"km": "jemer",
		"kmb": "kimbundu",
		"kn": "canarés",
		"ko": "coreano",
		"koi": "komi permio",
		"kok": "konkaní",
		"kos": "kosraeano",
		"kpe": "kpelle",
		"kr": "kanuri",
		"krc": "karachái bálkaro",
		"krl": "carelio",
		"kru": "kurukh",
		"ks": "cachemiro",
		"ksb": "shambala",
		"ksf": "bafia",
		"ksh": "kölsch",
		"ku": "kurdo",
		"kum": "cumuco",
		"kut": "kutenai",
		"kv": "komi",
		"kw": "córnico",
		"ky": "kirguís",
		"la": "latín",
		"lad": "ladino",
		"lag": "langi",
		"lah": "lahnda",
		"lam": "lamba",
		"lb": "luxemburgués",
		"lez": "lezgiano",
		"lg": "ganda",
		"li": "limburgués",
		"lkt": "lakota",
		"ln": "lingala",
		"lo": "lao",
		"lol": "mongo",
		"lou": "criollo de Luisiana",
		"loz": "lozi",
		"lrc": "lorí septentrional",
		"lt": "lituano",
		"lu": "luba-katanga",
		"lua": "luba-lulua",
		"lui": "luiseño",
		"lun": "lunda",
		"luo": "luo",
		"lus": "lushai",
		"luy": "luyia",
		"lv": "letón",
		"mad": "madurés",
		"maf": "mafa",
		"mag": "magahi",
		"mai": "maithili",
		"mak": "macasar",
		"man": "mandingo",
		"mas": "masái",
		"mde": "maba",
		"mdf": "moksha",
		"mdr": "mandar",
		"men": "mende",
		"mer": "meru",
		"mfe": "criollo mauriciano",
		"mg": "malgache",
		"mga": "irlandés medieval",
		"mgh": "makhuwa-meetto",
		"mgo": "meta’",
		"mh": "marshalés",
		"mi": "maorí",
		"mic": "micmac",
		"min": "minangkabau",
		"mk": "macedonio",
		"ml": "malayalam",
		"mn": "mongol",
		"mnc": "manchú",
		"mni": "manipuri",
		"moh": "mohawk",
		"mos": "mossi",
		"mr": "maratí",
		"ms": "malayo",
		"mt": "maltés",
		"mua": "mundang",
		"mul": "varios idiomas",
		"mus": "creek",
		"mwl": "mirandés",
		"mwr": "marwari",
		"my": "birmano",
		"mye": "myene",
		"myv": "erzya",
		"mzn": "mazandaraní",
		"na": "nauruano",
		"nan": "min nan (Chino)",
		"nap": "napolitano",
		"naq": "nama",
		"nb": "noruego bokmal",
		"nd": "ndebele septentrional",
		"nds": "bajo alemán",
		"nds_NL": "bajo sajón",
		"ne": "nepalí",
		"new": "newari",
		"ng": "ndonga",
		"nia": "nias",
		"niu": "niueano",
		"nl": "neerlandés",
		"nl_BE": "flamenco",
		"nmg": "kwasio",
		"nn": "noruego nynorsk",
		"nnh": "ngiemboon",
		"no": "noruego",
		"nog": "nogai",
		"non": "nórdico antiguo",
		"nqo": "n’ko",
		"nr": "ndebele meridional",
		"nso": "sotho septentrional",
		"nus": "nuer",
		"nv": "navajo",
		"nwc": "newari clásico",
		"ny": "nyanja",
		"nym": "nyamwezi",
		"nyn": "nyankole",
		"nyo": "nyoro",
		"nzi": "nzima",
		"oc": "occitano",
		"oj": "ojibwa",
		"om": "oromo",
		"or": "oriya",
		"os": "osético",
		"osa": "osage",
		"ota": "turco otomano",
		"pa": "punyabí",
		"pag": "pangasinán",
		"pal": "pahlavi",
		"pam": "pampanga",
		"pap": "papiamento",
		"pau": "palauano",
		"pcm": "pcm",
		"peo": "persa antiguo",
		"phn": "fenicio",
		"pi": "pali",
		"pl": "polaco",
		"pon": "pohnpeiano",
		"prg": "prusiano antiguo",
		"pro": "provenzal antiguo",
		"ps": "pastún",
		"ps_alt-variant": "pashtún",
		"pt": "portugués",
		"pt_BR": "portugués de Brasil",
		"pt_PT": "portugués de Portugal",
		"qu": "quechua",
		"quc": "quiché",
		"raj": "rajasthani",
		"rap": "rapanui",
		"rar": "rarotongano",
		"rm": "retorrománico",
		"rn": "kiroundi",
		"ro": "rumano",
		"ro_MD": "moldavo",
		"rof": "rombo",
		"rom": "romaní",
		"root": "raíz",
		"ru": "ruso",
		"rup": "arrumano",
		"rw": "kinyarwanda",
		"rwk": "rwa",
		"sa": "sánscrito",
		"sad": "sandawe",
		"sah": "sakha",
		"sam": "arameo samaritano",
		"saq": "samburu",
		"sas": "sasak",
		"sat": "santali",
		"sba": "ngambay",
		"sbp": "sangu",
		"sc": "sardo",
		"scn": "siciliano",
		"sco": "escocés",
		"sd": "sindhi",
		"sdh": "kurdo meridional",
		"se": "sami septentrional",
		"see": "seneca",
		"seh": "sena",
		"sel": "selkup",
		"ses": "koyraboro senni",
		"sg": "sango",
		"sga": "irlandés antiguo",
		"sh": "serbocroata",
		"shi": "tashelhit",
		"shn": "shan",
		"shu": "árabe chadiano",
		"si": "cingalés",
		"sid": "sidamo",
		"sk": "eslovaco",
		"sl": "esloveno",
		"sm": "samoano",
		"sma": "sami del sur",
		"smj": "sami lule",
		"smn": "sami inari",
		"sms": "sami skolt",
		"sn": "shona",
		"snk": "soninké",
		"so": "somalí",
		"sog": "sogdiano",
		"sq": "albanés",
		"sr": "serbio",
		"srn": "sranan tongo",
		"srr": "serer",
		"ss": "siswati",
		"ssy": "saho",
		"st": "sesotho meridional",
		"su": "sundanés",
		"suk": "sukuma",
		"sus": "susu",
		"sux": "sumerio",
		"sv": "sueco",
		"sw": "suajili",
		"sw_CD": "suajili del Congo",
		"swb": "comorense",
		"syc": "siríaco clásico",
		"syr": "siriaco",
		"ta": "tamil",
		"te": "telugu",
		"tem": "temne",
		"teo": "teso",
		"ter": "tereno",
		"tet": "tetún",
		"tg": "tayiko",
		"th": "tailandés",
		"ti": "tigriña",
		"tig": "tigré",
		"tiv": "tiv",
		"tk": "turcomano",
		"tkl": "tokelauano",
		"tl": "tagalo",
		"tlh": "klingon",
		"tli": "tlingit",
		"tmh": "tamashek",
		"tn": "setswana",
		"to": "tongano",
		"tog": "tonga del Nyasa",
		"tpi": "tok pisin",
		"tr": "turco",
		"trv": "taroko",
		"ts": "tsonga",
		"tsi": "tsimshiano",
		"tt": "tártaro",
		"tum": "tumbuka",
		"tvl": "tuvaluano",
		"tw": "twi",
		"twq": "tasawaq",
		"ty": "tahitiano",
		"tyv": "tuviniano",
		"tzm": "tamazight del Marruecos Central",
		"udm": "udmurt",
		"ug": "uigur",
		"ug_alt-variant": "uyghur",
		"uga": "ugarítico",
		"uk": "ucraniano",
		"umb": "umbundu",
		"und": "lengua desconocida",
		"ur": "urdu",
		"uz": "uzbeko",
		"vai": "vai",
		"ve": "venda",
		"vi": "vietnamita",
		"vo": "volapük",
		"vot": "vótico",
		"vun": "vunjo",
		"wa": "valón",
		"wae": "walser",
		"wal": "walamo",
		"war": "waray",
		"was": "washo",
		"wbp": "warlpiri",
		"wo": "wolof",
		"wuu": "wuu",
		"xal": "kalmyk",
		"xh": "xhosa",
		"xog": "soga",
		"yao": "yao",
		"yap": "yapés",
		"yav": "yangben",
		"ybb": "yemba",
		"yi": "yidis",
		"yo": "yoruba",
		"yue": "cantonés",
		"za": "zhuang",
		"zap": "zapoteco",
		"zbl": "símbolos Bliss",
		"zen": "zenaga",
		"zgh": "tamazight marroquí estándar",
		"zh": "chino",
		"zh_Hans": "chino simplificado",
		"zh_Hant": "chino tradicional",
		"zu": "zulú",
		"zun": "zuni",
		"zxx": "sin contenido lingüístico",
		"zza": "zazaki"
	},
	"scripts": {
		"Adlm": "Adlm",
		"Aghb": "Aghb",
		"Ahom": "Ahom",
		"Arab": "árabe",
		"Arab-alt-variant": "perso-árabe",
		"Armi": "Armi",
		"Armn": "armenio",
		"Avst": "avéstico",
		"Bali": "balinés",
		"Bamu": "Bamu",
		"Bass": "Bass",
		"Batk": "batak",
		"Beng": "bengalí",
		"Bhks": "Bhks",
		"Blis": "símbolos blis",
		"Bopo": "bopomofo",
		"Brah": "brahmi",
		"Brai": "braille",
		"Bugi": "buginés",
		"Buhd": "buhid",
		"Cakm": "Cakm",
		"Cans": "silabarios aborígenes canadienses unificados",
		"Cari": "cario",
		"Cham": "cham",
		"Cher": "cherokee",
		"Cirt": "cirth",
		"Copt": "copto",
		"Cprt": "chipriota",
		"Cyrl": "cirílico",
		"Cyrs": "cirílico del antiguo eslavo eclesiástico",
		"Deva": "devanagari",
		"Dogr": "Dogr",
		"Dsrt": "deseret",
		"Dupl": "Dupl",
		"Egyd": "egipcio demótico",
		"Egyh": "egipcio hierático",
		"Egyp": "jeroglíficos egipcios",
		"Elba": "Elba",
		"Ethi": "etiópico",
		"Geok": "georgiano eclesiástico",
		"Geor": "georgiano",
		"Glag": "glagolítico",
		"Gong": "Gong",
		"Gonm": "Gonm",
		"Goth": "gótico",
		"Gran": "Gran",
		"Grek": "griego",
		"Gujr": "gujarati",
		"Guru": "gurmuji",
		"Hanb": "hanb",
		"Hang": "hangul",
		"Hani": "han",
		"Hano": "hanunoo",
		"Hans": "simplificado",
		"Hans-alt-stand-alone": "han simplificado",
		"Hant": "tradicional",
		"Hant-alt-stand-alone": "han tradicional",
		"Hatr": "Hatr",
		"Hebr": "hebreo",
		"Hira": "hiragana",
		"Hluw": "Hluw",
		"Hmng": "pahawh hmong",
		"Hrkt": "katakana o hiragana",
		"Hung": "húngaro antiguo",
		"Inds": "Indio (harappan)",
		"Ital": "antigua bastardilla",
		"Jamo": "jamo",
		"Java": "javanés",
		"Jpan": "japonés",
		"Kali": "kayah li",
		"Kana": "katakana",
		"Khar": "kharosthi",
		"Khmr": "jemer",
		"Khoj": "Khoj",
		"Knda": "canarés",
		"Kore": "coreano",
		"Kthi": "Kthi",
		"Lana": "lanna",
		"Laoo": "lao",
		"Latf": "latino fraktur",
		"Latg": "latino gaélico",
		"Latn": "latín",
		"Lepc": "lepcha",
		"Limb": "limbu",
		"Lina": "lineal A",
		"Linb": "lineal B",
		"Lisu": "Lisu",
		"Lyci": "licio",
		"Lydi": "lidio",
		"Mahj": "Mahj",
		"Maka": "Maka",
		"Mand": "mandeo",
		"Mani": "Mani",
		"Marc": "Marc",
		"Maya": "jeroglíficos mayas",
		"Medf": "Medf",
		"Mend": "Mend",
		"Merc": "Merc",
		"Mero": "meroítico",
		"Mlym": "malayálam",
		"Modi": "Modi",
		"Mong": "mongol",
		"Moon": "moon",
		"Mroo": "Mroo",
		"Mtei": "manipuri",
		"Mult": "Mult",
		"Mymr": "birmano",
		"Narb": "Narb",
		"Nbat": "Nbat",
		"Newa": "Newa",
		"Nkoo": "n’ko",
		"Nshu": "Nshu",
		"Ogam": "ogham",
		"Olck": "ol ciki",
		"Orkh": "orkhon",
		"Orya": "oriya",
		"Osge": "Osge",
		"Osma": "osmaniya",
		"Palm": "Palm",
		"Pauc": "Pauc",
		"Perm": "permiano antiguo",
		"Phag": "phags-pa",
		"Phli": "Phli",
		"Phlp": "Phlp",
		"Phnx": "fenicio",
		"Plrd": "Pollard Miao",
		"Prti": "Prti",
		"Qaag": "Qaag",
		"Rjng": "rejang",
		"Rohg": "Rohg",
		"Roro": "rongo-rongo",
		"Runr": "rúnico",
		"Samr": "Samr",
		"Sara": "sarati",
		"Sarb": "Sarb",
		"Saur": "saurashtra",
		"Sgnw": "SignWriting",
		"Shaw": "shaviano",
		"Shrd": "Shrd",
		"Sidd": "Sidd",
		"Sind": "Sind",
		"Sinh": "cingalés",
		"Sogd": "Sogd",
		"Sogo": "Sogo",
		"Sora": "Sora",
		"Soyo": "Soyo",
		"Sund": "sundanés",
		"Sylo": "syloti nagri",
		"Syrc": "siriaco",
		"Syre": "siriaco estrangelo",
		"Syrj": "siriaco occidental",
		"Syrn": "siriaco oriental",
		"Tagb": "tagbanúa",
		"Takr": "Takr",
		"Tale": "tai le",
		"Talu": "nuevo tai lue",
		"Taml": "tamil",
		"Tang": "Tang",
		"Tavt": "Tavt",
		"Telu": "telegu",
		"Teng": "tengwar",
		"Tfng": "tifinagh",
		"Tglg": "tagalo",
		"Thaa": "thaana",
		"Thai": "tailandés",
		"Tibt": "tibetano",
		"Tirh": "Tirh",
		"Ugar": "ugarítico",
		"Vaii": "vai",
		"Visp": "lenguaje visible",
		"Wara": "Wara",
		"Xpeo": "persa antiguo",
		"Xsux": "cuneiforme sumerio-acadio",
		"Yiii": "yi",
		"Zanb": "Zanb",
		"Zinh": "heredado",
		"Zmth": "notación matemática",
		"Zsye": "emojis",
		"Zsym": "símbolos",
		"Zxxx": "no escrito",
		"Zyyy": "común",
		"Zzzz": "alfabeto desconocido"
	},
	"territories": {
		"142": "Asia",
		"143": "Asia central",
		"145": "Asia Occidental",
		"150": "Europa",
		"151": "Europa Oriental",
		"154": "Europa septentrional",
		"155": "Europa Occidental",
		"202": "África subsahariana",
		"419": "Latinoamérica",
		"001": "Mundo",
		"002": "África",
		"003": "América del Norte",
		"005": "Sudamérica",
		"009": "Oceanía",
		"011": "África Occidental",
		"013": "Centroamérica",
		"014": "África Oriental",
		"015": "África septentrional",
		"017": "África central",
		"018": "África meridional",
		"019": "América",
		"021": "Norteamérica",
		"029": "Caribe",
		"030": "Asia Oriental",
		"034": "Asia meridional",
		"035": "Sudeste Asiático",
		"039": "Europa meridional",
		"053": "Australasia",
		"054": "Melanesia",
		"057": "Región de Micronesia",
		"061": "Polinesia",
		"AC": "Isla Ascensión",
		"AD": "Andorra",
		"AE": "Emiratos Árabes Unidos",
		"AF": "Afganistán",
		"AG": "Antigua y Barbuda",
		"AI": "Anguila",
		"AL": "Albania",
		"AM": "Armenia",
		"AO": "Angola",
		"AQ": "Antártida",
		"AR": "Argentina",
		"AS": "Samoa Americana",
		"AT": "Austria",
		"AU": "Australia",
		"AW": "Aruba",
		"AX": "Islas Åland",
		"AZ": "Azerbaiyán",
		"BA": "Bosnia y Herzegovina",
		"BB": "Barbados",
		"BD": "Bangladés",
		"BE": "Bélgica",
		"BF": "Burkina Faso",
		"BG": "Bulgaria",
		"BH": "Baréin",
		"BI": "Burundi",
		"BJ": "Benín",
		"BL": "San Bartolomé",
		"BM": "Bermudas",
		"BN": "Brunéi",
		"BO": "Bolivia",
		"BQ": "Caribe neerlandés",
		"BR": "Brasil",
		"BS": "Bahamas",
		"BT": "Bután",
		"BV": "Isla Bouvet",
		"BW": "Botsuana",
		"BY": "Bielorrusia",
		"BZ": "Belice",
		"CA": "Canadá",
		"CC": "Islas Cocos",
		"CD": "República Democrática del Congo",
		"CD-alt-variant": "Congo (República Democrática del Congo)",
		"CF": "República Centroafricana",
		"CG": "República del Congo",
		"CG-alt-variant": "Congo (República)",
		"CH": "Suiza",
		"CI": "Côte d’Ivoire",
		"CI-alt-variant": "Costa de Marfil",
		"CK": "Islas Cook",
		"CL": "Chile",
		"CM": "Camerún",
		"CN": "China",
		"CO": "Colombia",
		"CP": "Isla Clipperton",
		"CR": "Costa Rica",
		"CU": "Cuba",
		"CV": "Cabo Verde",
		"CW": "Curazao",
		"CX": "Isla de Navidad",
		"CY": "Chipre",
		"CZ": "Chequia",
		"CZ-alt-variant": "República Checa",
		"DE": "Alemania",
		"DG": "Diego García",
		"DJ": "Yibuti",
		"DK": "Dinamarca",
		"DM": "Dominica",
		"DO": "República Dominicana",
		"DZ": "Argelia",
		"EA": "Ceuta y Melilla",
		"EC": "Ecuador",
		"EE": "Estonia",
		"EG": "Egipto",
		"EH": "Sáhara Occidental",
		"ER": "Eritrea",
		"ES": "España",
		"ET": "Etiopía",
		"EU": "Unión Europea",
		"EZ": "zona euro",
		"FI": "Finlandia",
		"FJ": "Fiyi",
		"FK": "Islas Malvinas",
		"FK-alt-variant": "Islas Malvinas (Islas Falkland)",
		"FM": "Micronesia",
		"FO": "Islas Feroe",
		"FR": "Francia",
		"GA": "Gabón",
		"GB": "Reino Unido",
		"GB-alt-short": "RU",
		"GD": "Granada",
		"GE": "Georgia",
		"GF": "Guayana Francesa",
		"GG": "Guernsey",
		"GH": "Ghana",
		"GI": "Gibraltar",
		"GL": "Groenlandia",
		"GM": "Gambia",
		"GN": "Guinea",
		"GP": "Guadalupe",
		"GQ": "Guinea Ecuatorial",
		"GR": "Grecia",
		"GS": "Islas Georgia del Sur y Sandwich del Sur",
		"GT": "Guatemala",
		"GU": "Guam",
		"GW": "Guinea-Bisáu",
		"GY": "Guyana",
		"HK": "RAE de Hong Kong (China)",
		"HK-alt-short": "Hong Kong",
		"HM": "Islas Heard y McDonald",
		"HN": "Honduras",
		"HR": "Croacia",
		"HT": "Haití",
		"HU": "Hungría",
		"IC": "Islas Canarias",
		"ID": "Indonesia",
		"IE": "Irlanda",
		"IL": "Israel",
		"IM": "Isla de Man",
		"IN": "India",
		"IO": "Territorio Británico del Océano Índico",
		"IQ": "Irak",
		"IR": "Irán",
		"IS": "Islandia",
		"IT": "Italia",
		"JE": "Jersey",
		"JM": "Jamaica",
		"JO": "Jordania",
		"JP": "Japón",
		"KE": "Kenia",
		"KG": "Kirguistán",
		"KH": "Camboya",
		"KI": "Kiribati",
		"KM": "Comoras",
		"KN": "San Cristóbal y Nieves",
		"KP": "Corea del Norte",
		"KR": "Corea del Sur",
		"KW": "Kuwait",
		"KY": "Islas Caimán",
		"KZ": "Kazajistán",
		"LA": "Laos",
		"LB": "Líbano",
		"LC": "Santa Lucía",
		"LI": "Liechtenstein",
		"LK": "Sri Lanka",
		"LR": "Liberia",
		"LS": "Lesoto",
		"LT": "Lituania",
		"LU": "Luxemburgo",
		"LV": "Letonia",
		"LY": "Libia",
		"MA": "Marruecos",
		"MC": "Mónaco",
		"MD": "Moldavia",
		"ME": "Montenegro",
		"MF": "San Martín",
		"MG": "Madagascar",
		"MH": "Islas Marshall",
		"MK": "Macedonia",
		"MK-alt-variant": "Macedonia (ERYM)",
		"ML": "Mali",
		"MM": "Myanmar (Birmania)",
		"MN": "Mongolia",
		"MO": "RAE de Macao (China)",
		"MO-alt-short": "Macao",
		"MP": "Islas Marianas del Norte",
		"MQ": "Martinica",
		"MR": "Mauritania",
		"MS": "Montserrat",
		"MT": "Malta",
		"MU": "Mauricio",
		"MV": "Maldivas",
		"MW": "Malaui",
		"MX": "México",
		"MY": "Malasia",
		"MZ": "Mozambique",
		"NA": "Namibia",
		"NC": "Nueva Caledonia",
		"NE": "Níger",
		"NF": "Isla Norfolk",
		"NG": "Nigeria",
		"NI": "Nicaragua",
		"NL": "Países Bajos",
		"NO": "Noruega",
		"NP": "Nepal",
		"NR": "Nauru",
		"NU": "Niue",
		"NZ": "Nueva Zelanda",
		"OM": "Omán",
		"PA": "Panamá",
		"PE": "Perú",
		"PF": "Polinesia Francesa",
		"PG": "Papúa Nueva Guinea",
		"PH": "Filipinas",
		"PK": "Pakistán",
		"PL": "Polonia",
		"PM": "San Pedro y Miquelón",
		"PN": "Islas Pitcairn",
		"PR": "Puerto Rico",
		"PS": "Territorios Palestinos",
		"PS-alt-short": "Palestina",
		"PT": "Portugal",
		"PW": "Palaos",
		"PY": "Paraguay",
		"QA": "Catar",
		"QO": "Islas Ultramarinas",
		"RE": "Reunión",
		"RO": "Rumanía",
		"RS": "Serbia",
		"RU": "Rusia",
		"RW": "Ruanda",
		"SA": "Arabia Saudita",
		"SB": "Islas Salomón",
		"SC": "Seychelles",
		"SD": "Sudán",
		"SE": "Suecia",
		"SG": "Singapur",
		"SH": "Santa Elena",
		"SI": "Eslovenia",
		"SJ": "Svalbard y Jan Mayen",
		"SK": "Eslovaquia",
		"SL": "Sierra Leona",
		"SM": "San Marino",
		"SN": "Senegal",
		"SO": "Somalia",
		"SR": "Surinam",
		"SS": "Sudán del Sur",
		"ST": "Santo Tomé y Príncipe",
		"SV": "El Salvador",
		"SX": "Sint Maarten",
		"SY": "Siria",
		"SZ": "Suazilandia",
		"TA": "Tristán de Acuña",
		"TC": "Islas Turcas y Caicos",
		"TD": "Chad",
		"TF": "Territorios Australes Franceses",
		"TG": "Togo",
		"TH": "Tailandia",
		"TJ": "Tayikistán",
		"TK": "Tokelau",
		"TL": "Timor-Leste",
		"TL-alt-variant": "Timor Oriental",
		"TM": "Turkmenistán",
		"TN": "Túnez",
		"TO": "Tonga",
		"TR": "Turquía",
		"TT": "Trinidad y Tobago",
		"TV": "Tuvalu",
		"TW": "Taiwán",
		"TZ": "Tanzania",
		"UA": "Ucrania",
		"UG": "Uganda",
		"UM": "Islas menores alejadas de EE. UU.",
		"UN": "UN",
		"US": "Estados Unidos",
		"US-alt-short": "EE. UU.",
		"UY": "Uruguay",
		"UZ": "Uzbekistán",
		"VA": "Ciudad del Vaticano",
		"VC": "San Vicente y las Granadinas",
		"VE": "Venezuela",
		"VG": "Islas Vírgenes Británicas",
		"VI": "Islas Vírgenes de EE. UU.",
		"VN": "Vietnam",
		"VU": "Vanuatu",
		"WF": "Wallis y Futuna",
		"WS": "Samoa",
		"XA": "XA",
		"XB": "XB",
		"XK": "Kosovo",
		"YE": "Yemen",
		"YT": "Mayotte",
		"ZA": "Sudáfrica",
		"ZM": "Zambia",
		"ZW": "Zimbabue",
		"ZZ": "Región desconocida"
	},
	"orientation": "left-to-right",
	"ca-gregorian": {
		"dateFormats": {
			"full": "EEEE, d 'de' MMMM 'de' y",
			"long": "d 'de' MMMM 'de' y",
			"medium": "d MMM y",
			"short": "dd/MM/yy"
		},
		"timeFormats": {
			"full": "H:mm:ss zzzz",
			"long": "H:mm:ss z",
			"medium": "H:mm:ss",
			"short": "H:mm"
		},
		"dateTimeFormats": {
			"full": "{1}, {0}",
			"long": "{1}, {0}",
			"medium": "{1} {0}",
			"short": "{1} {0}",
			"availableFormats": {
				"Bh": "h B",
				"Bhm": "h:mm B",
				"Bhms": "h:mm:ss B",
				"d": "d",
				"E": "ccc",
				"EBhm": "E h:mm B",
				"EBhms": "E h:mm:ss B",
				"Ed": "E d",
				"Ehm": "E h:mm a",
				"EHm": "E HH:mm",
				"Ehms": "E h:mm:ss a",
				"EHms": "E HH:mm:ss",
				"Gy": "y G",
				"GyMMM": "MMM y G",
				"GyMMMd": "d MMM y G",
				"GyMMMEd": "E, d MMM y G",
				"GyMMMM": "MMMM 'de' y G",
				"GyMMMMd": "d 'de' MMMM 'de' y G",
				"GyMMMMEd": "E, d 'de' MMMM 'de' y G",
				"h": "h a",
				"H": "HH",
				"hm": "h:mm a",
				"Hm": "H:mm",
				"hms": "h:mm:ss a",
				"Hms": "H:mm:ss",
				"hmsv": "h:mm:ss a v",
				"Hmsv": "HH:mm:ss v",
				"hmsvvvv": "h:mm:ss a (vvvv)",
				"Hmsvvvv": "HH:mm:ss (vvvv)",
				"hmv": "h:mm a v",
				"Hmv": "HH:mm v",
				"M": "L",
				"Md": "d/M",
				"MEd": "E, d/M",
				"MMd": "d/MM",
				"MMdd": "dd/MM",
				"MMM": "LLL",
				"MMMd": "d MMM",
				"MMMdd": "dd-MMM",
				"MMMEd": "E d 'de' MMM",
				"MMMMd": "d 'de' MMMM",
				"MMMMEd": "E, d 'de' MMMM",
				"ms": "mm:ss",
				"y": "y",
				"yM": "M/y",
				"yMd": "d/M/y",
				"yMEd": "E, d/M/y",
				"yMM": "MM/y",
				"yMMM": "MMMM 'de' y",
				"yMMMd": "d 'de' MMMM 'de' y",
				"yMMMEd": "EEE, d 'de' MMMM 'de' y",
				"yMMMM": "MMMM 'de' y",
				"yMMMMd": "d 'de' MMMM 'de' y",
				"yMMMMEd": "EEE, d 'de' MMMM 'de' y",
				"yQQQ": "QQQ y",
				"yQQQQ": "QQQQ 'de' y",
				"MMMMW": "'semana' W 'de' MMM",
				"yw": "'semana' w 'de' Y"
			},
			"appendItems": {
				"Day": "{0} ({2}: {1})",
				"Day-Of-Week": "{0} {1}",
				"Era": "{1} {0}",
				"Hour": "{0} ({2}: {1})",
				"Minute": "{0} ({2}: {1})",
				"Month": "{0} ({2}: {1})",
				"Quarter": "{0} ({2}: {1})",
				"Second": "{0} ({2}: {1})",
				"Timezone": "{0} {1}",
				"Week": "{0} ({2}: {1})",
				"Year": "{1} {0}"
			},
			"intervalFormats": {
				"intervalFormatFallback": "{0} – {1}",
				"d": {
					"d": "d–d"
				},
				"Gy": {
					"G": "G y – G y",
					"y": "G y–y"
				},
				"GyM": {
					"G": "GGGGG y-MM – GGGGG y-MM",
					"M": "GGGGG y-MM – y-MM",
					"y": "GGGGG y-MM – y-MM"
				},
				"GyMd": {
					"d": "GGGGG y-MM-dd – y-MM-dd",
					"G": "GGGGG y-MM-dd – GGGGG y-MM-dd",
					"M": "GGGGG y-MM-dd – y-MM-dd",
					"y": "GGGGG y-MM-dd – y-MM-dd"
				},
				"GyMEd": {
					"d": "GGGGG y-MM-dd, E – y-MM-dd, E",
					"G": "GGGGG y-MM-dd, E – GGGGG y-MM-dd, E",
					"M": "GGGGG y-MM-dd, E – y-MM-dd, E",
					"y": "GGGGG y-MM-dd, E – y-MM-dd, E"
				},
				"GyMMM": {
					"G": "G y MMM – G y MMM",
					"M": "G y MMM–MMM",
					"y": "G y MMM – y MMM"
				},
				"GyMMMd": {
					"d": "G y MMM d–d",
					"G": "G y MMM d – G y MMM d",
					"M": "G y MMM d – MMM d",
					"y": "G y MMM d – y MMM d"
				},
				"GyMMMEd": {
					"d": "G y MMM d, E – MMM d, E",
					"G": "G y MMM d, E – G y MMM d, E",
					"M": "G y MMM d, E – MMM d, E",
					"y": "G y MMM d, E – y MMM d, E"
				},
				"h": {
					"a": "h a – h a",
					"h": "h–h a"
				},
				"H": {
					"H": "HH–HH"
				},
				"hm": {
					"a": "h:mm a – h:mm a",
					"h": "h:mm–h:mm a",
					"m": "h:mm–h:mm a"
				},
				"Hm": {
					"H": "HH:mm–HH:mm",
					"m": "HH:mm–HH:mm"
				},
				"hmv": {
					"a": "h:mm a – h:mm a v",
					"h": "h:mm–h:mm a v",
					"m": "h:mm–h:mm a v"
				},
				"Hmv": {
					"H": "HH:mm–HH:mm v",
					"m": "HH:mm–HH:mm v"
				},
				"hv": {
					"a": "h a – h a v",
					"h": "h–h a v"
				},
				"Hv": {
					"H": "HH–HH v"
				},
				"M": {
					"M": "M–M"
				},
				"Md": {
					"d": "d/M – d/M",
					"M": "d/M – d/M"
				},
				"MEd": {
					"d": "E, d/M – E, d/M",
					"M": "E, M/d–E, M/d"
				},
				"MMM": {
					"M": "MMM–MMM"
				},
				"MMMd": {
					"d": "d–d 'de' MMM",
					"M": "d 'de' MMM – d 'de' MMM"
				},
				"MMMEd": {
					"d": "E d 'de' MMM – E d 'de' MMM",
					"M": "E d 'de' MMM – E d 'de' MMM"
				},
				"MMMMd": {
					"d": "d–d 'de' MMMM",
					"M": "d 'de' MMMM–d 'de' MMMM"
				},
				"MMMMEd": {
					"d": "E, d 'de' MMMM–E, d 'de' MMMM",
					"M": "E, d 'de' MMMM–E, d 'de' MMMM"
				},
				"y": {
					"y": "y–y"
				},
				"yM": {
					"M": "M/y – M/y",
					"y": "M/y – M/y"
				},
				"yMd": {
					"d": "d/M/y – d/M/y",
					"M": "d/M/y – d/M/y",
					"y": "d/M/y – d/M/y"
				},
				"yMEd": {
					"d": "E, d/M/y – E, d/M/y",
					"M": "E, d/M/y – E, d/M/y",
					"y": "E, d/M/y – E, d/M/y"
				},
				"yMMM": {
					"M": "MMM–MMM 'de' y",
					"y": "MMM 'de' y – MMM 'de' y"
				},
				"yMMMd": {
					"d": "d–d 'de' MMM 'de' y",
					"M": "d 'de' MMM – d 'de' MMM y",
					"y": "d 'de' MMM 'de' y – d 'de' MMM 'de' y"
				},
				"yMMMEd": {
					"d": "E d 'de' MMM – E d 'de' MMM 'de' y",
					"M": "E d 'de' MMM – E d 'de' MMM 'de' y",
					"y": "E d 'de' MMM 'de' y – E d 'de' MMM 'de' y"
				},
				"yMMMM": {
					"M": "MMMM–MMMM 'de' y",
					"y": "MMMM 'de' y – MMMM 'de' y"
				},
				"yMMMMd": {
					"d": "d–d 'de' MMMM 'de' y",
					"M": "d 'de' MMMM–d 'de' MMMM 'de' y",
					"y": "d 'de' MMMM 'de' y–d 'de' MMMM 'de' y"
				},
				"yMMMMEd": {
					"d": "E, d 'de' MMMM–E, d 'de' MMMM 'de' y",
					"M": "E, d 'de' MMMM–E, d 'de' MMMM 'de' y",
					"y": "E, d 'de' MMMM 'de' y–E, d 'de' MMMM 'de' y"
				}
			}
		},
		"months": {
			"format": {
				"abbreviated": [
					"ene",
					"feb",
					"mar",
					"abr",
					"may",
					"jun",
					"jul",
					"ago",
					"sep",
					"oct",
					"nov",
					"dic"
				],
				"narrow": [
					"E",
					"F",
					"M",
					"A",
					"M",
					"J",
					"J",
					"A",
					"S",
					"O",
					"N",
					"D"
				],
				"wide": [
					"enero",
					"febrero",
					"marzo",
					"abril",
					"mayo",
					"junio",
					"julio",
					"agosto",
					"septiembre",
					"octubre",
					"noviembre",
					"diciembre"
				]
			},
			"stand-alone": {
				"abbreviated": [
					"ene.",
					"feb.",
					"mar.",
					"abr.",
					"may.",
					"jun.",
					"jul.",
					"ago.",
					"sep.",
					"oct.",
					"nov.",
					"dic."
				],
				"narrow": [
					"E",
					"F",
					"M",
					"A",
					"M",
					"J",
					"J",
					"A",
					"S",
					"O",
					"N",
					"D"
				],
				"wide": [
					"enero",
					"febrero",
					"marzo",
					"abril",
					"mayo",
					"junio",
					"julio",
					"agosto",
					"septiembre",
					"octubre",
					"noviembre",
					"diciembre"
				]
			}
		},
		"days": {
			"format": {
				"abbreviated": [
					"dom.",
					"lun.",
					"mar.",
					"mié.",
					"jue.",
					"vie.",
					"sáb."
				],
				"narrow": [
					"D",
					"L",
					"M",
					"M",
					"J",
					"V",
					"S"
				],
				"short": [
					"do",
					"lu",
					"ma",
					"mi",
					"ju",
					"vi",
					"sá"
				],
				"wide": [
					"domingo",
					"lunes",
					"martes",
					"miércoles",
					"jueves",
					"viernes",
					"sábado"
				]
			},
			"stand-alone": {
				"abbreviated": [
					"dom.",
					"lun.",
					"mar.",
					"mié.",
					"jue.",
					"vie.",
					"sáb."
				],
				"narrow": [
					"D",
					"L",
					"M",
					"M",
					"J",
					"V",
					"S"
				],
				"short": [
					"DO",
					"LU",
					"MA",
					"MI",
					"JU",
					"VI",
					"SA"
				],
				"wide": [
					"domingo",
					"lunes",
					"martes",
					"miércoles",
					"jueves",
					"viernes",
					"sábado"
				]
			}
		},
		"quarters": {
			"format": {
				"abbreviated": [
					"1er. trim.",
					"2º. trim.",
					"3er. trim.",
					"4º trim."
				],
				"narrow": [
					"1T",
					"2T",
					"3T",
					"4T"
				],
				"wide": [
					"1.er trimestre",
					"2º. trimestre",
					"3.er trimestre",
					"4o. trimestre"
				]
			},
			"stand-alone": {
				"abbreviated": [
					"1er. trim.",
					"2º. trim.",
					"3er. trim.",
					"4º trim."
				],
				"narrow": [
					"1T",
					"2T",
					"3T",
					"4T"
				],
				"wide": [
					"1.er trimestre",
					"2º. trimestre",
					"3.er trimestre",
					"4º trimestre"
				]
			}
		},
		"dayPeriods": {
			"format": {
				"abbreviated": [
					"a. m.",
					"p. m."
				],
				"narrow": [
					"a. m.",
					"p. m."
				],
				"wide": [
					"a. m.",
					"p. m."
				]
			},
			"stand-alone": {
				"abbreviated": [
					"a. m.",
					"p. m."
				],
				"narrow": [
					"a. m.",
					"p. m."
				],
				"wide": [
					"a. m.",
					"p. m."
				]
			}
		},
		"era-wide": {
			"0": "antes de Cristo",
			"1": "después de Cristo"
		},
		"era-abbreviated": {
			"0": "a. C.",
			"1": "d. C."
		},
		"era-narrow": {
			"0": "a. C.",
			"1": "d. C."
		}
	},
	"ca-islamic": {
		"dateFormats": {
			"full": "EEEE, d 'de' MMMM 'de' y G",
			"long": "d 'de' MMMM 'de' y G",
			"medium": "d MMM, y G",
			"short": "dd/MM/yy GGGGG"
		},
		"timeFormats": {
			"full": "H:mm:ss zzzz",
			"long": "H:mm:ss z",
			"medium": "H:mm:ss",
			"short": "H:mm"
		},
		"dateTimeFormats": {
			"full": "{1}, {0}",
			"long": "{1}, {0}",
			"medium": "{1} {0}",
			"short": "{1} {0}",
			"availableFormats": {
				"Bh": "h B",
				"Bhm": "h:mm B",
				"Bhms": "h:mm:ss B",
				"d": "d",
				"E": "ccc",
				"EBhm": "E h:mm B",
				"EBhms": "E h:mm:ss B",
				"Ed": "E d",
				"Ehm": "E h:mm a",
				"EHm": "E HH:mm",
				"Ehms": "E h:mm:ss a",
				"EHms": "E HH:mm:ss",
				"Gy": "y G",
				"GyMMM": "MMM y G",
				"GyMMMd": "d MMM y G",
				"GyMMMEd": "E, d MMM y G",
				"GyMMMM": "MMMM 'de' y G",
				"GyMMMMd": "d 'de' MMMM 'de' y G",
				"GyMMMMEd": "E, d 'de' MMMM 'de' y G",
				"h": "hh a",
				"H": "HH",
				"hm": "hh:mm a",
				"Hm": "HH:mm",
				"hms": "hh:mm:ss a",
				"Hms": "HH:mm:ss",
				"M": "L",
				"Md": "d/M",
				"MEd": "E, d/M",
				"MMM": "LLL",
				"MMMd": "d MMM",
				"MMMEd": "E d MMM",
				"MMMMd": "d 'de' MMM",
				"MMMMEd": "E, d 'de' MMMM",
				"ms": "mm:ss",
				"y": "y G",
				"yMEd": "E d/M/y G",
				"yyyy": "y G",
				"yyyyM": "M/y GGGGG",
				"yyyyMd": "d/M/y GGGGG",
				"yyyyMEd": "E, d/M/y GGGGG",
				"yyyyMMM": "MMM y G",
				"yyyyMMMd": "d MMM y G",
				"yyyyMMMEd": "EEE, d MMM y G",
				"yyyyMMMM": "MMMM 'de' y G",
				"yyyyMMMMd": "d 'de' MMMM 'de' y G",
				"yyyyMMMMEd": "EEE, d 'de' MMMM 'de' y G",
				"yyyyQQQ": "QQQ y G",
				"yyyyQQQQ": "QQQQ 'de' y G"
			},
			"appendItems": {
				"Day": "{0} ({2}: {1})",
				"Day-Of-Week": "{0} {1}",
				"Era": "{1} {0}",
				"Hour": "{0} ({2}: {1})",
				"Minute": "{0} ({2}: {1})",
				"Month": "{0} ({2}: {1})",
				"Quarter": "{0} ({2}: {1})",
				"Second": "{0} ({2}: {1})",
				"Timezone": "{0} {1}",
				"Week": "{0} ({2}: {1})",
				"Year": "{1} {0}"
			},
			"intervalFormats": {
				"intervalFormatFallback": "{0} – {1}",
				"d": {
					"d": "d–d"
				},
				"Gy": {
					"G": "G y – G y",
					"y": "G y–y"
				},
				"GyM": {
					"G": "GGGGG y-MM – GGGGG y-MM",
					"M": "GGGGG y-MM – y-MM",
					"y": "GGGGG y-MM – y-MM"
				},
				"GyMd": {
					"d": "GGGGG y-MM-dd – y-MM-dd",
					"G": "GGGGG y-MM-dd – GGGGG y-MM-dd",
					"M": "GGGGG y-MM-dd – y-MM-dd",
					"y": "GGGGG y-MM-dd – y-MM-dd"
				},
				"GyMEd": {
					"d": "GGGGG y-MM-dd, E – y-MM-dd, E",
					"G": "GGGGG y-MM-dd, E – GGGGG y-MM-dd, E",
					"M": "GGGGG y-MM-dd, E – y-MM-dd, E",
					"y": "GGGGG y-MM-dd, E – y-MM-dd, E"
				},
				"GyMMM": {
					"G": "G y MMM – G y MMM",
					"M": "G y MMM–MMM",
					"y": "G y MMM – y MMM"
				},
				"GyMMMd": {
					"d": "G y MMM d–d",
					"G": "G y MMM d – G y MMM d",
					"M": "G y MMM d – MMM d",
					"y": "G y MMM d – y MMM d"
				},
				"GyMMMEd": {
					"d": "G y MMM d, E – MMM d, E",
					"G": "G y MMM d, E – G y MMM d, E",
					"M": "G y MMM d, E – MMM d, E",
					"y": "G y MMM d, E – y MMM d, E"
				},
				"h": {
					"a": "h a – h a",
					"h": "h–h a"
				},
				"H": {
					"H": "HH–HH"
				},
				"hm": {
					"a": "h:mm a – h:mm a",
					"h": "h:mm – h:mm a",
					"m": "h:mm – h:mm a"
				},
				"Hm": {
					"H": "HH:mm – HH:mm",
					"m": "HH:mm – HH:mm"
				},
				"hmv": {
					"a": "h:mm a – h:mm a v",
					"h": "h:mm – h:mm a v",
					"m": "h:mm – h:mm a v"
				},
				"Hmv": {
					"H": "HH:mm – HH:mm v",
					"m": "HH:mm – HH:mm v"
				},
				"hv": {
					"a": "h a – h a v",
					"h": "h–h a v"
				},
				"Hv": {
					"H": "HH–HH v"
				},
				"M": {
					"M": "M–M"
				},
				"Md": {
					"d": "d/M – d/M",
					"M": "d/M – d/M"
				},
				"MEd": {
					"d": "E, d/M–E, d/M",
					"M": "E, d/M–E, d/M"
				},
				"MMM": {
					"M": "MMM–MMM"
				},
				"MMMd": {
					"d": "d–d 'de' MMM",
					"M": "d 'de' MMM–d 'de' MMM"
				},
				"MMMEd": {
					"d": "E, d 'de' MMM–E, d 'de' MMM",
					"M": "E, d 'de' MMM–E, d 'de' MMM"
				},
				"y": {
					"y": "y–y G"
				},
				"yM": {
					"M": "M/y – M/y G",
					"y": "M/y – M/y G"
				},
				"yMd": {
					"d": "d/M/y – d/M/y G",
					"M": "d/M/y – d/M/y G",
					"y": "d/M/y – d/M/y G"
				},
				"yMEd": {
					"d": "E, d/M/y–E, d/M/y G",
					"M": "E, d/M/y–E, d/M/y G",
					"y": "E, d/M/y–E, d/M/y G"
				},
				"yMMM": {
					"M": "MMM–MMM 'de' y G",
					"y": "MMM 'de' y – MMM 'de' y G"
				},
				"yMMMd": {
					"d": "d–d 'de' MMM 'de' y G",
					"M": "d 'de' MMM – d 'de' MMM y G",
					"y": "d 'de' MMM 'de' y – d 'de' MMM 'de' y G"
				},
				"yMMMEd": {
					"d": "E, d 'de' MMM – E, d 'de' MMM 'de' y G",
					"M": "E, d 'de' MMM – E, d 'de' MMM 'de' y G",
					"y": "E, d 'de' MMM 'de' y – E, d 'de' MMM 'de' y G"
				},
				"yMMMM": {
					"M": "MMMM–MMMM 'de' y G",
					"y": "MMMM 'de' y – MMMM 'de' y G"
				}
			}
		},
		"months": {
			"format": {
				"abbreviated": [
					"Muh.",
					"Saf.",
					"Rab. I",
					"Rab. II",
					"Jum. I",
					"Jum. II",
					"Raj.",
					"Sha.",
					"Ram.",
					"Shaw.",
					"Dhuʻl-Q.",
					"Dhuʻl-H."
				],
				"narrow": [
					"1",
					"2",
					"3",
					"4",
					"5",
					"6",
					"7",
					"8",
					"9",
					"10",
					"11",
					"12"
				],
				"wide": [
					"Muharram",
					"Safar",
					"Rabiʻ I",
					"Rabiʻ II",
					"Jumada I",
					"Jumada II",
					"Rajab",
					"Shaʻban",
					"Ramadan",
					"Shawwal",
					"Dhuʻl-Qiʻdah",
					"Dhuʻl-Hijjah"
				]
			},
			"stand-alone": {
				"abbreviated": [
					"Muh.",
					"Saf.",
					"Rab. I",
					"Rab. II",
					"Jum. I",
					"Jum. II",
					"Raj.",
					"Sha.",
					"Ram.",
					"Shaw.",
					"Dhuʻl-Q.",
					"Dhuʻl-H."
				],
				"narrow": [
					"1",
					"2",
					"3",
					"4",
					"5",
					"6",
					"7",
					"8",
					"9",
					"10",
					"11",
					"12"
				],
				"wide": [
					"Muharram",
					"Safar",
					"Rabiʻ I",
					"Rabiʻ II",
					"Jumada I",
					"Jumada II",
					"Rajab",
					"Shaʻban",
					"Ramadan",
					"Shawwal",
					"Dhuʻl-Qiʻdah",
					"Dhuʻl-Hijjah"
				]
			}
		},
		"days": {
			"format": {
				"abbreviated": [
					"dom.",
					"lun.",
					"mar.",
					"mié.",
					"jue.",
					"vie.",
					"sáb."
				],
				"narrow": [
					"D",
					"L",
					"M",
					"M",
					"J",
					"V",
					"S"
				],
				"short": [
					"do",
					"lu",
					"ma",
					"mi",
					"ju",
					"vi",
					"sá"
				],
				"wide": [
					"domingo",
					"lunes",
					"martes",
					"miércoles",
					"jueves",
					"viernes",
					"sábado"
				]
			},
			"stand-alone": {
				"abbreviated": [
					"dom.",
					"lun.",
					"mar.",
					"mié.",
					"jue.",
					"vie.",
					"sáb."
				],
				"narrow": [
					"D",
					"L",
					"M",
					"M",
					"J",
					"V",
					"S"
				],
				"short": [
					"DO",
					"LU",
					"MA",
					"MI",
					"JU",
					"VI",
					"SA"
				],
				"wide": [
					"domingo",
					"lunes",
					"martes",
					"miércoles",
					"jueves",
					"viernes",
					"sábado"
				]
			}
		},
		"quarters": {
			"format": {
				"abbreviated": [
					"1er. trim.",
					"2º. trim.",
					"3er. trim.",
					"4º trim."
				],
				"narrow": [
					"1T",
					"2T",
					"3T",
					"4T"
				],
				"wide": [
					"1.er trimestre",
					"2º. trimestre",
					"3.er trimestre",
					"4o. trimestre"
				]
			},
			"stand-alone": {
				"abbreviated": [
					"1er. trim.",
					"2º. trim.",
					"3er. trim.",
					"4º trim."
				],
				"narrow": [
					"1T",
					"2T",
					"3T",
					"4T"
				],
				"wide": [
					"1.er trimestre",
					"2º. trimestre",
					"3.er trimestre",
					"4º trimestre"
				]
			}
		},
		"dayPeriods": {
			"format": {
				"abbreviated": [
					"a. m.",
					"p. m."
				],
				"narrow": [
					"a. m.",
					"p. m."
				],
				"wide": [
					"a. m.",
					"p. m."
				]
			},
			"stand-alone": {
				"abbreviated": [
					"a. m.",
					"p. m."
				],
				"narrow": [
					"a. m.",
					"p. m."
				],
				"wide": [
					"a. m.",
					"p. m."
				]
			}
		},
		"era-wide": {
			"0": "AH"
		},
		"era-abbreviated": {
			"0": "AH"
		},
		"era-narrow": {
			"0": "AH"
		}
	},
	"ca-japanese": {
		"dateFormats": {
			"full": "EEEE, d 'de' MMMM 'de' y G",
			"long": "d 'de' MMMM 'de' y G",
			"medium": "dd/MM/y G",
			"short": "dd/MM/yy GGGGG"
		},
		"timeFormats": {
			"full": "H:mm:ss zzzz",
			"long": "H:mm:ss z",
			"medium": "H:mm:ss",
			"short": "H:mm"
		},
		"dateTimeFormats": {
			"full": "{1}, {0}",
			"long": "{1}, {0}",
			"medium": "{1} {0}",
			"short": "{1} {0}",
			"availableFormats": {
				"Bh": "h B",
				"Bhm": "h:mm B",
				"Bhms": "h:mm:ss B",
				"d": "d",
				"E": "ccc",
				"EBhm": "E h:mm B",
				"EBhms": "E h:mm:ss B",
				"Ed": "E d",
				"Ehm": "E h:mm a",
				"EHm": "E HH:mm",
				"Ehms": "E h:mm:ss a",
				"EHms": "E HH:mm:ss",
				"Gy": "y G",
				"GyMMM": "MMM y G",
				"GyMMMd": "d MMM y G",
				"GyMMMEd": "E, d MMM y G",
				"GyMMMM": "MMMM 'de' y G",
				"GyMMMMd": "d 'de' MMMM 'de' y G",
				"GyMMMMEd": "E, d 'de' MMMM 'de' y G",
				"h": "hh a",
				"H": "HH",
				"hm": "hh:mm a",
				"Hm": "HH:mm",
				"hms": "hh:mm:ss a",
				"Hms": "HH:mm:ss",
				"M": "L",
				"Md": "d/M",
				"MEd": "E, d/M",
				"MMM": "LLL",
				"MMMd": "d MMM",
				"MMMEd": "E d MMM",
				"MMMMd": "d 'de' MMM",
				"MMMMEd": "E, d 'de' MMMM",
				"ms": "mm:ss",
				"y": "y G",
				"yMEd": "E d/M/y G",
				"yyyy": "y G",
				"yyyyM": "M/y GGGGG",
				"yyyyMd": "d/M/y GGGGG",
				"yyyyMEd": "E, d/M/y GGGGG",
				"yyyyMMM": "MMM y G",
				"yyyyMMMd": "d MMM y G",
				"yyyyMMMEd": "EEE, d MMM y G",
				"yyyyMMMM": "MMMM 'de' y G",
				"yyyyMMMMd": "d 'de' MMMM 'de' y G",
				"yyyyMMMMEd": "EEE, d 'de' MMMM 'de' y G",
				"yyyyQQQ": "QQQ y G",
				"yyyyQQQQ": "QQQQ 'de' y G"
			},
			"appendItems": {
				"Day": "{0} ({2}: {1})",
				"Day-Of-Week": "{0} {1}",
				"Era": "{1} {0}",
				"Hour": "{0} ({2}: {1})",
				"Minute": "{0} ({2}: {1})",
				"Month": "{0} ({2}: {1})",
				"Quarter": "{0} ({2}: {1})",
				"Second": "{0} ({2}: {1})",
				"Timezone": "{0} {1}",
				"Week": "{0} ({2}: {1})",
				"Year": "{1} {0}"
			},
			"intervalFormats": {
				"intervalFormatFallback": "{0} – {1}",
				"d": {
					"d": "d–d"
				},
				"Gy": {
					"G": "G y – G y",
					"y": "G y–y"
				},
				"GyM": {
					"G": "GGGGG y-MM – GGGGG y-MM",
					"M": "GGGGG y-MM – y-MM",
					"y": "GGGGG y-MM – y-MM"
				},
				"GyMd": {
					"d": "GGGGG y-MM-dd – y-MM-dd",
					"G": "GGGGG y-MM-dd – GGGGG y-MM-dd",
					"M": "GGGGG y-MM-dd – y-MM-dd",
					"y": "GGGGG y-MM-dd – y-MM-dd"
				},
				"GyMEd": {
					"d": "GGGGG y-MM-dd, E – y-MM-dd, E",
					"G": "GGGGG y-MM-dd, E – GGGGG y-MM-dd, E",
					"M": "GGGGG y-MM-dd, E – y-MM-dd, E",
					"y": "GGGGG y-MM-dd, E – y-MM-dd, E"
				},
				"GyMMM": {
					"G": "G y MMM – G y MMM",
					"M": "G y MMM–MMM",
					"y": "G y MMM – y MMM"
				},
				"GyMMMd": {
					"d": "G y MMM d–d",
					"G": "G y MMM d – G y MMM d",
					"M": "G y MMM d – MMM d",
					"y": "G y MMM d – y MMM d"
				},
				"GyMMMEd": {
					"d": "G y MMM d, E – MMM d, E",
					"G": "G y MMM d, E – G y MMM d, E",
					"M": "G y MMM d, E – MMM d, E",
					"y": "G y MMM d, E – y MMM d, E"
				},
				"h": {
					"a": "h a – h a",
					"h": "h–h a"
				},
				"H": {
					"H": "HH–HH"
				},
				"hm": {
					"a": "h:mm a – h:mm a",
					"h": "h:mm – h:mm a",
					"m": "h:mm – h:mm a"
				},
				"Hm": {
					"H": "HH:mm – HH:mm",
					"m": "HH:mm – HH:mm"
				},
				"hmv": {
					"a": "h:mm a – h:mm a v",
					"h": "h:mm – h:mm a v",
					"m": "h:mm – h:mm a v"
				},
				"Hmv": {
					"H": "HH:mm – HH:mm v",
					"m": "HH:mm – HH:mm v"
				},
				"hv": {
					"a": "h a – h a v",
					"h": "h–h a v"
				},
				"Hv": {
					"H": "HH–HH v"
				},
				"M": {
					"M": "M–M"
				},
				"Md": {
					"d": "d/M – d/M",
					"M": "d/M – d/M"
				},
				"MEd": {
					"d": "E, d/M–E, d/M",
					"M": "E, d/M–E, d/M"
				},
				"MMM": {
					"M": "MMM–MMM"
				},
				"MMMd": {
					"d": "d–d 'de' MMM",
					"M": "d 'de' MMM–d 'de' MMM"
				},
				"MMMEd": {
					"d": "E, d 'de' MMM–E, d 'de' MMM",
					"M": "E, d 'de' MMM–E, d 'de' MMM"
				},
				"y": {
					"y": "y–y G"
				},
				"yM": {
					"M": "M/y – M/y G",
					"y": "M/y – M/y G"
				},
				"yMd": {
					"d": "d/M/y – d/M/y G",
					"M": "d/M/y – d/M/y G",
					"y": "d/M/y – d/M/y G"
				},
				"yMEd": {
					"d": "E, d/M/y–E, d/M/y G",
					"M": "E, d/M/y–E, d/M/y G",
					"y": "E, d/M/y–E, d/M/y G"
				},
				"yMMM": {
					"M": "MMM–MMM 'de' y G",
					"y": "MMM 'de' y – MMM 'de' y G"
				},
				"yMMMd": {
					"d": "d–d 'de' MMM 'de' y G",
					"M": "d 'de' MMM – d 'de' MMM y G",
					"y": "d 'de' MMM 'de' y – d 'de' MMM 'de' y G"
				},
				"yMMMEd": {
					"d": "E, d 'de' MMM – E, d 'de' MMM 'de' y G",
					"M": "E, d 'de' MMM – E, d 'de' MMM 'de' y G",
					"y": "E, d 'de' MMM 'de' y – E, d 'de' MMM 'de' y G"
				},
				"yMMMM": {
					"M": "MMMM–MMMM 'de' y G",
					"y": "MMMM 'de' y – MMMM 'de' y G"
				}
			}
		},
		"months": {
			"format": {
				"abbreviated": [
					"ene",
					"feb",
					"mar",
					"abr",
					"may",
					"jun",
					"jul",
					"ago",
					"sep",
					"oct",
					"nov",
					"dic"
				],
				"narrow": [
					"E",
					"F",
					"M",
					"A",
					"M",
					"J",
					"J",
					"A",
					"S",
					"O",
					"N",
					"D"
				],
				"wide": [
					"enero",
					"febrero",
					"marzo",
					"abril",
					"mayo",
					"junio",
					"julio",
					"agosto",
					"septiembre",
					"octubre",
					"noviembre",
					"diciembre"
				]
			},
			"stand-alone": {
				"abbreviated": [
					"ene.",
					"feb.",
					"mar.",
					"abr.",
					"may.",
					"jun.",
					"jul.",
					"ago.",
					"sep.",
					"oct.",
					"nov.",
					"dic."
				],
				"narrow": [
					"E",
					"F",
					"M",
					"A",
					"M",
					"J",
					"J",
					"A",
					"S",
					"O",
					"N",
					"D"
				],
				"wide": [
					"enero",
					"febrero",
					"marzo",
					"abril",
					"mayo",
					"junio",
					"julio",
					"agosto",
					"septiembre",
					"octubre",
					"noviembre",
					"diciembre"
				]
			}
		},
		"days": {
			"format": {
				"abbreviated": [
					"dom.",
					"lun.",
					"mar.",
					"mié.",
					"jue.",
					"vie.",
					"sáb."
				],
				"narrow": [
					"D",
					"L",
					"M",
					"M",
					"J",
					"V",
					"S"
				],
				"short": [
					"do",
					"lu",
					"ma",
					"mi",
					"ju",
					"vi",
					"sá"
				],
				"wide": [
					"domingo",
					"lunes",
					"martes",
					"miércoles",
					"jueves",
					"viernes",
					"sábado"
				]
			},
			"stand-alone": {
				"abbreviated": [
					"dom.",
					"lun.",
					"mar.",
					"mié.",
					"jue.",
					"vie.",
					"sáb."
				],
				"narrow": [
					"D",
					"L",
					"M",
					"M",
					"J",
					"V",
					"S"
				],
				"short": [
					"DO",
					"LU",
					"MA",
					"MI",
					"JU",
					"VI",
					"SA"
				],
				"wide": [
					"domingo",
					"lunes",
					"martes",
					"miércoles",
					"jueves",
					"viernes",
					"sábado"
				]
			}
		},
		"quarters": {
			"format": {
				"abbreviated": [
					"1er. trim.",
					"2º. trim.",
					"3er. trim.",
					"4º trim."
				],
				"narrow": [
					"1T",
					"2T",
					"3T",
					"4T"
				],
				"wide": [
					"1.er trimestre",
					"2º. trimestre",
					"3.er trimestre",
					"4o. trimestre"
				]
			},
			"stand-alone": {
				"abbreviated": [
					"1er. trim.",
					"2º. trim.",
					"3er. trim.",
					"4º trim."
				],
				"narrow": [
					"1T",
					"2T",
					"3T",
					"4T"
				],
				"wide": [
					"1.er trimestre",
					"2º. trimestre",
					"3.er trimestre",
					"4º trimestre"
				]
			}
		},
		"dayPeriods": {
			"format": {
				"abbreviated": [
					"a. m.",
					"p. m."
				],
				"narrow": [
					"a. m.",
					"p. m."
				],
				"wide": [
					"a. m.",
					"p. m."
				]
			},
			"stand-alone": {
				"abbreviated": [
					"a. m.",
					"p. m."
				],
				"narrow": [
					"a. m.",
					"p. m."
				],
				"wide": [
					"a. m.",
					"p. m."
				]
			}
		},
		"era-wide": {
			"232": "Meiji",
			"233": "Taishō",
			"234": "Shōwa",
			"235": "Heisei",
			"236": "Reiwa"
		},
		"era-abbreviated": {
			"232": "Meiji",
			"233": "Taishō",
			"234": "Shōwa",
			"235": "Heisei",
			"236": "Reiwa"
		},
		"era-narrow": {
			"232": "M",
			"233": "T",
			"234": "S",
			"235": "H",
			"236": "R"
		}
	},
	"ca-persian": {
		"dateFormats": {
			"full": "EEEE, d 'de' MMMM 'de' y G",
			"long": "d 'de' MMMM 'de' y G",
			"medium": "d MMM, y G",
			"short": "dd/MM/yy GGGGG"
		},
		"timeFormats": {
			"full": "H:mm:ss zzzz",
			"long": "H:mm:ss z",
			"medium": "H:mm:ss",
			"short": "H:mm"
		},
		"dateTimeFormats": {
			"full": "{1}, {0}",
			"long": "{1}, {0}",
			"medium": "{1} {0}",
			"short": "{1} {0}",
			"availableFormats": {
				"Bh": "h B",
				"Bhm": "h:mm B",
				"Bhms": "h:mm:ss B",
				"d": "d",
				"E": "ccc",
				"EBhm": "E h:mm B",
				"EBhms": "E h:mm:ss B",
				"Ed": "E d",
				"Ehm": "E h:mm a",
				"EHm": "E HH:mm",
				"Ehms": "E h:mm:ss a",
				"EHms": "E HH:mm:ss",
				"Gy": "y G",
				"GyMMM": "MMM y G",
				"GyMMMd": "d MMM y G",
				"GyMMMEd": "E, d MMM y G",
				"GyMMMM": "MMMM 'de' y G",
				"GyMMMMd": "d 'de' MMMM 'de' y G",
				"GyMMMMEd": "E, d 'de' MMMM 'de' y G",
				"h": "hh a",
				"H": "HH",
				"hm": "hh:mm a",
				"Hm": "HH:mm",
				"hms": "hh:mm:ss a",
				"Hms": "HH:mm:ss",
				"M": "L",
				"Md": "d/M",
				"MEd": "E, d/M",
				"MMM": "LLL",
				"MMMd": "d MMM",
				"MMMEd": "E d MMM",
				"MMMMd": "d 'de' MMM",
				"MMMMEd": "E, d 'de' MMMM",
				"ms": "mm:ss",
				"y": "y G",
				"yMEd": "E d/M/y G",
				"yyyy": "y G",
				"yyyyM": "M/y GGGGG",
				"yyyyMd": "d/M/y GGGGG",
				"yyyyMEd": "E, d/M/y GGGGG",
				"yyyyMMM": "MMM y G",
				"yyyyMMMd": "d MMM y G",
				"yyyyMMMEd": "EEE, d MMM y G",
				"yyyyMMMM": "MMMM 'de' y G",
				"yyyyMMMMd": "d 'de' MMMM 'de' y G",
				"yyyyMMMMEd": "EEE, d 'de' MMMM 'de' y G",
				"yyyyQQQ": "QQQ y G",
				"yyyyQQQQ": "QQQQ 'de' y G"
			},
			"appendItems": {
				"Day": "{0} ({2}: {1})",
				"Day-Of-Week": "{0} {1}",
				"Era": "{1} {0}",
				"Hour": "{0} ({2}: {1})",
				"Minute": "{0} ({2}: {1})",
				"Month": "{0} ({2}: {1})",
				"Quarter": "{0} ({2}: {1})",
				"Second": "{0} ({2}: {1})",
				"Timezone": "{0} {1}",
				"Week": "{0} ({2}: {1})",
				"Year": "{1} {0}"
			},
			"intervalFormats": {
				"intervalFormatFallback": "{0} – {1}",
				"d": {
					"d": "d–d"
				},
				"Gy": {
					"G": "G y – G y",
					"y": "G y–y"
				},
				"GyM": {
					"G": "GGGGG y-MM – GGGGG y-MM",
					"M": "GGGGG y-MM – y-MM",
					"y": "GGGGG y-MM – y-MM"
				},
				"GyMd": {
					"d": "GGGGG y-MM-dd – y-MM-dd",
					"G": "GGGGG y-MM-dd – GGGGG y-MM-dd",
					"M": "GGGGG y-MM-dd – y-MM-dd",
					"y": "GGGGG y-MM-dd – y-MM-dd"
				},
				"GyMEd": {
					"d": "GGGGG y-MM-dd, E – y-MM-dd, E",
					"G": "GGGGG y-MM-dd, E – GGGGG y-MM-dd, E",
					"M": "GGGGG y-MM-dd, E – y-MM-dd, E",
					"y": "GGGGG y-MM-dd, E – y-MM-dd, E"
				},
				"GyMMM": {
					"G": "G y MMM – G y MMM",
					"M": "G y MMM–MMM",
					"y": "G y MMM – y MMM"
				},
				"GyMMMd": {
					"d": "G y MMM d–d",
					"G": "G y MMM d – G y MMM d",
					"M": "G y MMM d – MMM d",
					"y": "G y MMM d – y MMM d"
				},
				"GyMMMEd": {
					"d": "G y MMM d, E – MMM d, E",
					"G": "G y MMM d, E – G y MMM d, E",
					"M": "G y MMM d, E – MMM d, E",
					"y": "G y MMM d, E – y MMM d, E"
				},
				"h": {
					"a": "h a – h a",
					"h": "h–h a"
				},
				"H": {
					"H": "HH–HH"
				},
				"hm": {
					"a": "h:mm a – h:mm a",
					"h": "h:mm – h:mm a",
					"m": "h:mm – h:mm a"
				},
				"Hm": {
					"H": "HH:mm – HH:mm",
					"m": "HH:mm – HH:mm"
				},
				"hmv": {
					"a": "h:mm a – h:mm a v",
					"h": "h:mm – h:mm a v",
					"m": "h:mm – h:mm a v"
				},
				"Hmv": {
					"H": "HH:mm – HH:mm v",
					"m": "HH:mm – HH:mm v"
				},
				"hv": {
					"a": "h a – h a v",
					"h": "h–h a v"
				},
				"Hv": {
					"H": "HH–HH v"
				},
				"M": {
					"M": "M–M"
				},
				"Md": {
					"d": "d/M – d/M",
					"M": "d/M – d/M"
				},
				"MEd": {
					"d": "E, d/M–E, d/M",
					"M": "E, d/M–E, d/M"
				},
				"MMM": {
					"M": "MMM–MMM"
				},
				"MMMd": {
					"d": "d–d 'de' MMM",
					"M": "d 'de' MMM–d 'de' MMM"
				},
				"MMMEd": {
					"d": "E, d 'de' MMM–E, d 'de' MMM",
					"M": "E, d 'de' MMM–E, d 'de' MMM"
				},
				"y": {
					"y": "y–y G"
				},
				"yM": {
					"M": "M/y – M/y G",
					"y": "M/y – M/y G"
				},
				"yMd": {
					"d": "d/M/y – d/M/y G",
					"M": "d/M/y – d/M/y G",
					"y": "d/M/y – d/M/y G"
				},
				"yMEd": {
					"d": "E, d/M/y–E, d/M/y G",
					"M": "E, d/M/y–E, d/M/y G",
					"y": "E, d/M/y–E, d/M/y G"
				},
				"yMMM": {
					"M": "MMM–MMM 'de' y G",
					"y": "MMM 'de' y – MMM 'de' y G"
				},
				"yMMMd": {
					"d": "d–d 'de' MMM 'de' y G",
					"M": "d 'de' MMM – d 'de' MMM y G",
					"y": "d 'de' MMM 'de' y – d 'de' MMM 'de' y G"
				},
				"yMMMEd": {
					"d": "E, d 'de' MMM – E, d 'de' MMM 'de' y G",
					"M": "E, d 'de' MMM – E, d 'de' MMM 'de' y G",
					"y": "E, d 'de' MMM 'de' y – E, d 'de' MMM 'de' y G"
				},
				"yMMMM": {
					"M": "MMMM–MMMM 'de' y G",
					"y": "MMMM 'de' y – MMMM 'de' y G"
				}
			}
		},
		"months": {
			"format": {
				"abbreviated": [
					"farvardin",
					"ordibehesht",
					"khordad",
					"tir",
					"mordad",
					"shahrivar",
					"mehr",
					"aban",
					"azar",
					"dey",
					"bahman",
					"esfand"
				],
				"narrow": [
					"1",
					"2",
					"3",
					"4",
					"5",
					"6",
					"7",
					"8",
					"9",
					"10",
					"11",
					"12"
				],
				"wide": [
					"farvardin",
					"ordibehesht",
					"khordad",
					"tir",
					"mordad",
					"shahrivar",
					"mehr",
					"aban",
					"azar",
					"dey",
					"bahman",
					"esfand"
				]
			},
			"stand-alone": {
				"abbreviated": [
					"farvardin",
					"ordibehesht",
					"khordad",
					"tir",
					"mordad",
					"shahrivar",
					"mehr",
					"aban",
					"azar",
					"dey",
					"bahman",
					"esfand"
				],
				"narrow": [
					"1",
					"2",
					"3",
					"4",
					"5",
					"6",
					"7",
					"8",
					"9",
					"10",
					"11",
					"12"
				],
				"wide": [
					"farvardin",
					"ordibehesht",
					"khordad",
					"tir",
					"mordad",
					"shahrivar",
					"mehr",
					"aban",
					"azar",
					"dey",
					"bahman",
					"esfand"
				]
			}
		},
		"days": {
			"format": {
				"abbreviated": [
					"dom.",
					"lun.",
					"mar.",
					"mié.",
					"jue.",
					"vie.",
					"sáb."
				],
				"narrow": [
					"D",
					"L",
					"M",
					"M",
					"J",
					"V",
					"S"
				],
				"short": [
					"do",
					"lu",
					"ma",
					"mi",
					"ju",
					"vi",
					"sá"
				],
				"wide": [
					"domingo",
					"lunes",
					"martes",
					"miércoles",
					"jueves",
					"viernes",
					"sábado"
				]
			},
			"stand-alone": {
				"abbreviated": [
					"dom.",
					"lun.",
					"mar.",
					"mié.",
					"jue.",
					"vie.",
					"sáb."
				],
				"narrow": [
					"D",
					"L",
					"M",
					"M",
					"J",
					"V",
					"S"
				],
				"short": [
					"DO",
					"LU",
					"MA",
					"MI",
					"JU",
					"VI",
					"SA"
				],
				"wide": [
					"domingo",
					"lunes",
					"martes",
					"miércoles",
					"jueves",
					"viernes",
					"sábado"
				]
			}
		},
		"quarters": {
			"format": {
				"abbreviated": [
					"1er. trim.",
					"2º. trim.",
					"3er. trim.",
					"4º trim."
				],
				"narrow": [
					"1T",
					"2T",
					"3T",
					"4T"
				],
				"wide": [
					"1.er trimestre",
					"2º. trimestre",
					"3.er trimestre",
					"4o. trimestre"
				]
			},
			"stand-alone": {
				"abbreviated": [
					"1er. trim.",
					"2º. trim.",
					"3er. trim.",
					"4º trim."
				],
				"narrow": [
					"1T",
					"2T",
					"3T",
					"4T"
				],
				"wide": [
					"1.er trimestre",
					"2º. trimestre",
					"3.er trimestre",
					"4º trimestre"
				]
			}
		},
		"dayPeriods": {
			"format": {
				"abbreviated": [
					"a. m.",
					"p. m."
				],
				"narrow": [
					"a. m.",
					"p. m."
				],
				"wide": [
					"a. m.",
					"p. m."
				]
			},
			"stand-alone": {
				"abbreviated": [
					"a. m.",
					"p. m."
				],
				"narrow": [
					"a. m.",
					"p. m."
				],
				"wide": [
					"a. m.",
					"p. m."
				]
			}
		},
		"era-wide": {
			"0": "AP"
		},
		"era-abbreviated": {
			"0": "AP"
		},
		"era-narrow": {
			"0": "AP"
		}
	},
	"ca-buddhist": {
		"dateFormats": {
			"full": "EEEE, d 'de' MMMM 'de' y G",
			"long": "d 'de' MMMM 'de' y G",
			"medium": "d MMM, y G",
			"short": "dd/MM/yy GGGGG"
		},
		"timeFormats": {
			"full": "H:mm:ss zzzz",
			"long": "H:mm:ss z",
			"medium": "H:mm:ss",
			"short": "H:mm"
		},
		"dateTimeFormats": {
			"full": "{1}, {0}",
			"long": "{1}, {0}",
			"medium": "{1} {0}",
			"short": "{1} {0}",
			"availableFormats": {
				"Bh": "h B",
				"Bhm": "h:mm B",
				"Bhms": "h:mm:ss B",
				"d": "d",
				"E": "ccc",
				"EBhm": "E h:mm B",
				"EBhms": "E h:mm:ss B",
				"Ed": "E d",
				"Ehm": "E h:mm a",
				"EHm": "E HH:mm",
				"Ehms": "E h:mm:ss a",
				"EHms": "E HH:mm:ss",
				"Gy": "y G",
				"GyMMM": "MMM y G",
				"GyMMMd": "d MMM y G",
				"GyMMMEd": "E, d MMM y G",
				"GyMMMM": "MMMM 'de' y G",
				"GyMMMMd": "d 'de' MMMM 'de' y G",
				"GyMMMMEd": "E, d 'de' MMMM 'de' y G",
				"h": "hh a",
				"H": "HH",
				"hm": "hh:mm a",
				"Hm": "HH:mm",
				"hms": "hh:mm:ss a",
				"Hms": "HH:mm:ss",
				"M": "L",
				"Md": "d/M",
				"MEd": "E, d/M",
				"MMM": "LLL",
				"MMMd": "d MMM",
				"MMMEd": "E d MMM",
				"MMMMd": "d 'de' MMM",
				"MMMMEd": "E, d 'de' MMMM",
				"ms": "mm:ss",
				"y": "y G",
				"yMEd": "E d/M/y G",
				"yyyy": "y G",
				"yyyyM": "M/y GGGGG",
				"yyyyMd": "d/M/y GGGGG",
				"yyyyMEd": "E, d/M/y GGGGG",
				"yyyyMMM": "MMM y G",
				"yyyyMMMd": "d MMM y G",
				"yyyyMMMEd": "EEE, d MMM y G",
				"yyyyMMMM": "MMMM 'de' y G",
				"yyyyMMMMd": "d 'de' MMMM 'de' y G",
				"yyyyMMMMEd": "EEE, d 'de' MMMM 'de' y G",
				"yyyyQQQ": "QQQ y G",
				"yyyyQQQQ": "QQQQ 'de' y G"
			},
			"appendItems": {
				"Day": "{0} ({2}: {1})",
				"Day-Of-Week": "{0} {1}",
				"Era": "{1} {0}",
				"Hour": "{0} ({2}: {1})",
				"Minute": "{0} ({2}: {1})",
				"Month": "{0} ({2}: {1})",
				"Quarter": "{0} ({2}: {1})",
				"Second": "{0} ({2}: {1})",
				"Timezone": "{0} {1}",
				"Week": "{0} ({2}: {1})",
				"Year": "{1} {0}"
			},
			"intervalFormats": {
				"intervalFormatFallback": "{0} – {1}",
				"d": {
					"d": "d–d"
				},
				"Gy": {
					"G": "G y – G y",
					"y": "G y–y"
				},
				"GyM": {
					"G": "GGGGG y-MM – GGGGG y-MM",
					"M": "GGGGG y-MM – y-MM",
					"y": "GGGGG y-MM – y-MM"
				},
				"GyMd": {
					"d": "GGGGG y-MM-dd – y-MM-dd",
					"G": "GGGGG y-MM-dd – GGGGG y-MM-dd",
					"M": "GGGGG y-MM-dd – y-MM-dd",
					"y": "GGGGG y-MM-dd – y-MM-dd"
				},
				"GyMEd": {
					"d": "GGGGG y-MM-dd, E – y-MM-dd, E",
					"G": "GGGGG y-MM-dd, E – GGGGG y-MM-dd, E",
					"M": "GGGGG y-MM-dd, E – y-MM-dd, E",
					"y": "GGGGG y-MM-dd, E – y-MM-dd, E"
				},
				"GyMMM": {
					"G": "G y MMM – G y MMM",
					"M": "G y MMM–MMM",
					"y": "G y MMM – y MMM"
				},
				"GyMMMd": {
					"d": "G y MMM d–d",
					"G": "G y MMM d – G y MMM d",
					"M": "G y MMM d – MMM d",
					"y": "G y MMM d – y MMM d"
				},
				"GyMMMEd": {
					"d": "G y MMM d, E – MMM d, E",
					"G": "G y MMM d, E – G y MMM d, E",
					"M": "G y MMM d, E – MMM d, E",
					"y": "G y MMM d, E – y MMM d, E"
				},
				"h": {
					"a": "h a – h a",
					"h": "h–h a"
				},
				"H": {
					"H": "HH–HH"
				},
				"hm": {
					"a": "h:mm a – h:mm a",
					"h": "h:mm – h:mm a",
					"m": "h:mm – h:mm a"
				},
				"Hm": {
					"H": "HH:mm – HH:mm",
					"m": "HH:mm – HH:mm"
				},
				"hmv": {
					"a": "h:mm a – h:mm a v",
					"h": "h:mm – h:mm a v",
					"m": "h:mm – h:mm a v"
				},
				"Hmv": {
					"H": "HH:mm – HH:mm v",
					"m": "HH:mm – HH:mm v"
				},
				"hv": {
					"a": "h a – h a v",
					"h": "h–h a v"
				},
				"Hv": {
					"H": "HH–HH v"
				},
				"M": {
					"M": "M–M"
				},
				"Md": {
					"d": "d/M – d/M",
					"M": "d/M – d/M"
				},
				"MEd": {
					"d": "E, d/M–E, d/M",
					"M": "E, d/M–E, d/M"
				},
				"MMM": {
					"M": "MMM–MMM"
				},
				"MMMd": {
					"d": "d–d 'de' MMM",
					"M": "d 'de' MMM–d 'de' MMM"
				},
				"MMMEd": {
					"d": "E, d 'de' MMM–E, d 'de' MMM",
					"M": "E, d 'de' MMM–E, d 'de' MMM"
				},
				"y": {
					"y": "y–y G"
				},
				"yM": {
					"M": "M/y – M/y G",
					"y": "M/y – M/y G"
				},
				"yMd": {
					"d": "d/M/y – d/M/y G",
					"M": "d/M/y – d/M/y G",
					"y": "d/M/y – d/M/y G"
				},
				"yMEd": {
					"d": "E, d/M/y–E, d/M/y G",
					"M": "E, d/M/y–E, d/M/y G",
					"y": "E, d/M/y–E, d/M/y G"
				},
				"yMMM": {
					"M": "MMM–MMM 'de' y G",
					"y": "MMM 'de' y – MMM 'de' y G"
				},
				"yMMMd": {
					"d": "d–d 'de' MMM 'de' y G",
					"M": "d 'de' MMM – d 'de' MMM y G",
					"y": "d 'de' MMM 'de' y – d 'de' MMM 'de' y G"
				},
				"yMMMEd": {
					"d": "E, d 'de' MMM – E, d 'de' MMM 'de' y G",
					"M": "E, d 'de' MMM – E, d 'de' MMM 'de' y G",
					"y": "E, d 'de' MMM 'de' y – E, d 'de' MMM 'de' y G"
				},
				"yMMMM": {
					"M": "MMMM–MMMM 'de' y G",
					"y": "MMMM 'de' y – MMMM 'de' y G"
				}
			}
		},
		"months": {
			"format": {
				"abbreviated": [
					"ene",
					"feb",
					"mar",
					"abr",
					"may",
					"jun",
					"jul",
					"ago",
					"sep",
					"oct",
					"nov",
					"dic"
				],
				"narrow": [
					"E",
					"F",
					"M",
					"A",
					"M",
					"J",
					"J",
					"A",
					"S",
					"O",
					"N",
					"D"
				],
				"wide": [
					"enero",
					"febrero",
					"marzo",
					"abril",
					"mayo",
					"junio",
					"julio",
					"agosto",
					"septiembre",
					"octubre",
					"noviembre",
					"diciembre"
				]
			},
			"stand-alone": {
				"abbreviated": [
					"ene.",
					"feb.",
					"mar.",
					"abr.",
					"may.",
					"jun.",
					"jul.",
					"ago.",
					"sep.",
					"oct.",
					"nov.",
					"dic."
				],
				"narrow": [
					"E",
					"F",
					"M",
					"A",
					"M",
					"J",
					"J",
					"A",
					"S",
					"O",
					"N",
					"D"
				],
				"wide": [
					"enero",
					"febrero",
					"marzo",
					"abril",
					"mayo",
					"junio",
					"julio",
					"agosto",
					"septiembre",
					"octubre",
					"noviembre",
					"diciembre"
				]
			}
		},
		"days": {
			"format": {
				"abbreviated": [
					"dom.",
					"lun.",
					"mar.",
					"mié.",
					"jue.",
					"vie.",
					"sáb."
				],
				"narrow": [
					"D",
					"L",
					"M",
					"M",
					"J",
					"V",
					"S"
				],
				"short": [
					"do",
					"lu",
					"ma",
					"mi",
					"ju",
					"vi",
					"sá"
				],
				"wide": [
					"domingo",
					"lunes",
					"martes",
					"miércoles",
					"jueves",
					"viernes",
					"sábado"
				]
			},
			"stand-alone": {
				"abbreviated": [
					"dom.",
					"lun.",
					"mar.",
					"mié.",
					"jue.",
					"vie.",
					"sáb."
				],
				"narrow": [
					"D",
					"L",
					"M",
					"M",
					"J",
					"V",
					"S"
				],
				"short": [
					"DO",
					"LU",
					"MA",
					"MI",
					"JU",
					"VI",
					"SA"
				],
				"wide": [
					"domingo",
					"lunes",
					"martes",
					"miércoles",
					"jueves",
					"viernes",
					"sábado"
				]
			}
		},
		"quarters": {
			"format": {
				"abbreviated": [
					"1er. trim.",
					"2º. trim.",
					"3er. trim.",
					"4º trim."
				],
				"narrow": [
					"1T",
					"2T",
					"3T",
					"4T"
				],
				"wide": [
					"1.er trimestre",
					"2º. trimestre",
					"3.er trimestre",
					"4o. trimestre"
				]
			},
			"stand-alone": {
				"abbreviated": [
					"1er. trim.",
					"2º. trim.",
					"3er. trim.",
					"4º trim."
				],
				"narrow": [
					"1T",
					"2T",
					"3T",
					"4T"
				],
				"wide": [
					"1.er trimestre",
					"2º. trimestre",
					"3.er trimestre",
					"4º trimestre"
				]
			}
		},
		"dayPeriods": {
			"format": {
				"abbreviated": [
					"a. m.",
					"p. m."
				],
				"narrow": [
					"a. m.",
					"p. m."
				],
				"wide": [
					"a. m.",
					"p. m."
				]
			},
			"stand-alone": {
				"abbreviated": [
					"a. m.",
					"p. m."
				],
				"narrow": [
					"a. m.",
					"p. m."
				],
				"wide": [
					"a. m.",
					"p. m."
				]
			}
		},
		"era-wide": {
			"0": "BE"
		},
		"era-abbreviated": {
			"0": "BE"
		},
		"era-narrow": {
			"0": "BE"
		}
	},
	"dateFields": {
		"era": {
			"displayName": "era"
		},
		"year-wide": {
			"displayName": "año",
			"relative-type--1": "el año pasado",
			"relative-type-0": "este año",
			"relative-type-1": "el año próximo",
			"relativeTime-type-future": {
				"relativeTimePattern-count-one": "dentro de {0} año",
				"relativeTimePattern-count-other": "dentro de {0} años"
			},
			"relativeTime-type-past": {
				"relativeTimePattern-count-one": "hace {0} año",
				"relativeTimePattern-count-other": "hace {0} años"
			}
		},
		"year-short": {
			"displayName": "a",
			"relative-type--1": "el año pasado",
			"relative-type-0": "este año",
			"relative-type-1": "el próximo año",
			"relativeTime-type-future": {
				"relativeTimePattern-count-one": "en {0} a",
				"relativeTimePattern-count-other": "en {0} a"
			},
			"relativeTime-type-past": {
				"relativeTimePattern-count-one": "hace {0} a",
				"relativeTimePattern-count-other": "hace {0} a"
			}
		},
		"year-narrow": {
			"displayName": "a",
			"relative-type--1": "el año pasado",
			"relative-type-0": "este año",
			"relative-type-1": "el próximo año",
			"relativeTime-type-future": {
				"relativeTimePattern-count-one": "en {0} a",
				"relativeTimePattern-count-other": "en {0} a"
			},
			"relativeTime-type-past": {
				"relativeTimePattern-count-one": "-{0} a",
				"relativeTimePattern-count-other": "-{0} a"
			}
		},
		"quarter-wide": {
			"displayName": "trimestre",
			"relative-type--1": "el trimestre pasado",
			"relative-type-0": "este trimestre",
			"relative-type-1": "el próximo trimestre",
			"relativeTime-type-future": {
				"relativeTimePattern-count-one": "dentro de {0} trimetre",
				"relativeTimePattern-count-other": "dentro de {0} trimetres"
			},
			"relativeTime-type-past": {
				"relativeTimePattern-count-one": "hace {0} trimestre",
				"relativeTimePattern-count-other": "hace {0} trimestres"
			}
		},
		"quarter-short": {
			"displayName": "trim.",
			"relative-type--1": "el trimestre pasado",
			"relative-type-0": "este trimestre",
			"relative-type-1": "el próximo trimestre",
			"relativeTime-type-future": {
				"relativeTimePattern-count-one": "en {0} trim.",
				"relativeTimePattern-count-other": "en {0} trim"
			},
			"relativeTime-type-past": {
				"relativeTimePattern-count-one": "hace {0} trim.",
				"relativeTimePattern-count-other": "hace {0} trim."
			}
		},
		"quarter-narrow": {
			"displayName": "trim.",
			"relative-type--1": "el trimestre pasado",
			"relative-type-0": "este trimestre",
			"relative-type-1": "el próximo trimestre",
			"relativeTime-type-future": {
				"relativeTimePattern-count-one": "+{0} T",
				"relativeTimePattern-count-other": "+{0} T"
			},
			"relativeTime-type-past": {
				"relativeTimePattern-count-one": "-{0} T",
				"relativeTimePattern-count-other": "-{0} T"
			}
		},
		"month-wide": {
			"displayName": "mes",
			"relative-type--1": "el mes pasado",
			"relative-type-0": "este mes",
			"relative-type-1": "el mes próximo",
			"relativeTime-type-future": {
				"relativeTimePattern-count-one": "en {0} mes",
				"relativeTimePattern-count-other": "en {0} meses"
			},
			"relativeTime-type-past": {
				"relativeTimePattern-count-one": "hace {0} mes",
				"relativeTimePattern-count-other": "hace {0} meses"
			}
		},
		"month-short": {
			"displayName": "m",
			"relative-type--1": "el mes pasado",
			"relative-type-0": "este mes",
			"relative-type-1": "el próximo mes",
			"relativeTime-type-future": {
				"relativeTimePattern-count-one": "en {0} m",
				"relativeTimePattern-count-other": "en {0} m"
			},
			"relativeTime-type-past": {
				"relativeTimePattern-count-one": "hace {0} m",
				"relativeTimePattern-count-other": "hace {0} m"
			}
		},
		"month-narrow": {
			"displayName": "m",
			"relative-type--1": "el mes pasado",
			"relative-type-0": "este mes",
			"relative-type-1": "el próximo mes",
			"relativeTime-type-future": {
				"relativeTimePattern-count-one": "+{0} m",
				"relativeTimePattern-count-other": "+{0} m"
			},
			"relativeTime-type-past": {
				"relativeTimePattern-count-one": "-{0} m",
				"relativeTimePattern-count-other": "-{0} m"
			}
		},
		"week-wide": {
			"displayName": "semana",
			"relative-type--1": "la semana pasada",
			"relative-type-0": "esta semana",
			"relative-type-1": "la semana próxima",
			"relativeTime-type-future": {
				"relativeTimePattern-count-one": "dentro de {0} semana",
				"relativeTimePattern-count-other": "dentro de {0} semanas"
			},
			"relativeTime-type-past": {
				"relativeTimePattern-count-one": "hace {0} semana",
				"relativeTimePattern-count-other": "hace {0} semanas"
			},
			"relativePeriod": "la semana del {0}"
		},
		"week-short": {
			"displayName": "sem.",
			"relative-type--1": "la semana pasada",
			"relative-type-0": "esta semana",
			"relative-type-1": "la semana próxima",
			"relativeTime-type-future": {
				"relativeTimePattern-count-one": "en {0} sem.",
				"relativeTimePattern-count-other": "en {0} sem."
			},
			"relativeTime-type-past": {
				"relativeTimePattern-count-one": "hace {0} sem.",
				"relativeTimePattern-count-other": "hace {0} sem."
			},
			"relativePeriod": "la semana del {0}"
		},
		"week-narrow": {
			"displayName": "sem.",
			"relative-type--1": "la semana pasada",
			"relative-type-0": "esta semana",
			"relative-type-1": "la semana próxima",
			"relativeTime-type-future": {
				"relativeTimePattern-count-one": "dentro de {0} sem.",
				"relativeTimePattern-count-other": "dentro de {0} sem."
			},
			"relativeTime-type-past": {
				"relativeTimePattern-count-one": "hace {0} sem.",
				"relativeTimePattern-count-other": "hace {0} sem."
			},
			"relativePeriod": "la semana del {0}"
		},
		"day-wide": {
			"displayName": "día",
			"relative-type--2": "anteayer",
			"relative-type--1": "ayer",
			"relative-type-0": "hoy",
			"relative-type-1": "mañana",
			"relative-type-2": "pasado mañana",
			"relativeTime-type-future": {
				"relativeTimePattern-count-one": "dentro de {0} día",
				"relativeTimePattern-count-other": "dentro de {0} días"
			},
			"relativeTime-type-past": {
				"relativeTimePattern-count-one": "hace {0} día",
				"relativeTimePattern-count-other": "hace {0} días"
			}
		},
		"day-short": {
			"displayName": "d",
			"relative-type--2": "anteayer",
			"relative-type--1": "ayer",
			"relative-type-0": "hoy",
			"relative-type-1": "mañana",
			"relative-type-2": "pasado mañana",
			"relativeTime-type-future": {
				"relativeTimePattern-count-one": "en {0} día",
				"relativeTimePattern-count-other": "en {0} días"
			},
			"relativeTime-type-past": {
				"relativeTimePattern-count-one": "hace {0} día",
				"relativeTimePattern-count-other": "hace {0} días"
			}
		},
		"day-narrow": {
			"displayName": "d",
			"relative-type--2": "anteayer",
			"relative-type--1": "ayer",
			"relative-type-0": "hoy",
			"relative-type-1": "mañana",
			"relative-type-2": "pasado mañana",
			"relativeTime-type-future": {
				"relativeTimePattern-count-one": "+{0} día",
				"relativeTimePattern-count-other": "+{0} días"
			},
			"relativeTime-type-past": {
				"relativeTimePattern-count-one": "hace {0} día",
				"relativeTimePattern-count-other": "hace {0} días"
			}
		},
		"weekday": {
			"displayName": "día de la semana"
		},
		"hour-wide": {
			"displayName": "hora",
			"relative-type-0": "esta hora",
			"relativeTime-type-future": {
				"relativeTimePattern-count-one": "dentro de {0} hora",
				"relativeTimePattern-count-other": "dentro de {0} horas"
			},
			"relativeTime-type-past": {
				"relativeTimePattern-count-one": "hace {0} hora",
				"relativeTimePattern-count-other": "hace {0} horas"
			}
		},
		"hour-short": {
			"displayName": "h",
			"relative-type-0": "esta hora",
			"relativeTime-type-future": {
				"relativeTimePattern-count-one": "en {0} h",
				"relativeTimePattern-count-other": "en {0} n"
			},
			"relativeTime-type-past": {
				"relativeTimePattern-count-one": "hace {0} h",
				"relativeTimePattern-count-other": "hace {0} h"
			}
		},
		"hour-narrow": {
			"displayName": "h",
			"relative-type-0": "esta hora",
			"relativeTime-type-future": {
				"relativeTimePattern-count-one": "dentro de {0} h",
				"relativeTimePattern-count-other": "dentro de {0} h"
			},
			"relativeTime-type-past": {
				"relativeTimePattern-count-one": "hace {0} h",
				"relativeTimePattern-count-other": "hace {0} h"
			}
		},
		"minute-wide": {
			"displayName": "minuto",
			"relative-type-0": "este minuto",
			"relativeTime-type-future": {
				"relativeTimePattern-count-one": "dentro de {0} minuto",
				"relativeTimePattern-count-other": "dentro de {0} minutos"
			},
			"relativeTime-type-past": {
				"relativeTimePattern-count-one": "hace {0} minuto",
				"relativeTimePattern-count-other": "hace {0} minutos"
			}
		},
		"minute-short": {
			"displayName": "min",
			"relative-type-0": "este minuto",
			"relativeTime-type-future": {
				"relativeTimePattern-count-one": "en {0} min",
				"relativeTimePattern-count-other": "en {0} min"
			},
			"relativeTime-type-past": {
				"relativeTimePattern-count-one": "hace {0} min",
				"relativeTimePattern-count-other": "hace {0} min"
			}
		},
		"minute-narrow": {
			"displayName": "min",
			"relative-type-0": "este minuto",
			"relativeTime-type-future": {
				"relativeTimePattern-count-one": "+{0} min",
				"relativeTimePattern-count-other": "+{0} min"
			},
			"relativeTime-type-past": {
				"relativeTimePattern-count-one": "-{0} min",
				"relativeTimePattern-count-other": "-{0} min"
			}
		},
		"second-wide": {
			"displayName": "segundo",
			"relative-type-0": "ahora",
			"relativeTime-type-future": {
				"relativeTimePattern-count-one": "dentro de {0} segundo",
				"relativeTimePattern-count-other": "dentro de {0} segundos"
			},
			"relativeTime-type-past": {
				"relativeTimePattern-count-one": "hace {0} segundo",
				"relativeTimePattern-count-other": "hace {0} segundos"
			}
		},
		"second-short": {
			"displayName": "s",
			"relative-type-0": "ahora",
			"relativeTime-type-future": {
				"relativeTimePattern-count-one": "en {0} s",
				"relativeTimePattern-count-other": "en {0} s"
			},
			"relativeTime-type-past": {
				"relativeTimePattern-count-one": "hace {0} s",
				"relativeTimePattern-count-other": "hace {0} s"
			}
		},
		"second-narrow": {
			"displayName": "s",
			"relative-type-0": "ahora",
			"relativeTime-type-future": {
				"relativeTimePattern-count-one": "+{0} s",
				"relativeTimePattern-count-other": "+{0} s"
			},
			"relativeTime-type-past": {
				"relativeTimePattern-count-one": "hace {0} s",
				"relativeTimePattern-count-other": "hace {0} s"
			}
		},
		"zone": {
			"displayName": "zona horaria"
		}
	},
	"decimalFormat": {
		"standard": "#,##0.###"
	},
	"decimalFormat-long": {
		"1000-one": "0 mil",
		"1000-other": "0 mil",
		"10000-one": "00 mil",
		"10000-other": "00 mil",
		"100000-one": "000 mil",
		"100000-other": "000 mil",
		"1000000-one": "0 millón",
		"1000000-other": "0 millones",
		"10000000-one": "00 millones",
		"10000000-other": "00 millones",
		"100000000-one": "000 millones",
		"100000000-other": "000 millones",
		"1000000000-one": "0 mil millones",
		"1000000000-other": "0 mil millones",
		"10000000000-one": "00 mil millones",
		"10000000000-other": "00 mil millones",
		"100000000000-one": "000 mil millones",
		"100000000000-other": "000 mil millones",
		"1000000000000-one": "0 billón",
		"1000000000000-other": "0 billones",
		"10000000000000-one": "00 billones",
		"10000000000000-other": "00 billones",
		"100000000000000-one": "000 billones",
		"100000000000000-other": "000 billones"
	},
	"decimalFormat-short": {
		"1000-one": "0 k",
		"1000-other": "0 k",
		"10000-one": "00 k",
		"10000-other": "00 k",
		"100000-one": "000 k",
		"100000-other": "000 k",
		"1000000-one": "0 M",
		"1000000-other": "0 M",
		"10000000-one": "00 M",
		"10000000-other": "00 M",
		"100000000-one": "000 M",
		"100000000-other": "000 M",
		"1000000000-one": "0000 M",
		"1000000000-other": "0000 M",
		"10000000000-one": "00 mil M",
		"10000000000-other": "00 mil M",
		"100000000000-one": "000 mil M",
		"100000000000-other": "000 mil M",
		"1000000000000-one": "0 B",
		"1000000000000-other": "0 B",
		"10000000000000-one": "00 B",
		"10000000000000-other": "00 B",
		"100000000000000-one": "000 B",
		"100000000000000-other": "000 B"
	},
	"scientificFormat": {
		"standard": "#E0"
	},
	"percentFormat": {
		"standard": "#,##0 %"
	},
	"currencyFormat": {
		"standard": "¤#,##0.00",
		"accounting": "¤#,##0.00",
		"currencySpacing": {
			"beforeCurrency": {
				"currencyMatch": "[:^S:]",
				"surroundingMatch": "[:digit:]",
				"insertBetween": " "
			},
			"afterCurrency": {
				"currencyMatch": "[:^S:]",
				"surroundingMatch": "[:digit:]",
				"insertBetween": " "
			}
		}
	},
	"currencyFormat-short": {
		"1000-one": "0 k¤",
		"1000-other": "0 k¤",
		"10000-one": "00 k¤",
		"10000-other": "00 k¤",
		"100000-one": "000 k¤",
		"100000-other": "000 k¤",
		"1000000-one": "0 M¤",
		"1000000-other": "0 M¤",
		"10000000-one": "00 M¤",
		"10000000-other": "00 M¤",
		"100000000-one": "000 M¤",
		"100000000-other": "000 M¤",
		"1000000000-one": "0000 M¤",
		"1000000000-other": "0000 M¤",
		"10000000000-one": "00 MRD ¤",
		"10000000000-other": "00 MRD ¤",
		"100000000000-one": "000 MRD ¤",
		"100000000000-other": "000 MRD ¤",
		"1000000000000-one": "0 B¤",
		"1000000000000-other": "0 B¤",
		"10000000000000-one": "00 B¤",
		"10000000000000-other": "00 B¤",
		"100000000000000-one": "000 B¤",
		"100000000000000-other": "000 B¤"
	},
	"symbols-latn-decimal": ".",
	"symbols-latn-group": ",",
	"symbols-latn-list": ";",
	"symbols-latn-percentSign": "%",
	"symbols-latn-plusSign": "+",
	"symbols-latn-minusSign": "-",
	"symbols-latn-exponential": "E",
	"symbols-latn-superscriptingExponent": "×",
	"symbols-latn-perMille": "‰",
	"symbols-latn-infinity": "∞",
	"symbols-latn-nan": "NaN",
	"symbols-latn-timeSeparator": ":",
	"currencySymbols": {
		"ESP": "₧",
		"MRO": "MRU",
		"MRU": "UM",
		"MXN": "$",
		"XPF": "CFPF",
		"XXX": "¤"
	},
	"rtl": false,
	"listPattern-standard-wide": {
		"2": "{0} y {1}",
		"start": "{0}, {1}",
		"middle": "{0}, {1}",
		"end": "{0} y {1}"
	},
	"listPattern-or-wide": {
		"2": "{0} o {1}",
		"start": "{0}, {1}",
		"middle": "{0}, {1}",
		"end": "{0} o {1}"
	},
	"listPattern-or-short": {
		"2": "{0} o {1}",
		"start": "{0}, {1}",
		"middle": "{0}, {1}",
		"end": "{0} o {1}"
	},
	"listPattern-standard-short": {
		"2": "{0} y {1}",
		"start": "{0}, {1}",
		"middle": "{0}, {1}",
		"end": "{0} y {1}"
	},
	"units": {
		"short": {
			"per": {
				"compoundUnitPattern": "{0}/{1}"
			},
			"acceleration-g-force": {
				"displayName": "fuerza G",
				"unitPattern-count-one": "{0} G",
				"unitPattern-count-other": "{0} G"
			},
			"acceleration-meter-per-second-squared": {
				"displayName": "m/s²",
				"unitPattern-count-one": "{0} m/s²",
				"unitPattern-count-other": "{0} m/s²"
			},
			"angle-revolution": {
				"displayName": "rev",
				"unitPattern-count-one": "{0} rev",
				"unitPattern-count-other": "{0} rev"
			},
			"angle-radian": {
				"displayName": "rad",
				"unitPattern-count-one": "{0} rad",
				"unitPattern-count-other": "{0} rad"
			},
			"angle-degree": {
				"displayName": "º",
				"unitPattern-count-one": "{0}°",
				"unitPattern-count-other": "{0}°"
			},
			"angle-arc-minute": {
				"displayName": "arcmin",
				"unitPattern-count-one": "{0} min",
				"unitPattern-count-other": "{0} min"
			},
			"angle-arc-second": {
				"displayName": "arcseg",
				"unitPattern-count-one": "{0} s",
				"unitPattern-count-other": "{0} s"
			},
			"area-square-kilometer": {
				"displayName": "km²",
				"unitPattern-count-one": "{0} km²",
				"unitPattern-count-other": "{0} km²",
				"perUnitPattern": "{0}/km²"
			},
			"area-hectare": {
				"displayName": "ha",
				"unitPattern-count-one": "{0} ha",
				"unitPattern-count-other": "{0} ha"
			},
			"area-square-meter": {
				"displayName": "m²",
				"unitPattern-count-one": "{0} m²",
				"unitPattern-count-other": "{0} m²",
				"perUnitPattern": "{0}/m²"
			},
			"area-square-centimeter": {
				"displayName": "cm²",
				"unitPattern-count-one": "{0} cm²",
				"unitPattern-count-other": "{0} cm²",
				"perUnitPattern": "{0}/cm²"
			},
			"area-square-mile": {
				"displayName": "mi²",
				"unitPattern-count-one": "{0} mi²",
				"unitPattern-count-other": "{0} mi²",
				"perUnitPattern": "{0}/mi²"
			},
			"area-acre": {
				"displayName": "ac",
				"unitPattern-count-one": "{0} ac",
				"unitPattern-count-other": "{0} ac"
			},
			"area-square-yard": {
				"displayName": "yd²",
				"unitPattern-count-one": "{0} yd²",
				"unitPattern-count-other": "{0} yd²"
			},
			"area-square-foot": {
				"displayName": "ft²",
				"unitPattern-count-one": "{0} ft²",
				"unitPattern-count-other": "{0} ft²"
			},
			"area-square-inch": {
				"displayName": "in²",
				"unitPattern-count-one": "{0} in²",
				"unitPattern-count-other": "{0} in²",
				"perUnitPattern": "{0}/in²"
			},
			"concentr-karat": {
				"displayName": "kt",
				"unitPattern-count-one": "{0} kt",
				"unitPattern-count-other": "{0} kt"
			},
			"concentr-milligram-per-deciliter": {
				"displayName": "mg/dL",
				"unitPattern-count-one": "{0} mg/dL",
				"unitPattern-count-other": "{0} mg/dL"
			},
			"concentr-millimole-per-liter": {
				"displayName": "mmol/L",
				"unitPattern-count-one": "{0} mmol/L",
				"unitPattern-count-other": "{0} mmol/L"
			},
			"concentr-part-per-million": {
				"displayName": "ppm",
				"unitPattern-count-one": "{0} ppm",
				"unitPattern-count-other": "{0} ppm"
			},
			"concentr-percent": {
				"displayName": "%",
				"unitPattern-count-one": "{0} %",
				"unitPattern-count-other": "{0} %"
			},
			"concentr-permille": {
				"displayName": "‰",
				"unitPattern-count-one": "{0} ‰",
				"unitPattern-count-other": "{0} ‰"
			},
			"consumption-liter-per-kilometer": {
				"displayName": "l/km",
				"unitPattern-count-one": "{0} l/km",
				"unitPattern-count-other": "{0} l/km"
			},
			"consumption-liter-per-100kilometers": {
				"displayName": "l/100 km",
				"unitPattern-count-one": "{0} l/100 km",
				"unitPattern-count-other": "{0} l/100 km"
			},
			"consumption-mile-per-gallon": {
				"displayName": "mi/gal",
				"unitPattern-count-one": "{0} mi/gal",
				"unitPattern-count-other": "{0} mi/gal"
			},
			"consumption-mile-per-gallon-imperial": {
				"displayName": "mpg Imp.",
				"unitPattern-count-one": "{0} mpg Imp.",
				"unitPattern-count-other": "{0} mpg Imp."
			},
			"digital-petabyte": {
				"displayName": "PB",
				"unitPattern-count-one": "{0} PB",
				"unitPattern-count-other": "{0} PB"
			},
			"digital-terabyte": {
				"displayName": "TB",
				"unitPattern-count-one": "{0} TB",
				"unitPattern-count-other": "{0} TB"
			},
			"digital-terabit": {
				"displayName": "Tb",
				"unitPattern-count-one": "{0} Tb",
				"unitPattern-count-other": "{0} Tb"
			},
			"digital-gigabyte": {
				"displayName": "GB",
				"unitPattern-count-one": "{0} GB",
				"unitPattern-count-other": "{0} GB"
			},
			"digital-gigabit": {
				"displayName": "Gb",
				"unitPattern-count-one": "{0} Gb",
				"unitPattern-count-other": "{0} Gb"
			},
			"digital-megabyte": {
				"displayName": "MB",
				"unitPattern-count-one": "{0} MB",
				"unitPattern-count-other": "{0} MB"
			},
			"digital-megabit": {
				"displayName": "Mb",
				"unitPattern-count-one": "{0} Mb",
				"unitPattern-count-other": "{0} Mb"
			},
			"digital-kilobyte": {
				"displayName": "kB",
				"unitPattern-count-one": "{0} kB",
				"unitPattern-count-other": "{0} kB"
			},
			"digital-kilobit": {
				"displayName": "kb",
				"unitPattern-count-one": "{0} kb",
				"unitPattern-count-other": "{0} kb"
			},
			"digital-byte": {
				"displayName": "byte",
				"unitPattern-count-one": "{0} byte",
				"unitPattern-count-other": "{0} byte"
			},
			"digital-bit": {
				"displayName": "bit",
				"unitPattern-count-one": "{0} bit",
				"unitPattern-count-other": "{0} bit"
			},
			"duration-century": {
				"displayName": "sig.",
				"unitPattern-count-one": "{0} sig.",
				"unitPattern-count-other": "{0} sig."
			},
			"duration-year": {
				"displayName": "a",
				"unitPattern-count-one": "{0} a",
				"unitPattern-count-other": "{0} a",
				"perUnitPattern": "{0}/a"
			},
			"duration-month": {
				"displayName": "meses",
				"unitPattern-count-one": "{0} m",
				"unitPattern-count-other": "{0} m",
				"perUnitPattern": "{0}/m."
			},
			"duration-week": {
				"displayName": "sem",
				"unitPattern-count-one": "{0} sem",
				"unitPattern-count-other": "{0} sem",
				"perUnitPattern": "{0}/sem."
			},
			"duration-day": {
				"displayName": "días",
				"unitPattern-count-one": "{0} día",
				"unitPattern-count-other": "{0} días",
				"perUnitPattern": "{0}/d"
			},
			"duration-hour": {
				"displayName": "horas",
				"unitPattern-count-one": "{0} h",
				"unitPattern-count-other": "{0} h",
				"perUnitPattern": "{0}/h"
			},
			"duration-minute": {
				"displayName": "min",
				"unitPattern-count-one": "{0} min",
				"unitPattern-count-other": "{0} min",
				"perUnitPattern": "{0}/min"
			},
			"duration-second": {
				"displayName": "s",
				"unitPattern-count-one": "{0} s",
				"unitPattern-count-other": "{0} s",
				"perUnitPattern": "{0}/s"
			},
			"duration-millisecond": {
				"displayName": "ms",
				"unitPattern-count-one": "{0} ms",
				"unitPattern-count-other": "{0} ms"
			},
			"duration-microsecond": {
				"displayName": "μs",
				"unitPattern-count-one": "{0} μs",
				"unitPattern-count-other": "{0} μs"
			},
			"duration-nanosecond": {
				"displayName": "ns",
				"unitPattern-count-one": "{0} ns",
				"unitPattern-count-other": "{0} ns"
			},
			"electric-ampere": {
				"displayName": "A",
				"unitPattern-count-one": "{0} A",
				"unitPattern-count-other": "{0} A"
			},
			"electric-milliampere": {
				"displayName": "mA",
				"unitPattern-count-one": "{0} mA",
				"unitPattern-count-other": "{0} mA"
			},
			"electric-ohm": {
				"displayName": "Ω",
				"unitPattern-count-one": "{0} Ω",
				"unitPattern-count-other": "{0} Ω"
			},
			"electric-volt": {
				"displayName": "V",
				"unitPattern-count-one": "{0} V",
				"unitPattern-count-other": "{0} V"
			},
			"energy-kilocalorie": {
				"displayName": "kcal",
				"unitPattern-count-one": "{0} kcal",
				"unitPattern-count-other": "{0} kcal"
			},
			"energy-calorie": {
				"displayName": "cal",
				"unitPattern-count-one": "{0} cal",
				"unitPattern-count-other": "{0} cal"
			},
			"energy-foodcalorie": {
				"displayName": "cal",
				"unitPattern-count-one": "{0} cal",
				"unitPattern-count-other": "{0} cal"
			},
			"energy-kilojoule": {
				"displayName": "kJ",
				"unitPattern-count-one": "{0} kJ",
				"unitPattern-count-other": "{0} kJ"
			},
			"energy-joule": {
				"displayName": "J",
				"unitPattern-count-one": "{0} J",
				"unitPattern-count-other": "{0} J"
			},
			"energy-kilowatt-hour": {
				"displayName": "kWh",
				"unitPattern-count-one": "{0} kWh",
				"unitPattern-count-other": "{0} kWh"
			},
			"frequency-gigahertz": {
				"displayName": "GHz",
				"unitPattern-count-one": "{0} GHz",
				"unitPattern-count-other": "{0} GHz"
			},
			"frequency-megahertz": {
				"displayName": "MHz",
				"unitPattern-count-one": "{0} MHz",
				"unitPattern-count-other": "{0} MHz"
			},
			"frequency-kilohertz": {
				"displayName": "kHz",
				"unitPattern-count-one": "{0} kHz",
				"unitPattern-count-other": "{0} kHz"
			},
			"frequency-hertz": {
				"displayName": "Hz",
				"unitPattern-count-one": "{0} Hz",
				"unitPattern-count-other": "{0} Hz"
			},
			"length-kilometer": {
				"displayName": "km",
				"unitPattern-count-one": "{0} km",
				"unitPattern-count-other": "{0} km",
				"perUnitPattern": "{0}/km"
			},
			"length-meter": {
				"displayName": "m",
				"unitPattern-count-one": "{0} m",
				"unitPattern-count-other": "{0} m",
				"perUnitPattern": "{0}/m"
			},
			"length-decimeter": {
				"displayName": "dm",
				"unitPattern-count-one": "{0} dm",
				"unitPattern-count-other": "{0} dm"
			},
			"length-centimeter": {
				"displayName": "cm",
				"unitPattern-count-one": "{0} cm",
				"unitPattern-count-other": "{0} cm",
				"perUnitPattern": "{0}/cm"
			},
			"length-millimeter": {
				"displayName": "mm",
				"unitPattern-count-one": "{0} mm",
				"unitPattern-count-other": "{0} mm"
			},
			"length-micrometer": {
				"displayName": "µm",
				"unitPattern-count-one": "{0} µm",
				"unitPattern-count-other": "{0} µm"
			},
			"length-nanometer": {
				"displayName": "Nm",
				"unitPattern-count-one": "{0} Nm",
				"unitPattern-count-other": "{0} Nm"
			},
			"length-picometer": {
				"displayName": "pm",
				"unitPattern-count-one": "{0} pm",
				"unitPattern-count-other": "{0} pm"
			},
			"length-mile": {
				"displayName": "millas",
				"unitPattern-count-one": "{0} mi",
				"unitPattern-count-other": "{0} mi"
			},
			"length-yard": {
				"displayName": "yd",
				"unitPattern-count-one": "{0} yd",
				"unitPattern-count-other": "{0} yd"
			},
			"length-foot": {
				"displayName": "ft",
				"unitPattern-count-one": "{0} ft",
				"unitPattern-count-other": "{0} ft",
				"perUnitPattern": "{0}/ft"
			},
			"length-inch": {
				"displayName": "in",
				"unitPattern-count-one": "{0} in",
				"unitPattern-count-other": "{0} in",
				"perUnitPattern": "{0}/in"
			},
			"length-parsec": {
				"displayName": "pc",
				"unitPattern-count-one": "{0} pc",
				"unitPattern-count-other": "{0} pc"
			},
			"length-light-year": {
				"displayName": "a. l.",
				"unitPattern-count-one": "{0} a. l.",
				"unitPattern-count-other": "{0} a. l."
			},
			"length-astronomical-unit": {
				"displayName": "au",
				"unitPattern-count-one": "{0} au",
				"unitPattern-count-other": "{0} au"
			},
			"length-furlong": {
				"displayName": "fur",
				"unitPattern-count-other": "{0} fur"
			},
			"length-fathom": {
				"displayName": "fm",
				"unitPattern-count-other": "{0} fth"
			},
			"length-nautical-mile": {
				"displayName": "M",
				"unitPattern-count-one": "{0} M",
				"unitPattern-count-other": "{0} M"
			},
			"length-mile-scandinavian": {
				"displayName": "mi esc.",
				"unitPattern-count-one": "{0} mi esc.",
				"unitPattern-count-other": "{0} mi esc."
			},
			"length-point": {
				"displayName": "pt",
				"unitPattern-count-one": "{0} pt",
				"unitPattern-count-other": "{0} pt"
			},
			"light-lux": {
				"displayName": "lx",
				"unitPattern-count-one": "{0} lx",
				"unitPattern-count-other": "{0} lx"
			},
			"mass-metric-ton": {
				"displayName": "t",
				"unitPattern-count-one": "{0} t",
				"unitPattern-count-other": "{0} t"
			},
			"mass-kilogram": {
				"displayName": "kg",
				"unitPattern-count-one": "{0} kg",
				"unitPattern-count-other": "{0} kg",
				"perUnitPattern": "{0}/kg"
			},
			"mass-gram": {
				"displayName": "g",
				"unitPattern-count-one": "{0} g",
				"unitPattern-count-other": "{0} g",
				"perUnitPattern": "{0}/g"
			},
			"mass-milligram": {
				"displayName": "mg",
				"unitPattern-count-one": "{0} mg",
				"unitPattern-count-other": "{0} mg"
			},
			"mass-microgram": {
				"displayName": "µg",
				"unitPattern-count-one": "{0} µg",
				"unitPattern-count-other": "{0} µg"
			},
			"mass-ton": {
				"displayName": "ton",
				"unitPattern-count-one": "{0} ton",
				"unitPattern-count-other": "{0} ton"
			},
			"mass-stone": {
				"displayName": "stones",
				"unitPattern-count-other": "{0} st"
			},
			"mass-pound": {
				"displayName": "lb",
				"unitPattern-count-one": "{0} lb",
				"unitPattern-count-other": "{0} lb",
				"perUnitPattern": "{0}/lb"
			},
			"mass-ounce": {
				"displayName": "oz",
				"unitPattern-count-one": "{0} oz",
				"unitPattern-count-other": "{0} oz",
				"perUnitPattern": "{0}/oz"
			},
			"mass-ounce-troy": {
				"displayName": "ozt",
				"unitPattern-count-one": "{0} ozt",
				"unitPattern-count-other": "{0} ozt"
			},
			"mass-carat": {
				"displayName": "c",
				"unitPattern-count-one": "{0} c",
				"unitPattern-count-other": "{0} c"
			},
			"power-gigawatt": {
				"displayName": "GW",
				"unitPattern-count-one": "{0} GW",
				"unitPattern-count-other": "{0} GW"
			},
			"power-megawatt": {
				"displayName": "MW",
				"unitPattern-count-one": "{0} MW",
				"unitPattern-count-other": "{0} MW"
			},
			"power-kilowatt": {
				"displayName": "kW",
				"unitPattern-count-one": "{0} kW",
				"unitPattern-count-other": "{0} kW"
			},
			"power-watt": {
				"displayName": "watts",
				"unitPattern-count-one": "{0} W",
				"unitPattern-count-other": "{0} W"
			},
			"power-milliwatt": {
				"displayName": "mW",
				"unitPattern-count-one": "{0} mW",
				"unitPattern-count-other": "{0} mW"
			},
			"power-horsepower": {
				"displayName": "CV",
				"unitPattern-count-one": "{0} CV",
				"unitPattern-count-other": "{0} CV"
			},
			"pressure-hectopascal": {
				"displayName": "hPa",
				"unitPattern-count-one": "{0} hPa",
				"unitPattern-count-other": "{0} hPa"
			},
			"pressure-millimeter-of-mercury": {
				"displayName": "mmHg",
				"unitPattern-count-one": "{0} mmHg",
				"unitPattern-count-other": "{0} mmHg"
			},
			"pressure-pound-per-square-inch": {
				"displayName": "psi",
				"unitPattern-count-one": "{0} psi",
				"unitPattern-count-other": "{0} psi"
			},
			"pressure-inch-hg": {
				"displayName": "inHg",
				"unitPattern-count-one": "{0} inHg",
				"unitPattern-count-other": "{0} inHg"
			},
			"pressure-millibar": {
				"displayName": "mbar",
				"unitPattern-count-one": "{0} mbar",
				"unitPattern-count-other": "{0} mbar"
			},
			"pressure-atmosphere": {
				"displayName": "atm",
				"unitPattern-count-one": "{0} atm",
				"unitPattern-count-other": "{0} atm"
			},
			"speed-kilometer-per-hour": {
				"displayName": "km/hora",
				"unitPattern-count-one": "{0} km/h",
				"unitPattern-count-other": "{0} km/h"
			},
			"speed-meter-per-second": {
				"displayName": "m/s",
				"unitPattern-count-one": "{0} m/s",
				"unitPattern-count-other": "{0} m/s"
			},
			"speed-mile-per-hour": {
				"displayName": "mi/h",
				"unitPattern-count-one": "{0} mi/h",
				"unitPattern-count-other": "{0} mi/h"
			},
			"speed-knot": {
				"displayName": "kn",
				"unitPattern-count-one": "{0} kn",
				"unitPattern-count-other": "{0} kn"
			},
			"temperature-generic": {
				"displayName": "°",
				"unitPattern-count-one": "{0}°",
				"unitPattern-count-other": "{0}°"
			},
			"temperature-celsius": {
				"displayName": "°C",
				"unitPattern-count-one": "{0} °C",
				"unitPattern-count-other": "{0} °C"
			},
			"temperature-fahrenheit": {
				"displayName": "°F",
				"unitPattern-count-one": "{0} °F",
				"unitPattern-count-other": "{0} °F"
			},
			"temperature-kelvin": {
				"displayName": "K",
				"unitPattern-count-one": "{0} K",
				"unitPattern-count-other": "{0} K"
			},
			"volume-cubic-kilometer": {
				"displayName": "km³",
				"unitPattern-count-one": "{0} km³",
				"unitPattern-count-other": "{0} km³"
			},
			"volume-cubic-meter": {
				"displayName": "m³",
				"unitPattern-count-one": "{0} m³",
				"unitPattern-count-other": "{0} m³",
				"perUnitPattern": "{0}/m³"
			},
			"volume-cubic-centimeter": {
				"displayName": "cm³",
				"unitPattern-count-one": "{0} cm³",
				"unitPattern-count-other": "{0} cm³",
				"perUnitPattern": "{0}/cm³"
			},
			"volume-cubic-mile": {
				"displayName": "mi³",
				"unitPattern-count-one": "{0} mi³",
				"unitPattern-count-other": "{0} mi³"
			},
			"volume-cubic-yard": {
				"displayName": "yd³",
				"unitPattern-count-one": "{0} yd³",
				"unitPattern-count-other": "{0} yd³"
			},
			"volume-cubic-foot": {
				"displayName": "ft³",
				"unitPattern-count-one": "{0} ft³",
				"unitPattern-count-other": "{0} ft³"
			},
			"volume-cubic-inch": {
				"displayName": "in³",
				"unitPattern-count-one": "{0} in³",
				"unitPattern-count-other": "{0} in³"
			},
			"volume-megaliter": {
				"displayName": "Ml",
				"unitPattern-count-one": "{0} Ml",
				"unitPattern-count-other": "{0} Ml"
			},
			"volume-hectoliter": {
				"displayName": "hl",
				"unitPattern-count-one": "{0} hl",
				"unitPattern-count-other": "{0} hl"
			},
			"volume-liter": {
				"displayName": "l",
				"unitPattern-count-one": "{0} l",
				"unitPattern-count-other": "{0} l",
				"perUnitPattern": "{0}/l"
			},
			"volume-deciliter": {
				"displayName": "dl",
				"unitPattern-count-one": "{0} dl",
				"unitPattern-count-other": "{0} dl"
			},
			"volume-centiliter": {
				"displayName": "cl",
				"unitPattern-count-one": "{0} cl",
				"unitPattern-count-other": "{0} cl"
			},
			"volume-milliliter": {
				"displayName": "ml",
				"unitPattern-count-one": "{0} ml",
				"unitPattern-count-other": "{0} ml"
			},
			"volume-pint-metric": {
				"displayName": "mpt",
				"unitPattern-count-one": "{0} mpt",
				"unitPattern-count-other": "{0} mpt"
			},
			"volume-cup-metric": {
				"displayName": "mc",
				"unitPattern-count-one": "{0} mc",
				"unitPattern-count-other": "{0} mc"
			},
			"volume-acre-foot": {
				"displayName": "ac ft",
				"unitPattern-count-one": "{0} ac ft",
				"unitPattern-count-other": "{0} ac ft"
			},
			"volume-bushel": {
				"displayName": "bu",
				"unitPattern-count-other": "{0} bu"
			},
			"volume-gallon": {
				"displayName": "gal",
				"unitPattern-count-one": "{0} gal",
				"unitPattern-count-other": "{0} gal",
				"perUnitPattern": "{0}/gal"
			},
			"volume-gallon-imperial": {
				"displayName": "Imp. gal",
				"unitPattern-count-one": "{0} gal Imp.",
				"unitPattern-count-other": "{0} gal Imp.",
				"perUnitPattern": "{0}/gal Imp."
			},
			"volume-quart": {
				"displayName": "qt",
				"unitPattern-count-one": "{0} qt",
				"unitPattern-count-other": "{0} qt"
			},
			"volume-pint": {
				"displayName": "pt",
				"unitPattern-count-one": "{0} pt",
				"unitPattern-count-other": "{0} pt"
			},
			"volume-cup": {
				"displayName": "tza.",
				"unitPattern-count-one": "{0} tza.",
				"unitPattern-count-other": "{0} tzas."
			},
			"volume-fluid-ounce": {
				"displayName": "fl oz",
				"unitPattern-count-one": "{0} fl oz",
				"unitPattern-count-other": "{0} fl oz"
			},
			"volume-tablespoon": {
				"displayName": "cdas.",
				"unitPattern-count-one": "{0} cda.",
				"unitPattern-count-other": "{0} cdas."
			},
			"volume-teaspoon": {
				"displayName": "cdtas.",
				"unitPattern-count-one": "{0} cdta.",
				"unitPattern-count-other": "{0} cdtas."
			},
			"coordinateUnit": {
				"displayName": "punto",
				"east": "{0} E",
				"north": "{0} N",
				"south": "{0} S",
				"west": "{0} O"
			}
		}
	},
	"currencyDigits": {
		"ADP": 0,
		"AFN": 0,
		"ALL": 0,
		"BHD": 3,
		"BIF": 0,
		"BYR": 0,
		"CLF": 4,
		"CLP": 0,
		"DEFAULT": 2,
		"DJF": 0,
		"ESP": 0,
		"GNF": 0,
		"HUF": 0,
		"IQD": 0,
		"IRR": 0,
		"ISK": 0,
		"ITL": 0,
		"JOD": 3,
		"JPY": 0,
		"KMF": 0,
		"KPW": 0,
		"KRW": 0,
		"KWD": 3,
		"LAK": 0,
		"LBP": 0,
		"LUF": 0,
		"LYD": 3,
		"MGA": 0,
		"MGF": 0,
		"MMK": 0,
		"MRO": 0,
		"OMR": 3,
		"PYG": 0,
		"RSD": 0,
		"RWF": 0,
		"SLL": 0,
		"SOS": 0,
		"STD": 0,
		"SYP": 0,
		"TMM": 0,
		"TND": 3,
		"TRL": 0,
		"TWD": 0,
		"UGX": 0,
		"UYI": 0,
		"UYW": 4,
		"VND": 0,
		"VUV": 0,
		"XAF": 0,
		"XOF": 0,
		"XPF": 0,
		"YER": 0,
		"ZMK": 0,
		"ZWD": 0
	},
	"plurals": {
		"one": "n = 1"
	},
	"weekData-minDays": 1,
	"weekData-firstDay": 0,
	"weekData-weekendStart": 6,
	"weekData-weekendEnd": 0,
	"timeData": {
		"_allowed": "H hB h hb",
		"_preferred": "H"
	},
	"eras-gregorian": {
		"0": {
			"_end": "0-12-31"
		},
		"1": {
			"_start": "1-01-01"
		}
	},
	"eras-islamic": {
		"0": {
			"_start": "622-7-15"
		}
	},
	"eras-persian": {
		"0": {
			"_start": "622-01-01"
		}
	},
	"eras-buddhist": {
		"0": {
			"_start": "-542-01-01"
		}
	},
	"eras-japanese": {
		"232": {
			"_start": "1868-9-8"
		},
		"233": {
			"_start": "1912-7-30"
		},
		"234": {
			"_start": "1926-12-25"
		},
		"235": {
			"_start": "1989-1-8"
		},
		"236": {
			"_start": "2019-5-1"
		}
	}
}