{
	"__license": "This file has been derived from Unicode Common Locale Data Repository (CLDR) files (http://cldr.unicode.org). See the copyright and permission notice in the Unicode-Data-Files-LICENSE.txt available at the same location as this file or visit http://www.unicode.org/copyright.html",
	"languages": {
		"aa": "afari",
		"ab": "abhaasi",
		"ace": "atšehi",
		"ach": "atšoli",
		"ada": "adangme",
		"ady": "adõgee",
		"ae": "avesta",
		"aeb": "Tuneesia araabia",
		"af": "afrikaani",
		"afh": "afrihili",
		"agq": "aghemi",
		"ain": "ainu",
		"ak": "akani",
		"akk": "akadi",
		"akz": "alabama",
		"ale": "aleuudi",
		"aln": "geegi",
		"alt": "altai",
		"am": "amhara",
		"an": "aragoni",
		"ang": "vanainglise",
		"anp": "angika",
		"ar": "araabia",
		"ar_001": "araabia (tänapäevane)",
		"arc": "aramea",
		"arn": "mapudunguni",
		"aro": "araona",
		"arp": "arapaho",
		"arq": "Alžeeria araabia",
		"arw": "aravaki",
		"ary": "Maroko araabia",
		"arz": "Egiptuse araabia",
		"as": "assami",
		"asa": "asu",
		"ase": "Ameerika viipekeel",
		"ast": "astuuria",
		"av": "avaari",
		"awa": "avadhi",
		"ay": "aimara",
		"az": "aserbaidžaani",
		"az_alt-short": "aseri",
		"ba": "baškiiri",
		"bal": "belutši",
		"ban": "bali",
		"bar": "baieri",
		"bas": "basaa",
		"bax": "bamuni",
		"bbc": "bataki",
		"bbj": "ghomala",
		"be": "valgevene",
		"bej": "bedža",
		"bem": "bemba",
		"bew": "betavi",
		"bez": "bena",
		"bfd": "bafuti",
		"bfq": "badaga",
		"bg": "bulgaaria",
		"bgn": "läänebelutši",
		"bho": "bhodžpuri",
		"bi": "bislama",
		"bik": "bikoli",
		"bin": "edo",
		"bjn": "bandžari",
		"bkm": "komi (Aafrika)",
		"bla": "mustjalaindiaani",
		"bm": "bambara",
		"bn": "bengali",
		"bo": "tiibeti",
		"bpy": "bišnuprija",
		"bqi": "bahtiari",
		"br": "bretooni",
		"bra": "bradži",
		"brh": "brahui",
		"brx": "bodo",
		"bs": "bosnia",
		"bss": "akoose",
		"bua": "burjaadi",
		"bug": "bugi",
		"bum": "bulu",
		"byn": "bilini",
		"byv": "medumba",
		"ca": "katalaani",
		"cad": "kado",
		"car": "kariibi",
		"cay": "kajuka",
		"cch": "aitšami",
		"ccp": "ccp",
		"ce": "tšetšeeni",
		"ceb": "sebu",
		"cgg": "tšiga",
		"ch": "tšamorro",
		"chb": "tšibtša",
		"chg": "tšagatai",
		"chk": "tšuugi",
		"chm": "mari",
		"chn": "tšinuki žargoon",
		"cho": "tšokto",
		"chp": "tšipevai",
		"chr": "tšerokii",
		"chy": "šaieeni",
		"ckb": "sorani",
		"co": "korsika",
		"cop": "kopti",
		"cps": "kapisnoni",
		"cr": "krii",
		"crh": "krimmitatari",
		"crs": "seišelli",
		"cs": "tšehhi",
		"csb": "kašuubi",
		"cu": "kirikuslaavi",
		"cv": "tšuvaši",
		"cy": "kõmri",
		"da": "taani",
		"dak": "siuu",
		"dar": "dargi",
		"dav": "davida",
		"de": "saksa",
		"de_AT": "Austria saksa",
		"de_CH": "Šveitsi ülemsaksa",
		"del": "delavari",
		"den": "sleivi",
		"dgr": "dogribi",
		"din": "dinka",
		"dje": "zarma",
		"doi": "dogri",
		"dsb": "alamsorbi",
		"dtp": "keskdusuni",
		"dua": "duala",
		"dum": "keskhollandi",
		"dv": "maldiivi",
		"dyo": "fonji",
		"dyu": "djula",
		"dz": "dzongkha",
		"dzg": "daza",
		"ebu": "embu",
		"ee": "eve",
		"efi": "efiki",
		"egl": "emiilia",
		"egy": "egiptuse",
		"eka": "ekadžuki",
		"el": "kreeka",
		"elx": "eelami",
		"en": "inglise",
		"en_AU": "Austraalia inglise",
		"en_CA": "Kanada inglise",
		"en_GB": "Briti inglise",
		"en_GB-alt-short": "Briti inglise",
		"en_US": "Ameerika inglise",
		"en_US-alt-short": "USA inglise",
		"enm": "keskinglise",
		"eo": "esperanto",
		"es": "hispaania",
		"es_419": "Ladina-Ameerika hispaania",
		"es_ES": "Euroopa hispaania",
		"es_MX": "Mehhiko hispaania",
		"esu": "keskjupiki",
		"et": "eesti",
		"eu": "baski",
		"ewo": "evondo",
		"ext": "estremenju",
		"fa": "pärsia",
		"fan": "fangi",
		"fat": "fanti",
		"ff": "fula",
		"fi": "soome",
		"fil": "filipiini",
		"fit": "meä",
		"fj": "fidži",
		"fo": "fääri",
		"fon": "foni",
		"fr": "prantsuse",
		"fr_CA": "Kanada prantsuse",
		"fr_CH": "Šveitsi prantsuse",
		"frc": "cajun’i",
		"frm": "keskprantsuse",
		"fro": "vanaprantsuse",
		"frp": "frankoprovansi",
		"frr": "põhjafriisi",
		"frs": "idafriisi",
		"fur": "friuuli",
		"fy": "läänefriisi",
		"ga": "iiri",
		"gaa": "gaa",
		"gag": "gagauusi",
		"gan": "kani",
		"gay": "gajo",
		"gba": "gbaja",
		"gd": "gaeli",
		"gez": "etioopia",
		"gil": "kiribati",
		"gl": "galeegi",
		"glk": "gilaki",
		"gmh": "keskülemsaksa",
		"gn": "guaranii",
		"goh": "vanaülemsaksa",
		"gon": "gondi",
		"gor": "gorontalo",
		"got": "gooti",
		"grb": "grebo",
		"grc": "vanakreeka",
		"gsw": "šveitsisaksa",
		"gu": "gudžarati",
		"guc": "vajuu",
		"gur": "farefare",
		"guz": "gusii",
		"gv": "mänksi",
		"gwi": "gvitšini",
		"ha": "hausa",
		"hai": "haida",
		"hak": "hakka",
		"haw": "havai",
		"he": "heebrea",
		"hi": "hindi",
		"hif": "Fidži hindi",
		"hil": "hiligainoni",
		"hit": "heti",
		"hmn": "hmongi",
		"ho": "hirimotu",
		"hr": "horvaadi",
		"hsb": "ülemsorbi",
		"hsn": "sjangi",
		"ht": "haiti",
		"hu": "ungari",
		"hup": "hupa",
		"hy": "armeenia",
		"hz": "herero",
		"ia": "interlingua",
		"iba": "ibani",
		"ibb": "ibibio",
		"id": "indoneesia",
		"ie": "interlingue",
		"ig": "ibo",
		"ii": "Sichuani jii",
		"ik": "injupiaki",
		"ilo": "iloko",
		"inh": "inguši",
		"io": "ido",
		"is": "islandi",
		"it": "itaalia",
		"iu": "inuktituti",
		"izh": "isuri",
		"ja": "jaapani",
		"jam": "Jamaica kreoolkeel",
		"jbo": "ložban",
		"jgo": "ngomba",
		"jmc": "matšame",
		"jpr": "juudipärsia",
		"jrb": "juudiaraabia",
		"jut": "jüüti",
		"jv": "jaava",
		"ka": "gruusia",
		"kaa": "karakalpaki",
		"kab": "kabiili",
		"kac": "katšini",
		"kaj": "jju",
		"kam": "kamba",
		"kaw": "kaavi",
		"kbd": "kabardi-tšerkessi",
		"kbl": "kanembu",
		"kcg": "tjapi",
		"kde": "makonde",
		"kea": "kabuverdianu",
		"kfo": "koro",
		"kg": "kongo",
		"kgp": "kaingangi",
		"kha": "khasi",
		"kho": "saka",
		"khq": "koyra chiini",
		"khw": "khovari",
		"ki": "kikuju",
		"kiu": "kõrmandžki",
		"kj": "kvanjama",
		"kk": "kasahhi",
		"kkj": "kako",
		"kl": "grööni",
		"kln": "kalendžini",
		"km": "khmeeri",
		"kmb": "mbundu",
		"kn": "kannada",
		"ko": "korea",
		"koi": "permikomi",
		"kok": "konkani",
		"kos": "kosrae",
		"kpe": "kpelle",
		"kr": "kanuri",
		"krc": "karatšai-balkaari",
		"kri": "krio",
		"krj": "kinaraia",
		"krl": "karjala",
		"kru": "kuruhhi",
		"ks": "kašmiiri",
		"ksb": "šambala",
		"ksf": "bafia",
		"ksh": "kölni",
		"ku": "kurdi",
		"kum": "kumõki",
		"kut": "kutenai",
		"kv": "komi",
		"kw": "korni",
		"ky": "kirgiisi",
		"la": "ladina",
		"lad": "ladiino",
		"lag": "langi",
		"lah": "lahnda",
		"lam": "lamba",
		"lb": "letseburgi",
		"lez": "lesgi",
		"lg": "ganda",
		"li": "limburgi",
		"lij": "liguuri",
		"liv": "liivi",
		"lkt": "lakota",
		"lmo": "lombardi",
		"ln": "lingala",
		"lo": "lao",
		"lol": "mongo",
		"lou": "Louisiana kreoolkeel",
		"loz": "lozi",
		"lrc": "põhjaluri",
		"lt": "leedu",
		"ltg": "latgali",
		"lu": "luba",
		"lua": "lulua",
		"lui": "luisenjo",
		"lun": "lunda",
		"luo": "luo",
		"lus": "lušei",
		"luy": "luhja",
		"lv": "läti",
		"lzh": "klassikaline hiina",
		"lzz": "lazi",
		"mad": "madura",
		"maf": "mafa",
		"mag": "magahi",
		"mai": "maithili",
		"mak": "makassari",
		"man": "malinke",
		"mas": "masai",
		"mde": "maba",
		"mdf": "mokša",
		"mdr": "mandari",
		"men": "mende",
		"mer": "meru",
		"mfe": "Mauritiuse kreoolkeel",
		"mg": "malagassi",
		"mga": "keskiiri",
		"mgh": "makhuwa-meetto",
		"mgo": "meta",
		"mh": "maršalli",
		"mi": "maoori",
		"mic": "mikmaki",
		"min": "minangkabau",
		"mk": "makedoonia",
		"ml": "malajalami",
		"mn": "mongoli",
		"mnc": "mandžu",
		"mni": "manipuri",
		"moh": "mohoogi",
		"mos": "more",
		"mr": "marathi",
		"mrj": "mäemari",
		"ms": "malai",
		"mt": "malta",
		"mua": "mundangi",
		"mul": "mitu keelt",
		"mus": "maskogi",
		"mwl": "miranda",
		"mwr": "marvari",
		"mwv": "mentavei",
		"my": "birma",
		"mye": "mjene",
		"myv": "ersa",
		"mzn": "mazandaraani",
		"na": "nauru",
		"nan": "lõunamini",
		"nap": "napoli",
		"naq": "nama",
		"nb": "norra bokmål",
		"nd": "põhjandebele",
		"nds": "alamsaksa",
		"nds_NL": "Hollandi alamsaksa",
		"ne": "nepali",
		"new": "nevari",
		"ng": "ndonga",
		"nia": "niasi",
		"niu": "niue",
		"njo": "ao",
		"nl": "hollandi",
		"nl_BE": "flaami",
		"nmg": "kwasio",
		"nn": "uusnorra",
		"nnh": "ngiembooni",
		"no": "norra",
		"nog": "nogai",
		"non": "vanapõhjala",
		"nov": "noviaal",
		"nqo": "nkoo",
		"nr": "lõunandebele",
		"nso": "põhjasotho",
		"nus": "nueri",
		"nv": "navaho",
		"nwc": "vananevari",
		"ny": "njandža",
		"nym": "njamvesi",
		"nyn": "nkole",
		"nyo": "njoro",
		"nzi": "nzima",
		"oc": "oksitaani",
		"oj": "odžibvei",
		"om": "oromo",
		"or": "oria",
		"os": "osseedi",
		"osa": "oseidži",
		"ota": "osmanitürgi",
		"pa": "pandžabi",
		"pag": "pangasinani",
		"pal": "pahlavi",
		"pam": "pampanga",
		"pap": "papiamento",
		"pau": "belau",
		"pcd": "pikardi",
		"pcm": "Nigeeria pidžinkeel",
		"pdc": "Pennsylvania saksa",
		"pdt": "mennoniidisaksa",
		"peo": "vanapärsia",
		"pfl": "Pfalzi",
		"phn": "foiniikia",
		"pi": "paali",
		"pl": "poola",
		"pms": "piemonte",
		"pnt": "pontose",
		"pon": "poonpei",
		"prg": "preisi",
		"pro": "vanaprovansi",
		"ps": "puštu",
		"pt": "portugali",
		"pt_BR": "Brasiilia portugali",
		"pt_PT": "Euroopa portugali",
		"qu": "ketšua",
		"quc": "kitše",
		"raj": "radžastani",
		"rap": "rapanui",
		"rar": "rarotonga",
		"rgn": "romanja",
		"rif": "riifi",
		"rm": "romanši",
		"rn": "rundi",
		"ro": "rumeenia",
		"ro_MD": "moldova",
		"rof": "rombo",
		"rom": "mustlaskeel",
		"root": "root",
		"rtm": "rotuma",
		"ru": "vene",
		"rue": "russiini",
		"rug": "roviana",
		"rup": "aromuuni",
		"rw": "ruanda",
		"rwk": "rvaa",
		"sa": "sanskriti",
		"sad": "sandave",
		"sah": "jakuudi",
		"sam": "Samaaria aramea",
		"saq": "samburu",
		"sas": "sasaki",
		"sat": "santali",
		"saz": "sauraštra",
		"sba": "ngambai",
		"sbp": "sangu",
		"sc": "sardi",
		"scn": "sitsiilia",
		"sco": "šoti",
		"sd": "sindhi",
		"sdh": "lõunakurdi",
		"se": "põhjasaami",
		"see": "seneka",
		"seh": "sena",
		"sei": "seri",
		"sel": "sölkupi",
		"ses": "koyraboro senni",
		"sg": "sango",
		"sga": "vanaiiri",
		"sgs": "žemaidi",
		"sh": "serbia-horvaadi",
		"shi": "šilha",
		"shn": "šani",
		"shu": "Tšaadi araabia",
		"si": "singali",
		"sid": "sidamo",
		"sk": "slovaki",
		"sl": "sloveeni",
		"sli": "alamsileesia",
		"sly": "selajari",
		"sm": "samoa",
		"sma": "lõunasaami",
		"smj": "Lule saami",
		"smn": "Inari saami",
		"sms": "koltasaami",
		"sn": "šona",
		"snk": "soninke",
		"so": "somaali",
		"sog": "sogdi",
		"sq": "albaania",
		"sr": "serbia",
		"srn": "sranani",
		"srr": "sereri",
		"ss": "svaasi",
		"ssy": "saho",
		"st": "lõunasotho",
		"stq": "saterfriisi",
		"su": "sunda",
		"suk": "sukuma",
		"sus": "susu",
		"sux": "sumeri",
		"sv": "rootsi",
		"sw": "suahiili",
		"sw_CD": "Kongo suahiili",
		"swb": "komoori",
		"syc": "vanasüüria",
		"syr": "süüria",
		"szl": "sileesia",
		"ta": "tamili",
		"tcy": "tulu",
		"te": "telugu",
		"tem": "temne",
		"teo": "teso",
		"ter": "tereno",
		"tet": "tetumi",
		"tg": "tadžiki",
		"th": "tai",
		"ti": "tigrinja",
		"tig": "tigree",
		"tiv": "tivi",
		"tk": "türkmeeni",
		"tkl": "tokelau",
		"tkr": "tsahhi",
		"tl": "tagalogi",
		"tlh": "klingoni",
		"tli": "tlingiti",
		"tly": "talõši",
		"tmh": "tamašeki",
		"tn": "tsvana",
		"to": "tonga",
		"tog": "tšitonga",
		"tpi": "uusmelaneesia",
		"tr": "türgi",
		"tru": "turojo",
		"trv": "taroko",
		"ts": "tsonga",
		"tsd": "tsakoonia",
		"tsi": "tšimši",
		"tt": "tatari",
		"ttt": "lõunataadi",
		"tum": "tumbuka",
		"tvl": "tuvalu",
		"tw": "tvii",
		"twq": "taswaqi",
		"ty": "tahiti",
		"tyv": "tõva",
		"tzm": "tamasikti",
		"udm": "udmurdi",
		"ug": "uiguuri",
		"uga": "ugariti",
		"uk": "ukraina",
		"umb": "umbundu",
		"und": "määramata keel",
		"ur": "urdu",
		"uz": "usbeki",
		"vai": "vai",
		"ve": "venda",
		"vec": "veneti",
		"vep": "vepsa",
		"vi": "vietnami",
		"vls": "lääneflaami",
		"vmf": "Maini frangi",
		"vo": "volapüki",
		"vot": "vadja",
		"vro": "võru",
		"vun": "vundžo",
		"wa": "vallooni",
		"wae": "walseri",
		"wal": "volaita",
		"war": "varai",
		"was": "vašo",
		"wbp": "varlpiri",
		"wo": "volofi",
		"wuu": "uu",
		"xal": "kalmõki",
		"xh": "koosa",
		"xmf": "megreli",
		"xog": "soga",
		"yao": "jao",
		"yap": "japi",
		"yav": "yangbeni",
		"ybb": "jemba",
		"yi": "jidiši",
		"yo": "joruba",
		"yrl": "njengatu",
		"yue": "kantoni",
		"za": "tšuangi",
		"zap": "sapoteegi",
		"zbl": "Blissi sümbolid",
		"zea": "zeelandi",
		"zen": "zenaga",
		"zgh": "tamasikti (Maroko)",
		"zh": "hiina",
		"zh_Hans": "lihtsustatud hiina",
		"zh_Hant": "traditsiooniline hiina",
		"zu": "suulu",
		"zun": "sunji",
		"zxx": "mittekeeleline",
		"zza": "zaza"
	},
	"scripts": {
		"Adlm": "Adlm",
		"Afak": "afaka",
		"Aghb": "albaani",
		"Ahom": "ahomi",
		"Arab": "araabia",
		"Arab-alt-variant": "pärsia-araabia",
		"Armi": "vanaaramea",
		"Armn": "armeenia",
		"Avst": "avesta",
		"Bali": "bali",
		"Bamu": "bamumi",
		"Bass": "bassa",
		"Batk": "bataki",
		"Beng": "bengali",
		"Bhks": "Bhks",
		"Blis": "Blissi sümbolid",
		"Bopo": "bopomofo",
		"Brah": "braahmi",
		"Brai": "punktkiri",
		"Bugi": "bugi",
		"Buhd": "buhidi",
		"Cakm": "tšaakma",
		"Cans": "Kanada põlisrahvaste ühtlustatud silpkiri",
		"Cari": "kaaria",
		"Cham": "tšaami",
		"Cher": "tšerokii",
		"Cirt": "Cirthi",
		"Copt": "kopti",
		"Cprt": "Küprose silpkiri",
		"Cyrl": "kirillitsa",
		"Cyrs": "kürilliline kirikuslaavi",
		"Deva": "devanaagari",
		"Dogr": "Dogr",
		"Dsrt": "desereti",
		"Dupl": "Duployé kiirkiri",
		"Egyd": "egiptuse demootiline",
		"Egyh": "egiptuse hieraatiline",
		"Egyp": "egiptuse hieroglüüfkiri",
		"Elba": "Elbasani",
		"Ethi": "etioopia",
		"Geok": "hutsuri",
		"Geor": "gruusia",
		"Glag": "glagoolitsa",
		"Gong": "Gong",
		"Gonm": "Masarami gondi",
		"Goth": "gooti",
		"Gran": "grantha",
		"Grek": "kreeka",
		"Gujr": "gudžarati",
		"Guru": "gurmukhi",
		"Hanb": "hanbi",
		"Hang": "korea",
		"Hani": "hani",
		"Hano": "hanunoo",
		"Hans": "lihtsustatud",
		"Hans-alt-stand-alone": "lihtsustatud hani",
		"Hant": "traditsiooniline",
		"Hant-alt-stand-alone": "traditsiooniline hani",
		"Hatr": "Hatra",
		"Hebr": "heebrea",
		"Hira": "hiragana",
		"Hluw": "Anatoolia hieroglüüfkiri",
		"Hmng": "phahau-hmongi kiri",
		"Hrkt": "jaapani silpkirjad",
		"Hung": "vanaungari",
		"Inds": "Induse",
		"Ital": "vanaitali",
		"Jamo": "jamo",
		"Java": "jaava",
		"Jpan": "jaapani",
		"Jurc": "tšurtšeni",
		"Kali": "kaja-lii",
		"Kana": "katakana",
		"Khar": "kharoshthi",
		"Khmr": "khmeeri",
		"Khoj": "hodžki",
		"Knda": "kannada",
		"Kore": "korea segakiri",
		"Kpel": "kpelle",
		"Kthi": "kaithi",
		"Lana": "tai-thami",
		"Laoo": "lao",
		"Latf": "ladina fraktuurkiri",
		"Latg": "ladina gaeli",
		"Latn": "ladina",
		"Lepc": "leptša",
		"Limb": "limbu",
		"Lina": "lineaarkiri A",
		"Linb": "lineaarkiri B",
		"Lisu": "lisu",
		"Loma": "loma",
		"Lyci": "lüükia",
		"Lydi": "lüüdia",
		"Mahj": "mahaadžani",
		"Maka": "Maka",
		"Mand": "mandea",
		"Mani": "mani",
		"Marc": "Marc",
		"Maya": "maaja hieroglüüfkiri",
		"Medf": "Medf",
		"Mend": "mende",
		"Merc": "meroe kursiivkiri",
		"Mero": "meroe",
		"Mlym": "malajalami",
		"Modi": "modi",
		"Mong": "mongoli",
		"Moon": "Mooni",
		"Mroo": "mruu",
		"Mtei": "meitei",
		"Mult": "Multani",
		"Mymr": "birma",
		"Narb": "Põhja-Araabia",
		"Nbat": "Nabatea",
		"Newa": "nevari",
		"Nkgb": "nasi",
		"Nkoo": "nkoo",
		"Nshu": "nüšu",
		"Ogam": "ogam",
		"Olck": "santali",
		"Orkh": "Orhoni",
		"Orya": "oria",
		"Osge": "oseidži",
		"Osma": "osmani",
		"Palm": "Palmyra",
		"Pauc": "Pauc",
		"Perm": "vanapermi",
		"Phag": "phakpa",
		"Phli": "pahlavi raidkiri",
		"Phlp": "pahlavi psalmikiri",
		"Phlv": "pahlavi raamatukiri",
		"Phnx": "foiniikia",
		"Plrd": "Pollardi miao",
		"Prti": "partia raidkiri",
		"Qaag": "Qaag",
		"Rjng": "redžangi",
		"Rohg": "Rohg",
		"Roro": "rongorongo",
		"Runr": "ruunikiri",
		"Samr": "Samaaria",
		"Sara": "sarati",
		"Sarb": "Lõuna-Araabia",
		"Saur": "sauraštra",
		"Sgnw": "viipekiri",
		"Shaw": "Shaw’ kiri",
		"Shrd": "šaarada",
		"Sidd": "siddhami",
		"Sind": "hudavadi",
		"Sinh": "singali",
		"Sogd": "Sogd",
		"Sogo": "Sogo",
		"Sora": "sora",
		"Soyo": "sojombo",
		"Sund": "sunda",
		"Sylo": "siloti",
		"Syrc": "süüria",
		"Syre": "süüria estrangelo",
		"Syrj": "läänesüüria",
		"Syrn": "idasüüria",
		"Tagb": "tagbanva",
		"Takr": "taakri",
		"Tale": "tai-löö",
		"Talu": "uus tai-lõõ",
		"Taml": "tamili",
		"Tang": "tanguudi",
		"Tavt": "tai-vieti",
		"Telu": "telugu",
		"Teng": "Tengwari",
		"Tfng": "tifinagi",
		"Tglg": "tagalogi",
		"Thaa": "taana",
		"Thai": "tai",
		"Tibt": "tiibeti",
		"Tirh": "tirhuta",
		"Ugar": "ugariti",
		"Vaii": "vai",
		"Visp": "nähtava kõne",
		"Wara": "hoo",
		"Wole": "voleai",
		"Xpeo": "vanapärsia",
		"Xsux": "sumeri-akadi kiilkiri",
		"Yiii": "jii",
		"Zanb": "Dzanabadzari ruutkiri",
		"Zinh": "päritud",
		"Zmth": "matemaatiline tähistus",
		"Zsye": "emoji",
		"Zsym": "sümbolid",
		"Zxxx": "kirjakeeleta",
		"Zyyy": "üldine",
		"Zzzz": "määramata kiri"
	},
	"territories": {
		"142": "Aasia",
		"143": "Kesk-Aasia",
		"145": "Lääne-Aasia",
		"150": "Euroopa",
		"151": "Ida-Euroopa",
		"154": "Põhja-Euroopa",
		"155": "Lääne-Euroopa",
		"202": "Sahara-tagune Aafrika",
		"419": "Ladina-Ameerika",
		"001": "maailm",
		"002": "Aafrika",
		"003": "Põhja-Ameerika",
		"005": "Lõuna-Ameerika",
		"009": "Okeaania",
		"011": "Lääne-Aafrika",
		"013": "Kesk-Ameerika",
		"014": "Ida-Aafrika",
		"015": "Põhja-Aafrika",
		"017": "Kesk-Aafrika",
		"018": "Lõuna-Aafrika",
		"019": "Ameerika",
		"021": "Ameerika põhjaosa",
		"029": "Kariibi piirkond",
		"030": "Ida-Aasia",
		"034": "Lõuna-Aasia",
		"035": "Kagu-Aasia",
		"039": "Lõuna-Euroopa",
		"053": "Australaasia",
		"054": "Melaneesia",
		"057": "Mikroneesia (piirkond)",
		"061": "Polüneesia",
		"AC": "Ascensioni saar",
		"AD": "Andorra",
		"AE": "Araabia Ühendemiraadid",
		"AF": "Afganistan",
		"AG": "Antigua ja Barbuda",
		"AI": "Anguilla",
		"AL": "Albaania",
		"AM": "Armeenia",
		"AO": "Angola",
		"AQ": "Antarktika",
		"AR": "Argentina",
		"AS": "Ameerika Samoa",
		"AT": "Austria",
		"AU": "Austraalia",
		"AW": "Aruba",
		"AX": "Ahvenamaa",
		"AZ": "Aserbaidžaan",
		"BA": "Bosnia ja Hertsegoviina",
		"BB": "Barbados",
		"BD": "Bangladesh",
		"BE": "Belgia",
		"BF": "Burkina Faso",
		"BG": "Bulgaaria",
		"BH": "Bahrein",
		"BI": "Burundi",
		"BJ": "Benin",
		"BL": "Saint-Barthélemy",
		"BM": "Bermuda",
		"BN": "Brunei",
		"BO": "Boliivia",
		"BQ": "Hollandi Kariibi mere saared",
		"BR": "Brasiilia",
		"BS": "Bahama",
		"BT": "Bhutan",
		"BV": "Bouvet’ saar",
		"BW": "Botswana",
		"BY": "Valgevene",
		"BZ": "Belize",
		"CA": "Kanada",
		"CC": "Kookossaared",
		"CD": "Kongo DV",
		"CD-alt-variant": "Kongo-Kinshasa",
		"CF": "Kesk-Aafrika Vabariik",
		"CG": "Kongo Vabariik",
		"CG-alt-variant": "Kongo-Brazzaville",
		"CH": "Šveits",
		"CI": "Côte d’Ivoire",
		"CI-alt-variant": "Elevandiluurannik",
		"CK": "Cooki saared",
		"CL": "Tšiili",
		"CM": "Kamerun",
		"CN": "Hiina",
		"CO": "Colombia",
		"CP": "Clippertoni saar",
		"CR": "Costa Rica",
		"CU": "Kuuba",
		"CV": "Roheneemesaared",
		"CW": "Curaçao",
		"CX": "Jõulusaar",
		"CY": "Küpros",
		"CZ": "Tšehhi",
		"CZ-alt-variant": "Tšehhia",
		"DE": "Saksamaa",
		"DG": "Diego Garcia",
		"DJ": "Djibouti",
		"DK": "Taani",
		"DM": "Dominica",
		"DO": "Dominikaani Vabariik",
		"DZ": "Alžeeria",
		"EA": "Ceuta ja Melilla",
		"EC": "Ecuador",
		"EE": "Eesti",
		"EG": "Egiptus",
		"EH": "Lääne-Sahara",
		"ER": "Eritrea",
		"ES": "Hispaania",
		"ET": "Etioopia",
		"EU": "Euroopa Liit",
		"EZ": "euroala",
		"FI": "Soome",
		"FJ": "Fidži",
		"FK": "Falklandi saared",
		"FK-alt-variant": "Malviini saared",
		"FM": "Mikroneesia",
		"FO": "Fääri saared",
		"FR": "Prantsusmaa",
		"GA": "Gabon",
		"GB": "Suurbritannia",
		"GB-alt-short": "ÜK",
		"GD": "Grenada",
		"GE": "Gruusia",
		"GF": "Prantsuse Guajaana",
		"GG": "Guernsey",
		"GH": "Ghana",
		"GI": "Gibraltar",
		"GL": "Gröönimaa",
		"GM": "Gambia",
		"GN": "Guinea",
		"GP": "Guadeloupe",
		"GQ": "Ekvatoriaal-Guinea",
		"GR": "Kreeka",
		"GS": "Lõuna-Georgia ja Lõuna-Sandwichi saared",
		"GT": "Guatemala",
		"GU": "Guam",
		"GW": "Guinea-Bissau",
		"GY": "Guyana",
		"HK": "Hongkongi erihalduspiirkond",
		"HK-alt-short": "Hongkong",
		"HM": "Heardi ja McDonaldi saared",
		"HN": "Honduras",
		"HR": "Horvaatia",
		"HT": "Haiti",
		"HU": "Ungari",
		"IC": "Kanaari saared",
		"ID": "Indoneesia",
		"IE": "Iirimaa",
		"IL": "Iisrael",
		"IM": "Mani saar",
		"IN": "India",
		"IO": "Briti India ookeani ala",
		"IQ": "Iraak",
		"IR": "Iraan",
		"IS": "Island",
		"IT": "Itaalia",
		"JE": "Jersey",
		"JM": "Jamaica",
		"JO": "Jordaania",
		"JP": "Jaapan",
		"KE": "Keenia",
		"KG": "Kõrgõzstan",
		"KH": "Kambodža",
		"KI": "Kiribati",
		"KM": "Komoorid",
		"KN": "Saint Kitts ja Nevis",
		"KP": "Põhja-Korea",
		"KR": "Lõuna-Korea",
		"KW": "Kuveit",
		"KY": "Kaimanisaared",
		"KZ": "Kasahstan",
		"LA": "Laos",
		"LB": "Liibanon",
		"LC": "Saint Lucia",
		"LI": "Liechtenstein",
		"LK": "Sri Lanka",
		"LR": "Libeeria",
		"LS": "Lesotho",
		"LT": "Leedu",
		"LU": "Luksemburg",
		"LV": "Läti",
		"LY": "Liibüa",
		"MA": "Maroko",
		"MC": "Monaco",
		"MD": "Moldova",
		"ME": "Montenegro",
		"MF": "Saint-Martin",
		"MG": "Madagaskar",
		"MH": "Marshalli Saared",
		"MK": "Makedoonia",
		"MK-alt-variant": "Makedoonia Vabariik",
		"ML": "Mali",
		"MM": "Myanmar (Birma)",
		"MN": "Mongoolia",
		"MO": "Macau erihalduspiirkond",
		"MO-alt-short": "Macau",
		"MP": "Põhja-Mariaanid",
		"MQ": "Martinique",
		"MR": "Mauritaania",
		"MS": "Montserrat",
		"MT": "Malta",
		"MU": "Mauritius",
		"MV": "Maldiivid",
		"MW": "Malawi",
		"MX": "Mehhiko",
		"MY": "Malaisia",
		"MZ": "Mosambiik",
		"NA": "Namiibia",
		"NC": "Uus-Kaledoonia",
		"NE": "Niger",
		"NF": "Norfolk",
		"NG": "Nigeeria",
		"NI": "Nicaragua",
		"NL": "Holland",
		"NO": "Norra",
		"NP": "Nepal",
		"NR": "Nauru",
		"NU": "Niue",
		"NZ": "Uus-Meremaa",
		"OM": "Omaan",
		"PA": "Panama",
		"PE": "Peruu",
		"PF": "Prantsuse Polüneesia",
		"PG": "Paapua Uus-Guinea",
		"PH": "Filipiinid",
		"PK": "Pakistan",
		"PL": "Poola",
		"PM": "Saint-Pierre ja Miquelon",
		"PN": "Pitcairni saared",
		"PR": "Puerto Rico",
		"PS": "Palestiina alad",
		"PS-alt-short": "Palestiina",
		"PT": "Portugal",
		"PW": "Belau",
		"PY": "Paraguay",
		"QA": "Katar",
		"QO": "Okeaania hajasaared",
		"RE": "Réunion",
		"RO": "Rumeenia",
		"RS": "Serbia",
		"RU": "Venemaa",
		"RW": "Rwanda",
		"SA": "Saudi Araabia",
		"SB": "Saalomoni Saared",
		"SC": "Seišellid",
		"SD": "Sudaan",
		"SE": "Rootsi",
		"SG": "Singapur",
		"SH": "Saint Helena",
		"SI": "Sloveenia",
		"SJ": "Svalbard ja Jan Mayen",
		"SK": "Slovakkia",
		"SL": "Sierra Leone",
		"SM": "San Marino",
		"SN": "Senegal",
		"SO": "Somaalia",
		"SR": "Suriname",
		"SS": "Lõuna-Sudaan",
		"ST": "São Tomé ja Príncipe",
		"SV": "El Salvador",
		"SX": "Sint Maarten",
		"SY": "Süüria",
		"SZ": "Svaasimaa",
		"TA": "Tristan da Cunha",
		"TC": "Turks ja Caicos",
		"TD": "Tšaad",
		"TF": "Prantsuse Lõunaalad",
		"TG": "Togo",
		"TH": "Tai",
		"TJ": "Tadžikistan",
		"TK": "Tokelau",
		"TL": "Ida-Timor",
		"TL-alt-variant": "Timor-Leste",
		"TM": "Türkmenistan",
		"TN": "Tuneesia",
		"TO": "Tonga",
		"TR": "Türgi",
		"TT": "Trinidad ja Tobago",
		"TV": "Tuvalu",
		"TW": "Taiwan",
		"TZ": "Tansaania",
		"UA": "Ukraina",
		"UG": "Uganda",
		"UM": "Ühendriikide hajasaared",
		"UN": "Ühendatud Rahvaste Organisatsioon",
		"UN-alt-short": "ÜRO",
		"US": "Ameerika Ühendriigid",
		"US-alt-short": "USA",
		"UY": "Uruguay",
		"UZ": "Usbekistan",
		"VA": "Vatikan",
		"VC": "Saint Vincent ja Grenadiinid",
		"VE": "Venezuela",
		"VG": "Briti Neitsisaared",
		"VI": "USA Neitsisaared",
		"VN": "Vietnam",
		"VU": "Vanuatu",
		"WF": "Wallis ja Futuna",
		"WS": "Samoa",
		"XA": "XA",
		"XB": "XB",
		"XK": "Kosovo",
		"YE": "Jeemen",
		"YT": "Mayotte",
		"ZA": "Lõuna-Aafrika Vabariik",
		"ZM": "Sambia",
		"ZW": "Zimbabwe",
		"ZZ": "Tundmatu piirkond"
	},
	"orientation": "left-to-right",
	"ca-gregorian": {
		"dateFormats": {
			"full": "EEEE, d. MMMM y",
			"long": "d. MMMM y",
			"medium": "d. MMM y",
			"short": "dd.MM.yy"
		},
		"timeFormats": {
			"full": "HH:mm:ss zzzz",
			"long": "HH:mm:ss z",
			"medium": "HH:mm:ss",
			"short": "HH:mm"
		},
		"dateTimeFormats": {
			"full": "{1} {0}",
			"long": "{1} {0}",
			"medium": "{1} {0}",
			"short": "{1} {0}",
			"availableFormats": {
				"Bh": "h B",
				"Bhm": "h:mm B",
				"Bhms": "h:mm:ss B",
				"d": "d",
				"E": "ccc",
				"EBhm": "E h:mm B",
				"EBhms": "E h:mm:ss B",
				"Ed": "E, d",
				"Ehm": "E h:mm a",
				"EHm": "E HH:mm",
				"Ehms": "E h:mm:ss a",
				"EHms": "E HH:mm:ss",
				"Gy": "y G",
				"GyMMM": "MMM y G",
				"GyMMMd": "d. MMM y G",
				"GyMMMEd": "E, d. MMMM y G",
				"h": "h a",
				"H": "HH",
				"hm": "h:mm a",
				"Hm": "HH:mm",
				"hms": "h:mm:ss a",
				"Hms": "HH:mm:ss",
				"hmsv": "h:mm:ss a v",
				"Hmsv": "HH:mm:ss v",
				"hmv": "h:mm a v",
				"Hmv": "HH:mm v",
				"M": "M",
				"Md": "d.M",
				"MEd": "E, d.M",
				"MMM": "MMMM",
				"MMMd": "d. MMM",
				"MMMEd": "E, d. MMM",
				"MMMMd": "d. MMMM",
				"MMMMEd": "E, d. MMMM",
				"mmss": "mm:ss",
				"ms": "mm:ss",
				"y": "y",
				"yM": "M.y",
				"yMd": "d.M.y",
				"yMEd": "E, d.M.y",
				"yMMM": "MMM y",
				"yMMMd": "d. MMM y",
				"yMMMEd": "E, d. MMMM y",
				"yMMMM": "MMMM y",
				"yQQQ": "QQQ y",
				"yQQQQ": "QQQQ y",
				"MMMMW": "MMM (W. 'nädal')",
				"yw": "w. 'nädal' (Y)"
			},
			"appendItems": {
				"Day": "{0} ({2}: {1})",
				"Day-Of-Week": "{0} {1}",
				"Era": "{1} {0}",
				"Hour": "{0} ({2}: {1})",
				"Minute": "{0} ({2}: {1})",
				"Month": "{0} ({2}: {1})",
				"Quarter": "{0} ({2}: {1})",
				"Second": "{0} ({2}: {1})",
				"Timezone": "{0} {1}",
				"Week": "{0} ({2}: {1})",
				"Year": "{1} {0}"
			},
			"intervalFormats": {
				"intervalFormatFallback": "{0} – {1}",
				"d": {
					"d": "d–d"
				},
				"Gy": {
					"G": "G y – G y",
					"y": "G y–y"
				},
				"GyM": {
					"G": "GGGGG y-MM – GGGGG y-MM",
					"M": "GGGGG y-MM – y-MM",
					"y": "GGGGG y-MM – y-MM"
				},
				"GyMd": {
					"d": "GGGGG y-MM-dd – y-MM-dd",
					"G": "GGGGG y-MM-dd – GGGGG y-MM-dd",
					"M": "GGGGG y-MM-dd – y-MM-dd",
					"y": "GGGGG y-MM-dd – y-MM-dd"
				},
				"GyMEd": {
					"d": "GGGGG y-MM-dd, E – y-MM-dd, E",
					"G": "GGGGG y-MM-dd, E – GGGGG y-MM-dd, E",
					"M": "GGGGG y-MM-dd, E – y-MM-dd, E",
					"y": "GGGGG y-MM-dd, E – y-MM-dd, E"
				},
				"GyMMM": {
					"G": "G y MMM – G y MMM",
					"M": "G y MMM–MMM",
					"y": "G y MMM – y MMM"
				},
				"GyMMMd": {
					"d": "G y MMM d–d",
					"G": "G y MMM d – G y MMM d",
					"M": "G y MMM d – MMM d",
					"y": "G y MMM d – y MMM d"
				},
				"GyMMMEd": {
					"d": "G y MMM d, E – MMM d, E",
					"G": "G y MMM d, E – G y MMM d, E",
					"M": "G y MMM d, E – MMM d, E",
					"y": "G y MMM d, E – y MMM d, E"
				},
				"h": {
					"a": "h a – h a",
					"h": "h–h a"
				},
				"H": {
					"H": "HH–HH"
				},
				"hm": {
					"a": "h:mm a – h:mm a",
					"h": "h:mm–h:mm a",
					"m": "h:mm–h:mm a"
				},
				"Hm": {
					"H": "HH:mm–HH:mm",
					"m": "HH:mm–HH:mm"
				},
				"hmv": {
					"a": "h:mm a – h:mm a v",
					"h": "h:mm–h:mm a v",
					"m": "h:mm–h:mm a v"
				},
				"Hmv": {
					"H": "HH:mm–HH:mm v",
					"m": "HH:mm–HH:mm v"
				},
				"hv": {
					"a": "h a – h a v",
					"h": "h–h a v"
				},
				"Hv": {
					"H": "HH–HH v"
				},
				"M": {
					"M": "MM–MM"
				},
				"Md": {
					"d": "dd.MM–dd.MM",
					"M": "dd.MM–dd.MM"
				},
				"MEd": {
					"d": "E, dd.MM – E, dd.MM",
					"M": "E, dd.MM – E, dd.MM"
				},
				"MMM": {
					"M": "MMM–MMM"
				},
				"MMMd": {
					"d": "d.–d. MMM",
					"M": "d. MMM – d. MMM"
				},
				"MMMEd": {
					"d": "E, d. MMM – E, d. MMM",
					"M": "E, d. MMM – E, d. MMM"
				},
				"y": {
					"y": "y–y"
				},
				"yM": {
					"M": "MM.y–MM.y",
					"y": "MM.y–MM.y"
				},
				"yMd": {
					"d": "dd.MM.y–dd.MM.y",
					"M": "dd.MM.y–dd.MM.y",
					"y": "dd.MM.y–dd.MM.y"
				},
				"yMEd": {
					"d": "E, dd.MM.y – E, dd.MM.y",
					"M": "E, dd.MM.y – E, dd.MM.y",
					"y": "E, dd.MM.y – E, dd.MM.y"
				},
				"yMMM": {
					"M": "MMM–MMM y",
					"y": "MMM y – MMM y"
				},
				"yMMMd": {
					"d": "d.–d. MMM y",
					"M": "d. MMM – d. MMM y",
					"y": "d. MMM y – d. MMM y"
				},
				"yMMMEd": {
					"d": "E, d. MMM – E, d. MMM y",
					"M": "E, d. MMM – E, d. MMM y",
					"y": "E, d. MMM y – E, d. MMM y"
				},
				"yMMMM": {
					"M": "MMMM–MMMM y",
					"y": "MMMM y – MMMM y"
				}
			}
		},
		"months": {
			"format": {
				"abbreviated": [
					"jaan",
					"veebr",
					"märts",
					"apr",
					"mai",
					"juuni",
					"juuli",
					"aug",
					"sept",
					"okt",
					"nov",
					"dets"
				],
				"narrow": [
					"J",
					"V",
					"M",
					"A",
					"M",
					"J",
					"J",
					"A",
					"S",
					"O",
					"N",
					"D"
				],
				"wide": [
					"jaanuar",
					"veebruar",
					"märts",
					"aprill",
					"mai",
					"juuni",
					"juuli",
					"august",
					"september",
					"oktoober",
					"november",
					"detsember"
				]
			},
			"stand-alone": {
				"abbreviated": [
					"jaan",
					"veebr",
					"märts",
					"apr",
					"mai",
					"juuni",
					"juuli",
					"aug",
					"sept",
					"okt",
					"nov",
					"dets"
				],
				"narrow": [
					"J",
					"V",
					"M",
					"A",
					"M",
					"J",
					"J",
					"A",
					"S",
					"O",
					"N",
					"D"
				],
				"wide": [
					"jaanuar",
					"veebruar",
					"märts",
					"aprill",
					"mai",
					"juuni",
					"juuli",
					"august",
					"september",
					"oktoober",
					"november",
					"detsember"
				]
			}
		},
		"days": {
			"format": {
				"abbreviated": [
					"P",
					"E",
					"T",
					"K",
					"N",
					"R",
					"L"
				],
				"narrow": [
					"P",
					"E",
					"T",
					"K",
					"N",
					"R",
					"L"
				],
				"short": [
					"P",
					"E",
					"T",
					"K",
					"N",
					"R",
					"L"
				],
				"wide": [
					"pühapäev",
					"esmaspäev",
					"teisipäev",
					"kolmapäev",
					"neljapäev",
					"reede",
					"laupäev"
				]
			},
			"stand-alone": {
				"abbreviated": [
					"P",
					"E",
					"T",
					"K",
					"N",
					"R",
					"L"
				],
				"narrow": [
					"P",
					"E",
					"T",
					"K",
					"N",
					"R",
					"L"
				],
				"short": [
					"P",
					"E",
					"T",
					"K",
					"N",
					"R",
					"L"
				],
				"wide": [
					"pühapäev",
					"esmaspäev",
					"teisipäev",
					"kolmapäev",
					"neljapäev",
					"reede",
					"laupäev"
				]
			}
		},
		"quarters": {
			"format": {
				"abbreviated": [
					"K1",
					"K2",
					"K3",
					"K4"
				],
				"narrow": [
					"1",
					"2",
					"3",
					"4"
				],
				"wide": [
					"1. kvartal",
					"2. kvartal",
					"3. kvartal",
					"4. kvartal"
				]
			},
			"stand-alone": {
				"abbreviated": [
					"K1",
					"K2",
					"K3",
					"K4"
				],
				"narrow": [
					"1.",
					"2.",
					"3.",
					"4."
				],
				"wide": [
					"1. kvartal",
					"2. kvartal",
					"3. kvartal",
					"4. kvartal"
				]
			}
		},
		"dayPeriods": {
			"format": {
				"abbreviated": [
					"AM",
					"PM"
				],
				"narrow": [
					"AM",
					"PM"
				],
				"wide": [
					"AM",
					"PM"
				]
			},
			"stand-alone": {
				"abbreviated": [
					"AM",
					"PM"
				],
				"narrow": [
					"AM",
					"PM"
				],
				"wide": [
					"AM",
					"PM"
				]
			}
		},
		"era-wide": {
			"0": "enne Kristust",
			"1": "pärast Kristust"
		},
		"era-abbreviated": {
			"0": "eKr",
			"1": "pKr"
		},
		"era-narrow": {
			"0": "eKr",
			"1": "pKr"
		}
	},
	"ca-islamic": {
		"dateFormats": {
			"full": "EEEE, d. MMMM y G",
			"long": "d. MMMM y G",
			"medium": "dd.MM.y G",
			"short": "dd.MM.y GGGGG"
		},
		"timeFormats": {
			"full": "HH:mm:ss zzzz",
			"long": "HH:mm:ss z",
			"medium": "HH:mm:ss",
			"short": "HH:mm"
		},
		"dateTimeFormats": {
			"full": "{1}, 'kell' {0}",
			"long": "{1}, 'kell' {0}",
			"medium": "{1} {0}",
			"short": "{1} {0}",
			"availableFormats": {
				"Bh": "h B",
				"Bhm": "h:mm B",
				"Bhms": "h:mm:ss B",
				"d": "d",
				"E": "ccc",
				"EBhm": "E h:mm B",
				"EBhms": "E h:mm:ss B",
				"Ed": "E, d",
				"Ehm": "E h:mm a",
				"EHm": "E HH:mm",
				"Ehms": "E h:mm:ss a",
				"EHms": "E HH:mm:ss",
				"Gy": "y G",
				"GyMMM": "MMM y G",
				"GyMMMd": "d. MMM y G",
				"GyMMMEd": "E, d. MMMM y G",
				"h": "h a",
				"H": "HH",
				"hm": "h:mm a",
				"Hm": "HH:mm",
				"hms": "h:mm.ss a",
				"Hms": "H:mm.ss",
				"M": "M",
				"Md": "d.M",
				"MEd": "E, d.M",
				"MMM": "MMMM",
				"MMMd": "d. MMM",
				"MMMEd": "E, d. MMM",
				"MMMMd": "d. MMMM",
				"MMMMEd": "E, d. MMMM",
				"mmss": "mm.ss",
				"ms": "mm.ss",
				"y": "y G",
				"yyyy": "y G",
				"yyyyM": "M.y G",
				"yyyyMd": "d.M.y G",
				"yyyyMEd": "E, d.M y G",
				"yyyyMMM": "MMM y G",
				"yyyyMMMd": "d. MMM y G",
				"yyyyMMMEd": "E, d. MMMM y G",
				"yyyyMMMM": "MMMM y G",
				"yyyyQQQ": "QQQ y G",
				"yyyyQQQQ": "QQQQ y G"
			},
			"appendItems": {
				"Day": "{0} ({2}: {1})",
				"Day-Of-Week": "{0} {1}",
				"Era": "{1} {0}",
				"Hour": "{0} ({2}: {1})",
				"Minute": "{0} ({2}: {1})",
				"Month": "{0} ({2}: {1})",
				"Quarter": "{0} ({2}: {1})",
				"Second": "{0} ({2}: {1})",
				"Timezone": "{0} {1}",
				"Week": "{0} ({2}: {1})",
				"Year": "{1} {0}"
			},
			"intervalFormats": {
				"intervalFormatFallback": "{0}–{1}",
				"d": {
					"d": "d–d"
				},
				"Gy": {
					"G": "G y – G y",
					"y": "G y–y"
				},
				"GyM": {
					"G": "GGGGG y-MM – GGGGG y-MM",
					"M": "GGGGG y-MM – y-MM",
					"y": "GGGGG y-MM – y-MM"
				},
				"GyMd": {
					"d": "GGGGG y-MM-dd – y-MM-dd",
					"G": "GGGGG y-MM-dd – GGGGG y-MM-dd",
					"M": "GGGGG y-MM-dd – y-MM-dd",
					"y": "GGGGG y-MM-dd – y-MM-dd"
				},
				"GyMEd": {
					"d": "GGGGG y-MM-dd, E – y-MM-dd, E",
					"G": "GGGGG y-MM-dd, E – GGGGG y-MM-dd, E",
					"M": "GGGGG y-MM-dd, E – y-MM-dd, E",
					"y": "GGGGG y-MM-dd, E – y-MM-dd, E"
				},
				"GyMMM": {
					"G": "G y MMM – G y MMM",
					"M": "G y MMM–MMM",
					"y": "G y MMM – y MMM"
				},
				"GyMMMd": {
					"d": "G y MMM d–d",
					"G": "G y MMM d – G y MMM d",
					"M": "G y MMM d – MMM d",
					"y": "G y MMM d – y MMM d"
				},
				"GyMMMEd": {
					"d": "G y MMM d, E – MMM d, E",
					"G": "G y MMM d, E – G y MMM d, E",
					"M": "G y MMM d, E – MMM d, E",
					"y": "G y MMM d, E – y MMM d, E"
				},
				"h": {
					"a": "h a – h a",
					"h": "h–h a"
				},
				"H": {
					"H": "HH–HH"
				},
				"hm": {
					"a": "h:mm a – h:mm a",
					"h": "h:mm–h:mm a",
					"m": "h:mm–h:mm a"
				},
				"Hm": {
					"H": "HH:mm–HH:mm",
					"m": "HH:mm–HH:mm"
				},
				"hmv": {
					"a": "h:mm a – h:mm a v",
					"h": "h:mm–h:mm a v",
					"m": "h:mm–h:mm a v"
				},
				"Hmv": {
					"H": "HH:mm–HH:mm v",
					"m": "HH:mm–HH:mm v"
				},
				"hv": {
					"a": "h a – h a v",
					"h": "h–h a v"
				},
				"Hv": {
					"H": "HH–HH v"
				},
				"M": {
					"M": "M–M"
				},
				"Md": {
					"d": "dd.MM–dd.MM",
					"M": "dd.MM–dd.MM"
				},
				"MEd": {
					"d": "E, dd.MM – E, dd.MM",
					"M": "E, dd.MM – E, dd.MM"
				},
				"MMM": {
					"M": "MMM–MMM"
				},
				"MMMd": {
					"d": "d.–d. MMM",
					"M": "d. MMM – d. MMM"
				},
				"MMMEd": {
					"d": "E, d. MMM – E, d. MMM",
					"M": "E, d. MMM – E, d. MMM"
				},
				"y": {
					"y": "y–y G"
				},
				"yM": {
					"M": "MM.y–MM.y G",
					"y": "MM.y–MM.y G"
				},
				"yMd": {
					"d": "dd.MM.y–dd.MM.y G",
					"M": "dd.MM.y–dd.MM.y G",
					"y": "dd.MM.y–dd.MM.y G"
				},
				"yMEd": {
					"d": "E, dd.MM.y – E, dd.MM.y G",
					"M": "E, dd.MM.y – E, dd.MM.y G",
					"y": "E, dd.MM.y – E, dd.MM.y G"
				},
				"yMMM": {
					"M": "MMM–MMM y G",
					"y": "MMM y – MMM y G"
				},
				"yMMMd": {
					"d": "d.–d. MMM y G",
					"M": "d. MMM – d. MMM y G",
					"y": "d. MMM y – d. MMM y G"
				},
				"yMMMEd": {
					"d": "E, d. MMM – E, d. MMM y G",
					"M": "E, d. MMM – E, d. MMM y G",
					"y": "E, d. MMM y – E, d. MMM y G"
				},
				"yMMMM": {
					"M": "MMMM–MMMM y G",
					"y": "MMMM y – MMMM y G"
				}
			}
		},
		"months": {
			"format": {
				"abbreviated": [
					"Muh.",
					"Saf.",
					"Rab. I",
					"Rab. II",
					"Jum. I",
					"Jum. II",
					"Raj.",
					"Sha.",
					"Ram.",
					"Shaw.",
					"Dhuʻl-Q.",
					"Dhuʻl-H."
				],
				"narrow": [
					"1",
					"2",
					"3",
					"4",
					"5",
					"6",
					"7",
					"8",
					"9",
					"10",
					"11",
					"12"
				],
				"wide": [
					"Muharram",
					"Safar",
					"Rabiʻ I",
					"Rabiʻ II",
					"Jumada I",
					"Jumada II",
					"Rajab",
					"Shaʻban",
					"Ramadan",
					"Shawwal",
					"Dhuʻl-Qiʻdah",
					"Dhuʻl-Hijjah"
				]
			},
			"stand-alone": {
				"abbreviated": [
					"Muh.",
					"Saf.",
					"Rab. I",
					"Rab. II",
					"Jum. I",
					"Jum. II",
					"Raj.",
					"Sha.",
					"Ram.",
					"Shaw.",
					"Dhuʻl-Q.",
					"Dhuʻl-H."
				],
				"narrow": [
					"1",
					"2",
					"3",
					"4",
					"5",
					"6",
					"7",
					"8",
					"9",
					"10",
					"11",
					"12"
				],
				"wide": [
					"Muharram",
					"Safar",
					"Rabiʻ I",
					"Rabiʻ II",
					"Jumada I",
					"Jumada II",
					"Rajab",
					"Shaʻban",
					"Ramadan",
					"Shawwal",
					"Dhuʻl-Qiʻdah",
					"Dhuʻl-Hijjah"
				]
			}
		},
		"days": {
			"format": {
				"abbreviated": [
					"P",
					"E",
					"T",
					"K",
					"N",
					"R",
					"L"
				],
				"narrow": [
					"P",
					"E",
					"T",
					"K",
					"N",
					"R",
					"L"
				],
				"short": [
					"P",
					"E",
					"T",
					"K",
					"N",
					"R",
					"L"
				],
				"wide": [
					"pühapäev",
					"esmaspäev",
					"teisipäev",
					"kolmapäev",
					"neljapäev",
					"reede",
					"laupäev"
				]
			},
			"stand-alone": {
				"abbreviated": [
					"P",
					"E",
					"T",
					"K",
					"N",
					"R",
					"L"
				],
				"narrow": [
					"P",
					"E",
					"T",
					"K",
					"N",
					"R",
					"L"
				],
				"short": [
					"P",
					"E",
					"T",
					"K",
					"N",
					"R",
					"L"
				],
				"wide": [
					"pühapäev",
					"esmaspäev",
					"teisipäev",
					"kolmapäev",
					"neljapäev",
					"reede",
					"laupäev"
				]
			}
		},
		"quarters": {
			"format": {
				"abbreviated": [
					"K1",
					"K2",
					"K3",
					"K4"
				],
				"narrow": [
					"1",
					"2",
					"3",
					"4"
				],
				"wide": [
					"1. kvartal",
					"2. kvartal",
					"3. kvartal",
					"4. kvartal"
				]
			},
			"stand-alone": {
				"abbreviated": [
					"K1",
					"K2",
					"K3",
					"K4"
				],
				"narrow": [
					"1.",
					"2.",
					"3.",
					"4."
				],
				"wide": [
					"1. kvartal",
					"2. kvartal",
					"3. kvartal",
					"4. kvartal"
				]
			}
		},
		"dayPeriods": {
			"format": {
				"abbreviated": [
					"AM",
					"PM"
				],
				"narrow": [
					"AM",
					"PM"
				],
				"wide": [
					"AM",
					"PM"
				]
			},
			"stand-alone": {
				"abbreviated": [
					"AM",
					"PM"
				],
				"narrow": [
					"AM",
					"PM"
				],
				"wide": [
					"AM",
					"PM"
				]
			}
		},
		"era-wide": {
			"0": "AH"
		},
		"era-abbreviated": {
			"0": "AH"
		},
		"era-narrow": {
			"0": "AH"
		}
	},
	"ca-japanese": {
		"dateFormats": {
			"full": "EEEE, d. MMMM y G",
			"long": "d. MMMM y G",
			"medium": "dd.MM.y G",
			"short": "dd.MM.y GGGGG"
		},
		"timeFormats": {
			"full": "HH:mm:ss zzzz",
			"long": "HH:mm:ss z",
			"medium": "HH:mm:ss",
			"short": "HH:mm"
		},
		"dateTimeFormats": {
			"full": "{1}, 'kell' {0}",
			"long": "{1}, 'kell' {0}",
			"medium": "{1} {0}",
			"short": "{1} {0}",
			"availableFormats": {
				"Bh": "h B",
				"Bhm": "h:mm B",
				"Bhms": "h:mm:ss B",
				"d": "d",
				"E": "ccc",
				"EBhm": "E h:mm B",
				"EBhms": "E h:mm:ss B",
				"Ed": "E, d",
				"Ehm": "E h:mm a",
				"EHm": "E HH:mm",
				"Ehms": "E h:mm:ss a",
				"EHms": "E HH:mm:ss",
				"Gy": "y G",
				"GyMMM": "MMM y G",
				"GyMMMd": "d. MMM y G",
				"GyMMMEd": "E, d. MMMM y G",
				"h": "h a",
				"H": "HH",
				"hm": "h:mm a",
				"Hm": "HH:mm",
				"hms": "h:mm.ss a",
				"Hms": "H:mm.ss",
				"M": "M",
				"Md": "d.M",
				"MEd": "E, d.M",
				"MMM": "MMMM",
				"MMMd": "d. MMM",
				"MMMEd": "E, d. MMM",
				"MMMMd": "d. MMMM",
				"MMMMEd": "E, d. MMMM",
				"mmss": "mm.ss",
				"ms": "mm.ss",
				"y": "y G",
				"yyyy": "y G",
				"yyyyM": "M.y G",
				"yyyyMd": "d.M.y G",
				"yyyyMEd": "E, d.M y G",
				"yyyyMMM": "MMM y G",
				"yyyyMMMd": "d. MMM y G",
				"yyyyMMMEd": "E, d. MMMM y G",
				"yyyyMMMM": "MMMM y G",
				"yyyyQQQ": "QQQ y G",
				"yyyyQQQQ": "QQQQ y G"
			},
			"appendItems": {
				"Day": "{0} ({2}: {1})",
				"Day-Of-Week": "{0} {1}",
				"Era": "{1} {0}",
				"Hour": "{0} ({2}: {1})",
				"Minute": "{0} ({2}: {1})",
				"Month": "{0} ({2}: {1})",
				"Quarter": "{0} ({2}: {1})",
				"Second": "{0} ({2}: {1})",
				"Timezone": "{0} {1}",
				"Week": "{0} ({2}: {1})",
				"Year": "{1} {0}"
			},
			"intervalFormats": {
				"intervalFormatFallback": "{0}–{1}",
				"d": {
					"d": "d–d"
				},
				"Gy": {
					"G": "G y – G y",
					"y": "G y–y"
				},
				"GyM": {
					"G": "GGGGG y-MM – GGGGG y-MM",
					"M": "GGGGG y-MM – y-MM",
					"y": "GGGGG y-MM – y-MM"
				},
				"GyMd": {
					"d": "GGGGG y-MM-dd – y-MM-dd",
					"G": "GGGGG y-MM-dd – GGGGG y-MM-dd",
					"M": "GGGGG y-MM-dd – y-MM-dd",
					"y": "GGGGG y-MM-dd – y-MM-dd"
				},
				"GyMEd": {
					"d": "GGGGG y-MM-dd, E – y-MM-dd, E",
					"G": "GGGGG y-MM-dd, E – GGGGG y-MM-dd, E",
					"M": "GGGGG y-MM-dd, E – y-MM-dd, E",
					"y": "GGGGG y-MM-dd, E – y-MM-dd, E"
				},
				"GyMMM": {
					"G": "G y MMM – G y MMM",
					"M": "G y MMM–MMM",
					"y": "G y MMM – y MMM"
				},
				"GyMMMd": {
					"d": "G y MMM d–d",
					"G": "G y MMM d – G y MMM d",
					"M": "G y MMM d – MMM d",
					"y": "G y MMM d – y MMM d"
				},
				"GyMMMEd": {
					"d": "G y MMM d, E – MMM d, E",
					"G": "G y MMM d, E – G y MMM d, E",
					"M": "G y MMM d, E – MMM d, E",
					"y": "G y MMM d, E – y MMM d, E"
				},
				"h": {
					"a": "h a – h a",
					"h": "h–h a"
				},
				"H": {
					"H": "HH–HH"
				},
				"hm": {
					"a": "h:mm a – h:mm a",
					"h": "h:mm–h:mm a",
					"m": "h:mm–h:mm a"
				},
				"Hm": {
					"H": "HH:mm–HH:mm",
					"m": "HH:mm–HH:mm"
				},
				"hmv": {
					"a": "h:mm a – h:mm a v",
					"h": "h:mm–h:mm a v",
					"m": "h:mm–h:mm a v"
				},
				"Hmv": {
					"H": "HH:mm–HH:mm v",
					"m": "HH:mm–HH:mm v"
				},
				"hv": {
					"a": "h a – h a v",
					"h": "h–h a v"
				},
				"Hv": {
					"H": "HH–HH v"
				},
				"M": {
					"M": "M–M"
				},
				"Md": {
					"d": "dd.MM–dd.MM",
					"M": "dd.MM–dd.MM"
				},
				"MEd": {
					"d": "E, dd.MM – E, dd.MM",
					"M": "E, dd.MM – E, dd.MM"
				},
				"MMM": {
					"M": "MMM–MMM"
				},
				"MMMd": {
					"d": "d.–d. MMM",
					"M": "d. MMM – d. MMM"
				},
				"MMMEd": {
					"d": "E, d. MMM – E, d. MMM",
					"M": "E, d. MMM – E, d. MMM"
				},
				"y": {
					"y": "y–y G"
				},
				"yM": {
					"M": "MM.y–MM.y G",
					"y": "MM.y–MM.y G"
				},
				"yMd": {
					"d": "dd.MM.y–dd.MM.y G",
					"M": "dd.MM.y–dd.MM.y G",
					"y": "dd.MM.y–dd.MM.y G"
				},
				"yMEd": {
					"d": "E, dd.MM.y – E, dd.MM.y G",
					"M": "E, dd.MM.y – E, dd.MM.y G",
					"y": "E, dd.MM.y – E, dd.MM.y G"
				},
				"yMMM": {
					"M": "MMM–MMM y G",
					"y": "MMM y – MMM y G"
				},
				"yMMMd": {
					"d": "d.–d. MMM y G",
					"M": "d. MMM – d. MMM y G",
					"y": "d. MMM y – d. MMM y G"
				},
				"yMMMEd": {
					"d": "E, d. MMM – E, d. MMM y G",
					"M": "E, d. MMM – E, d. MMM y G",
					"y": "E, d. MMM y – E, d. MMM y G"
				},
				"yMMMM": {
					"M": "MMMM–MMMM y G",
					"y": "MMMM y – MMMM y G"
				}
			}
		},
		"months": {
			"format": {
				"abbreviated": [
					"jaan",
					"veebr",
					"märts",
					"apr",
					"mai",
					"juuni",
					"juuli",
					"aug",
					"sept",
					"okt",
					"nov",
					"dets"
				],
				"narrow": [
					"J",
					"V",
					"M",
					"A",
					"M",
					"J",
					"J",
					"A",
					"S",
					"O",
					"N",
					"D"
				],
				"wide": [
					"jaanuar",
					"veebruar",
					"märts",
					"aprill",
					"mai",
					"juuni",
					"juuli",
					"august",
					"september",
					"oktoober",
					"november",
					"detsember"
				]
			},
			"stand-alone": {
				"abbreviated": [
					"jaan",
					"veebr",
					"märts",
					"apr",
					"mai",
					"juuni",
					"juuli",
					"aug",
					"sept",
					"okt",
					"nov",
					"dets"
				],
				"narrow": [
					"J",
					"V",
					"M",
					"A",
					"M",
					"J",
					"J",
					"A",
					"S",
					"O",
					"N",
					"D"
				],
				"wide": [
					"jaanuar",
					"veebruar",
					"märts",
					"aprill",
					"mai",
					"juuni",
					"juuli",
					"august",
					"september",
					"oktoober",
					"november",
					"detsember"
				]
			}
		},
		"days": {
			"format": {
				"abbreviated": [
					"P",
					"E",
					"T",
					"K",
					"N",
					"R",
					"L"
				],
				"narrow": [
					"P",
					"E",
					"T",
					"K",
					"N",
					"R",
					"L"
				],
				"short": [
					"P",
					"E",
					"T",
					"K",
					"N",
					"R",
					"L"
				],
				"wide": [
					"pühapäev",
					"esmaspäev",
					"teisipäev",
					"kolmapäev",
					"neljapäev",
					"reede",
					"laupäev"
				]
			},
			"stand-alone": {
				"abbreviated": [
					"P",
					"E",
					"T",
					"K",
					"N",
					"R",
					"L"
				],
				"narrow": [
					"P",
					"E",
					"T",
					"K",
					"N",
					"R",
					"L"
				],
				"short": [
					"P",
					"E",
					"T",
					"K",
					"N",
					"R",
					"L"
				],
				"wide": [
					"pühapäev",
					"esmaspäev",
					"teisipäev",
					"kolmapäev",
					"neljapäev",
					"reede",
					"laupäev"
				]
			}
		},
		"quarters": {
			"format": {
				"abbreviated": [
					"K1",
					"K2",
					"K3",
					"K4"
				],
				"narrow": [
					"1",
					"2",
					"3",
					"4"
				],
				"wide": [
					"1. kvartal",
					"2. kvartal",
					"3. kvartal",
					"4. kvartal"
				]
			},
			"stand-alone": {
				"abbreviated": [
					"K1",
					"K2",
					"K3",
					"K4"
				],
				"narrow": [
					"1.",
					"2.",
					"3.",
					"4."
				],
				"wide": [
					"1. kvartal",
					"2. kvartal",
					"3. kvartal",
					"4. kvartal"
				]
			}
		},
		"dayPeriods": {
			"format": {
				"abbreviated": [
					"AM",
					"PM"
				],
				"narrow": [
					"AM",
					"PM"
				],
				"wide": [
					"AM",
					"PM"
				]
			},
			"stand-alone": {
				"abbreviated": [
					"AM",
					"PM"
				],
				"narrow": [
					"AM",
					"PM"
				],
				"wide": [
					"AM",
					"PM"
				]
			}
		},
		"era-wide": {
			"232": "Meiji",
			"233": "Taishō",
			"234": "Shōwa",
			"235": "Heisei",
			"236": "Reiwa"
		},
		"era-abbreviated": {
			"232": "Meiji",
			"233": "Taishō",
			"234": "Shōwa",
			"235": "Heisei",
			"236": "Reiwa"
		},
		"era-narrow": {
			"232": "M",
			"233": "T",
			"234": "S",
			"235": "H",
			"236": "R"
		}
	},
	"ca-persian": {
		"dateFormats": {
			"full": "EEEE, d. MMMM y G",
			"long": "d. MMMM y G",
			"medium": "dd.MM.y G",
			"short": "dd.MM.y GGGGG"
		},
		"timeFormats": {
			"full": "HH:mm:ss zzzz",
			"long": "HH:mm:ss z",
			"medium": "HH:mm:ss",
			"short": "HH:mm"
		},
		"dateTimeFormats": {
			"full": "{1}, 'kell' {0}",
			"long": "{1}, 'kell' {0}",
			"medium": "{1} {0}",
			"short": "{1} {0}",
			"availableFormats": {
				"Bh": "h B",
				"Bhm": "h:mm B",
				"Bhms": "h:mm:ss B",
				"d": "d",
				"E": "ccc",
				"EBhm": "E h:mm B",
				"EBhms": "E h:mm:ss B",
				"Ed": "E, d",
				"Ehm": "E h:mm a",
				"EHm": "E HH:mm",
				"Ehms": "E h:mm:ss a",
				"EHms": "E HH:mm:ss",
				"Gy": "y G",
				"GyMMM": "MMM y G",
				"GyMMMd": "d. MMM y G",
				"GyMMMEd": "E, d. MMMM y G",
				"h": "h a",
				"H": "HH",
				"hm": "h:mm a",
				"Hm": "HH:mm",
				"hms": "h:mm.ss a",
				"Hms": "H:mm.ss",
				"M": "M",
				"Md": "d.M",
				"MEd": "E, d.M",
				"MMM": "MMMM",
				"MMMd": "d. MMM",
				"MMMEd": "E, d. MMM",
				"MMMMd": "d. MMMM",
				"MMMMEd": "E, d. MMMM",
				"mmss": "mm.ss",
				"ms": "mm.ss",
				"y": "y G",
				"yyyy": "y G",
				"yyyyM": "M.y G",
				"yyyyMd": "d.M.y G",
				"yyyyMEd": "E, d.M y G",
				"yyyyMMM": "MMM y G",
				"yyyyMMMd": "d. MMM y G",
				"yyyyMMMEd": "E, d. MMMM y G",
				"yyyyMMMM": "MMMM y G",
				"yyyyQQQ": "QQQ y G",
				"yyyyQQQQ": "QQQQ y G"
			},
			"appendItems": {
				"Day": "{0} ({2}: {1})",
				"Day-Of-Week": "{0} {1}",
				"Era": "{1} {0}",
				"Hour": "{0} ({2}: {1})",
				"Minute": "{0} ({2}: {1})",
				"Month": "{0} ({2}: {1})",
				"Quarter": "{0} ({2}: {1})",
				"Second": "{0} ({2}: {1})",
				"Timezone": "{0} {1}",
				"Week": "{0} ({2}: {1})",
				"Year": "{1} {0}"
			},
			"intervalFormats": {
				"intervalFormatFallback": "{0}–{1}",
				"d": {
					"d": "d–d"
				},
				"Gy": {
					"G": "G y – G y",
					"y": "G y–y"
				},
				"GyM": {
					"G": "GGGGG y-MM – GGGGG y-MM",
					"M": "GGGGG y-MM – y-MM",
					"y": "GGGGG y-MM – y-MM"
				},
				"GyMd": {
					"d": "GGGGG y-MM-dd – y-MM-dd",
					"G": "GGGGG y-MM-dd – GGGGG y-MM-dd",
					"M": "GGGGG y-MM-dd – y-MM-dd",
					"y": "GGGGG y-MM-dd – y-MM-dd"
				},
				"GyMEd": {
					"d": "GGGGG y-MM-dd, E – y-MM-dd, E",
					"G": "GGGGG y-MM-dd, E – GGGGG y-MM-dd, E",
					"M": "GGGGG y-MM-dd, E – y-MM-dd, E",
					"y": "GGGGG y-MM-dd, E – y-MM-dd, E"
				},
				"GyMMM": {
					"G": "G y MMM – G y MMM",
					"M": "G y MMM–MMM",
					"y": "G y MMM – y MMM"
				},
				"GyMMMd": {
					"d": "G y MMM d–d",
					"G": "G y MMM d – G y MMM d",
					"M": "G y MMM d – MMM d",
					"y": "G y MMM d – y MMM d"
				},
				"GyMMMEd": {
					"d": "G y MMM d, E – MMM d, E",
					"G": "G y MMM d, E – G y MMM d, E",
					"M": "G y MMM d, E – MMM d, E",
					"y": "G y MMM d, E – y MMM d, E"
				},
				"h": {
					"a": "h a – h a",
					"h": "h–h a"
				},
				"H": {
					"H": "HH–HH"
				},
				"hm": {
					"a": "h:mm a – h:mm a",
					"h": "h:mm–h:mm a",
					"m": "h:mm–h:mm a"
				},
				"Hm": {
					"H": "HH:mm–HH:mm",
					"m": "HH:mm–HH:mm"
				},
				"hmv": {
					"a": "h:mm a – h:mm a v",
					"h": "h:mm–h:mm a v",
					"m": "h:mm–h:mm a v"
				},
				"Hmv": {
					"H": "HH:mm–HH:mm v",
					"m": "HH:mm–HH:mm v"
				},
				"hv": {
					"a": "h a – h a v",
					"h": "h–h a v"
				},
				"Hv": {
					"H": "HH–HH v"
				},
				"M": {
					"M": "M–M"
				},
				"Md": {
					"d": "dd.MM–dd.MM",
					"M": "dd.MM–dd.MM"
				},
				"MEd": {
					"d": "E, dd.MM – E, dd.MM",
					"M": "E, dd.MM – E, dd.MM"
				},
				"MMM": {
					"M": "MMM–MMM"
				},
				"MMMd": {
					"d": "d.–d. MMM",
					"M": "d. MMM – d. MMM"
				},
				"MMMEd": {
					"d": "E, d. MMM – E, d. MMM",
					"M": "E, d. MMM – E, d. MMM"
				},
				"y": {
					"y": "y–y G"
				},
				"yM": {
					"M": "MM.y–MM.y G",
					"y": "MM.y–MM.y G"
				},
				"yMd": {
					"d": "dd.MM.y–dd.MM.y G",
					"M": "dd.MM.y–dd.MM.y G",
					"y": "dd.MM.y–dd.MM.y G"
				},
				"yMEd": {
					"d": "E, dd.MM.y – E, dd.MM.y G",
					"M": "E, dd.MM.y – E, dd.MM.y G",
					"y": "E, dd.MM.y – E, dd.MM.y G"
				},
				"yMMM": {
					"M": "MMM–MMM y G",
					"y": "MMM y – MMM y G"
				},
				"yMMMd": {
					"d": "d.–d. MMM y G",
					"M": "d. MMM – d. MMM y G",
					"y": "d. MMM y – d. MMM y G"
				},
				"yMMMEd": {
					"d": "E, d. MMM – E, d. MMM y G",
					"M": "E, d. MMM – E, d. MMM y G",
					"y": "E, d. MMM y – E, d. MMM y G"
				},
				"yMMMM": {
					"M": "MMMM–MMMM y G",
					"y": "MMMM y – MMMM y G"
				}
			}
		},
		"months": {
			"format": {
				"abbreviated": [
					"Farvardin",
					"Ordibehesht",
					"Khordad",
					"Tir",
					"Mordad",
					"Shahrivar",
					"Mehr",
					"Aban",
					"Azar",
					"Dey",
					"Bahman",
					"Esfand"
				],
				"narrow": [
					"1",
					"2",
					"3",
					"4",
					"5",
					"6",
					"7",
					"8",
					"9",
					"10",
					"11",
					"12"
				],
				"wide": [
					"Farvardin",
					"Ordibehesht",
					"Khordad",
					"Tir",
					"Mordad",
					"Shahrivar",
					"Mehr",
					"Aban",
					"Azar",
					"Dey",
					"Bahman",
					"Esfand"
				]
			},
			"stand-alone": {
				"abbreviated": [
					"Farvardin",
					"Ordibehesht",
					"Khordad",
					"Tir",
					"Mordad",
					"Shahrivar",
					"Mehr",
					"Aban",
					"Azar",
					"Dey",
					"Bahman",
					"Esfand"
				],
				"narrow": [
					"1",
					"2",
					"3",
					"4",
					"5",
					"6",
					"7",
					"8",
					"9",
					"10",
					"11",
					"12"
				],
				"wide": [
					"Farvardin",
					"Ordibehesht",
					"Khordad",
					"Tir",
					"Mordad",
					"Shahrivar",
					"Mehr",
					"Aban",
					"Azar",
					"Dey",
					"Bahman",
					"Esfand"
				]
			}
		},
		"days": {
			"format": {
				"abbreviated": [
					"P",
					"E",
					"T",
					"K",
					"N",
					"R",
					"L"
				],
				"narrow": [
					"P",
					"E",
					"T",
					"K",
					"N",
					"R",
					"L"
				],
				"short": [
					"P",
					"E",
					"T",
					"K",
					"N",
					"R",
					"L"
				],
				"wide": [
					"pühapäev",
					"esmaspäev",
					"teisipäev",
					"kolmapäev",
					"neljapäev",
					"reede",
					"laupäev"
				]
			},
			"stand-alone": {
				"abbreviated": [
					"P",
					"E",
					"T",
					"K",
					"N",
					"R",
					"L"
				],
				"narrow": [
					"P",
					"E",
					"T",
					"K",
					"N",
					"R",
					"L"
				],
				"short": [
					"P",
					"E",
					"T",
					"K",
					"N",
					"R",
					"L"
				],
				"wide": [
					"pühapäev",
					"esmaspäev",
					"teisipäev",
					"kolmapäev",
					"neljapäev",
					"reede",
					"laupäev"
				]
			}
		},
		"quarters": {
			"format": {
				"abbreviated": [
					"K1",
					"K2",
					"K3",
					"K4"
				],
				"narrow": [
					"1",
					"2",
					"3",
					"4"
				],
				"wide": [
					"1. kvartal",
					"2. kvartal",
					"3. kvartal",
					"4. kvartal"
				]
			},
			"stand-alone": {
				"abbreviated": [
					"K1",
					"K2",
					"K3",
					"K4"
				],
				"narrow": [
					"1.",
					"2.",
					"3.",
					"4."
				],
				"wide": [
					"1. kvartal",
					"2. kvartal",
					"3. kvartal",
					"4. kvartal"
				]
			}
		},
		"dayPeriods": {
			"format": {
				"abbreviated": [
					"AM",
					"PM"
				],
				"narrow": [
					"AM",
					"PM"
				],
				"wide": [
					"AM",
					"PM"
				]
			},
			"stand-alone": {
				"abbreviated": [
					"AM",
					"PM"
				],
				"narrow": [
					"AM",
					"PM"
				],
				"wide": [
					"AM",
					"PM"
				]
			}
		},
		"era-wide": {
			"0": "AP"
		},
		"era-abbreviated": {
			"0": "AP"
		},
		"era-narrow": {
			"0": "AP"
		}
	},
	"ca-buddhist": {
		"dateFormats": {
			"full": "EEEE, d. MMMM y G",
			"long": "d. MMMM y G",
			"medium": "dd.MM.y G",
			"short": "dd.MM.y GGGGG"
		},
		"timeFormats": {
			"full": "HH:mm:ss zzzz",
			"long": "HH:mm:ss z",
			"medium": "HH:mm:ss",
			"short": "HH:mm"
		},
		"dateTimeFormats": {
			"full": "{1}, 'kell' {0}",
			"long": "{1}, 'kell' {0}",
			"medium": "{1} {0}",
			"short": "{1} {0}",
			"availableFormats": {
				"Bh": "h B",
				"Bhm": "h:mm B",
				"Bhms": "h:mm:ss B",
				"d": "d",
				"E": "ccc",
				"EBhm": "E h:mm B",
				"EBhms": "E h:mm:ss B",
				"Ed": "E, d",
				"Ehm": "E h:mm a",
				"EHm": "E HH:mm",
				"Ehms": "E h:mm:ss a",
				"EHms": "E HH:mm:ss",
				"Gy": "y G",
				"GyMMM": "MMM y G",
				"GyMMMd": "d. MMM y G",
				"GyMMMEd": "E, d. MMMM y G",
				"h": "h a",
				"H": "HH",
				"hm": "h:mm a",
				"Hm": "HH:mm",
				"hms": "h:mm.ss a",
				"Hms": "H:mm.ss",
				"M": "M",
				"Md": "d.M",
				"MEd": "E, d.M",
				"MMM": "MMMM",
				"MMMd": "d. MMM",
				"MMMEd": "E, d. MMM",
				"MMMMd": "d. MMMM",
				"MMMMEd": "E, d. MMMM",
				"mmss": "mm.ss",
				"ms": "mm.ss",
				"y": "y G",
				"yyyy": "y G",
				"yyyyM": "M.y G",
				"yyyyMd": "d.M.y G",
				"yyyyMEd": "E, d.M y G",
				"yyyyMMM": "MMM y G",
				"yyyyMMMd": "d. MMM y G",
				"yyyyMMMEd": "E, d. MMMM y G",
				"yyyyMMMM": "MMMM y G",
				"yyyyQQQ": "QQQ y G",
				"yyyyQQQQ": "QQQQ y G"
			},
			"appendItems": {
				"Day": "{0} ({2}: {1})",
				"Day-Of-Week": "{0} {1}",
				"Era": "{1} {0}",
				"Hour": "{0} ({2}: {1})",
				"Minute": "{0} ({2}: {1})",
				"Month": "{0} ({2}: {1})",
				"Quarter": "{0} ({2}: {1})",
				"Second": "{0} ({2}: {1})",
				"Timezone": "{0} {1}",
				"Week": "{0} ({2}: {1})",
				"Year": "{1} {0}"
			},
			"intervalFormats": {
				"intervalFormatFallback": "{0}–{1}",
				"d": {
					"d": "d–d"
				},
				"Gy": {
					"G": "G y – G y",
					"y": "G y–y"
				},
				"GyM": {
					"G": "GGGGG y-MM – GGGGG y-MM",
					"M": "GGGGG y-MM – y-MM",
					"y": "GGGGG y-MM – y-MM"
				},
				"GyMd": {
					"d": "GGGGG y-MM-dd – y-MM-dd",
					"G": "GGGGG y-MM-dd – GGGGG y-MM-dd",
					"M": "GGGGG y-MM-dd – y-MM-dd",
					"y": "GGGGG y-MM-dd – y-MM-dd"
				},
				"GyMEd": {
					"d": "GGGGG y-MM-dd, E – y-MM-dd, E",
					"G": "GGGGG y-MM-dd, E – GGGGG y-MM-dd, E",
					"M": "GGGGG y-MM-dd, E – y-MM-dd, E",
					"y": "GGGGG y-MM-dd, E – y-MM-dd, E"
				},
				"GyMMM": {
					"G": "G y MMM – G y MMM",
					"M": "G y MMM–MMM",
					"y": "G y MMM – y MMM"
				},
				"GyMMMd": {
					"d": "G y MMM d–d",
					"G": "G y MMM d – G y MMM d",
					"M": "G y MMM d – MMM d",
					"y": "G y MMM d – y MMM d"
				},
				"GyMMMEd": {
					"d": "G y MMM d, E – MMM d, E",
					"G": "G y MMM d, E – G y MMM d, E",
					"M": "G y MMM d, E – MMM d, E",
					"y": "G y MMM d, E – y MMM d, E"
				},
				"h": {
					"a": "h a – h a",
					"h": "h–h a"
				},
				"H": {
					"H": "HH–HH"
				},
				"hm": {
					"a": "h:mm a – h:mm a",
					"h": "h:mm–h:mm a",
					"m": "h:mm–h:mm a"
				},
				"Hm": {
					"H": "HH:mm–HH:mm",
					"m": "HH:mm–HH:mm"
				},
				"hmv": {
					"a": "h:mm a – h:mm a v",
					"h": "h:mm–h:mm a v",
					"m": "h:mm–h:mm a v"
				},
				"Hmv": {
					"H": "HH:mm–HH:mm v",
					"m": "HH:mm–HH:mm v"
				},
				"hv": {
					"a": "h a – h a v",
					"h": "h–h a v"
				},
				"Hv": {
					"H": "HH–HH v"
				},
				"M": {
					"M": "M–M"
				},
				"Md": {
					"d": "dd.MM–dd.MM",
					"M": "dd.MM–dd.MM"
				},
				"MEd": {
					"d": "E, dd.MM – E, dd.MM",
					"M": "E, dd.MM – E, dd.MM"
				},
				"MMM": {
					"M": "MMM–MMM"
				},
				"MMMd": {
					"d": "d.–d. MMM",
					"M": "d. MMM – d. MMM"
				},
				"MMMEd": {
					"d": "E, d. MMM – E, d. MMM",
					"M": "E, d. MMM – E, d. MMM"
				},
				"y": {
					"y": "y–y G"
				},
				"yM": {
					"M": "MM.y–MM.y G",
					"y": "MM.y–MM.y G"
				},
				"yMd": {
					"d": "dd.MM.y–dd.MM.y G",
					"M": "dd.MM.y–dd.MM.y G",
					"y": "dd.MM.y–dd.MM.y G"
				},
				"yMEd": {
					"d": "E, dd.MM.y – E, dd.MM.y G",
					"M": "E, dd.MM.y – E, dd.MM.y G",
					"y": "E, dd.MM.y – E, dd.MM.y G"
				},
				"yMMM": {
					"M": "MMM–MMM y G",
					"y": "MMM y – MMM y G"
				},
				"yMMMd": {
					"d": "d.–d. MMM y G",
					"M": "d. MMM – d. MMM y G",
					"y": "d. MMM y – d. MMM y G"
				},
				"yMMMEd": {
					"d": "E, d. MMM – E, d. MMM y G",
					"M": "E, d. MMM – E, d. MMM y G",
					"y": "E, d. MMM y – E, d. MMM y G"
				},
				"yMMMM": {
					"M": "MMMM–MMMM y G",
					"y": "MMMM y – MMMM y G"
				}
			}
		},
		"months": {
			"format": {
				"abbreviated": [
					"jaan",
					"veebr",
					"märts",
					"apr",
					"mai",
					"juuni",
					"juuli",
					"aug",
					"sept",
					"okt",
					"nov",
					"dets"
				],
				"narrow": [
					"J",
					"V",
					"M",
					"A",
					"M",
					"J",
					"J",
					"A",
					"S",
					"O",
					"N",
					"D"
				],
				"wide": [
					"jaanuar",
					"veebruar",
					"märts",
					"aprill",
					"mai",
					"juuni",
					"juuli",
					"august",
					"september",
					"oktoober",
					"november",
					"detsember"
				]
			},
			"stand-alone": {
				"abbreviated": [
					"jaan",
					"veebr",
					"märts",
					"apr",
					"mai",
					"juuni",
					"juuli",
					"aug",
					"sept",
					"okt",
					"nov",
					"dets"
				],
				"narrow": [
					"J",
					"V",
					"M",
					"A",
					"M",
					"J",
					"J",
					"A",
					"S",
					"O",
					"N",
					"D"
				],
				"wide": [
					"jaanuar",
					"veebruar",
					"märts",
					"aprill",
					"mai",
					"juuni",
					"juuli",
					"august",
					"september",
					"oktoober",
					"november",
					"detsember"
				]
			}
		},
		"days": {
			"format": {
				"abbreviated": [
					"P",
					"E",
					"T",
					"K",
					"N",
					"R",
					"L"
				],
				"narrow": [
					"P",
					"E",
					"T",
					"K",
					"N",
					"R",
					"L"
				],
				"short": [
					"P",
					"E",
					"T",
					"K",
					"N",
					"R",
					"L"
				],
				"wide": [
					"pühapäev",
					"esmaspäev",
					"teisipäev",
					"kolmapäev",
					"neljapäev",
					"reede",
					"laupäev"
				]
			},
			"stand-alone": {
				"abbreviated": [
					"P",
					"E",
					"T",
					"K",
					"N",
					"R",
					"L"
				],
				"narrow": [
					"P",
					"E",
					"T",
					"K",
					"N",
					"R",
					"L"
				],
				"short": [
					"P",
					"E",
					"T",
					"K",
					"N",
					"R",
					"L"
				],
				"wide": [
					"pühapäev",
					"esmaspäev",
					"teisipäev",
					"kolmapäev",
					"neljapäev",
					"reede",
					"laupäev"
				]
			}
		},
		"quarters": {
			"format": {
				"abbreviated": [
					"K1",
					"K2",
					"K3",
					"K4"
				],
				"narrow": [
					"1",
					"2",
					"3",
					"4"
				],
				"wide": [
					"1. kvartal",
					"2. kvartal",
					"3. kvartal",
					"4. kvartal"
				]
			},
			"stand-alone": {
				"abbreviated": [
					"K1",
					"K2",
					"K3",
					"K4"
				],
				"narrow": [
					"1.",
					"2.",
					"3.",
					"4."
				],
				"wide": [
					"1. kvartal",
					"2. kvartal",
					"3. kvartal",
					"4. kvartal"
				]
			}
		},
		"dayPeriods": {
			"format": {
				"abbreviated": [
					"AM",
					"PM"
				],
				"narrow": [
					"AM",
					"PM"
				],
				"wide": [
					"AM",
					"PM"
				]
			},
			"stand-alone": {
				"abbreviated": [
					"AM",
					"PM"
				],
				"narrow": [
					"AM",
					"PM"
				],
				"wide": [
					"AM",
					"PM"
				]
			}
		},
		"era-wide": {
			"0": "BK"
		},
		"era-abbreviated": {
			"0": "BK"
		},
		"era-narrow": {
			"0": "BK"
		}
	},
	"dateFields": {
		"era": {
			"displayName": "ajastu"
		},
		"year-wide": {
			"displayName": "aasta",
			"relative-type--1": "eelmine aasta",
			"relative-type-0": "käesolev aasta",
			"relative-type-1": "järgmine aasta",
			"relativeTime-type-future": {
				"relativeTimePattern-count-one": "{0} aasta pärast",
				"relativeTimePattern-count-other": "{0} aasta pärast"
			},
			"relativeTime-type-past": {
				"relativeTimePattern-count-one": "{0} aasta eest",
				"relativeTimePattern-count-other": "{0} aasta eest"
			}
		},
		"year-short": {
			"displayName": "a",
			"relative-type--1": "eelmine aasta",
			"relative-type-0": "käesolev aasta",
			"relative-type-1": "järgmine aasta",
			"relativeTime-type-future": {
				"relativeTimePattern-count-one": "{0} a pärast",
				"relativeTimePattern-count-other": "{0} a pärast"
			},
			"relativeTime-type-past": {
				"relativeTimePattern-count-one": "{0} a eest",
				"relativeTimePattern-count-other": "{0} a eest"
			}
		},
		"year-narrow": {
			"displayName": "a",
			"relative-type--1": "eelmine aasta",
			"relative-type-0": "käesolev aasta",
			"relative-type-1": "järgmine aasta",
			"relativeTime-type-future": {
				"relativeTimePattern-count-one": "{0} a pärast",
				"relativeTimePattern-count-other": "{0} a pärast"
			},
			"relativeTime-type-past": {
				"relativeTimePattern-count-one": "{0} a eest",
				"relativeTimePattern-count-other": "{0} a eest"
			}
		},
		"quarter-wide": {
			"displayName": "kvartal",
			"relative-type--1": "eelmine kvartal",
			"relative-type-0": "käesolev kvartal",
			"relative-type-1": "järgmine kvartal",
			"relativeTime-type-future": {
				"relativeTimePattern-count-one": "{0} kvartali pärast",
				"relativeTimePattern-count-other": "{0} kvartali pärast"
			},
			"relativeTime-type-past": {
				"relativeTimePattern-count-one": "{0} kvartali eest",
				"relativeTimePattern-count-other": "{0} kvartali eest"
			}
		},
		"quarter-short": {
			"displayName": "kv",
			"relative-type--1": "eelmine kv",
			"relative-type-0": "käesolev kv",
			"relative-type-1": "järgmine kv",
			"relativeTime-type-future": {
				"relativeTimePattern-count-one": "{0} kv pärast",
				"relativeTimePattern-count-other": "{0} kv pärast"
			},
			"relativeTime-type-past": {
				"relativeTimePattern-count-one": "{0} kv eest",
				"relativeTimePattern-count-other": "{0} kv eest"
			}
		},
		"quarter-narrow": {
			"displayName": "kv",
			"relative-type--1": "eelmine kv",
			"relative-type-0": "käesolev kv",
			"relative-type-1": "järgmine kv",
			"relativeTime-type-future": {
				"relativeTimePattern-count-one": "{0} kv pärast",
				"relativeTimePattern-count-other": "{0} kv pärast"
			},
			"relativeTime-type-past": {
				"relativeTimePattern-count-one": "{0} kv eest",
				"relativeTimePattern-count-other": "{0} kv eest"
			}
		},
		"month-wide": {
			"displayName": "kuu",
			"relative-type--1": "eelmine kuu",
			"relative-type-0": "käesolev kuu",
			"relative-type-1": "järgmine kuu",
			"relativeTime-type-future": {
				"relativeTimePattern-count-one": "{0} kuu pärast",
				"relativeTimePattern-count-other": "{0} kuu pärast"
			},
			"relativeTime-type-past": {
				"relativeTimePattern-count-one": "{0} kuu eest",
				"relativeTimePattern-count-other": "{0} kuu eest"
			}
		},
		"month-short": {
			"displayName": "k",
			"relative-type--1": "eelmine kuu",
			"relative-type-0": "käesolev kuu",
			"relative-type-1": "järgmine kuu",
			"relativeTime-type-future": {
				"relativeTimePattern-count-one": "{0} kuu pärast",
				"relativeTimePattern-count-other": "{0} kuu pärast"
			},
			"relativeTime-type-past": {
				"relativeTimePattern-count-one": "{0} kuu eest",
				"relativeTimePattern-count-other": "{0} kuu eest"
			}
		},
		"month-narrow": {
			"displayName": "k",
			"relative-type--1": "eelmine kuu",
			"relative-type-0": "käesolev kuu",
			"relative-type-1": "järgmine kuu",
			"relativeTime-type-future": {
				"relativeTimePattern-count-one": "{0} k pärast",
				"relativeTimePattern-count-other": "{0} k pärast"
			},
			"relativeTime-type-past": {
				"relativeTimePattern-count-one": "{0} k eest",
				"relativeTimePattern-count-other": "{0} k eest"
			}
		},
		"week-wide": {
			"displayName": "nädal",
			"relative-type--1": "eelmine nädal",
			"relative-type-0": "käesolev nädal",
			"relative-type-1": "järgmine nädal",
			"relativeTime-type-future": {
				"relativeTimePattern-count-one": "{0} nädala pärast",
				"relativeTimePattern-count-other": "{0} nädala pärast"
			},
			"relativeTime-type-past": {
				"relativeTimePattern-count-one": "{0} nädala eest",
				"relativeTimePattern-count-other": "{0} nädala eest"
			},
			"relativePeriod": "{0} nädal"
		},
		"week-short": {
			"displayName": "näd",
			"relative-type--1": "eelmine nädal",
			"relative-type-0": "käesolev nädal",
			"relative-type-1": "järgmine nädal",
			"relativeTime-type-future": {
				"relativeTimePattern-count-one": "{0} näd pärast",
				"relativeTimePattern-count-other": "{0} näd pärast"
			},
			"relativeTime-type-past": {
				"relativeTimePattern-count-one": "{0} näd eest",
				"relativeTimePattern-count-other": "{0} näd eest"
			},
			"relativePeriod": "{0} näd"
		},
		"week-narrow": {
			"displayName": "näd",
			"relative-type--1": "eelmine nädal",
			"relative-type-0": "käesolev nädal",
			"relative-type-1": "järgmine nädal",
			"relativeTime-type-future": {
				"relativeTimePattern-count-one": "{0} näd pärast",
				"relativeTimePattern-count-other": "{0} näd pärast"
			},
			"relativeTime-type-past": {
				"relativeTimePattern-count-one": "{0} näd eest",
				"relativeTimePattern-count-other": "{0} näd eest"
			},
			"relativePeriod": "{0} nädal"
		},
		"day-wide": {
			"displayName": "päev",
			"relative-type--2": "üleeile",
			"relative-type--1": "eile",
			"relative-type-0": "täna",
			"relative-type-1": "homme",
			"relative-type-2": "ülehomme",
			"relativeTime-type-future": {
				"relativeTimePattern-count-one": "{0} päeva pärast",
				"relativeTimePattern-count-other": "{0} päeva pärast"
			},
			"relativeTime-type-past": {
				"relativeTimePattern-count-one": "{0} päeva eest",
				"relativeTimePattern-count-other": "{0} päeva eest"
			}
		},
		"day-short": {
			"displayName": "p",
			"relative-type--2": "üleeile",
			"relative-type--1": "eile",
			"relative-type-0": "täna",
			"relative-type-1": "homme",
			"relative-type-2": "ülehomme",
			"relativeTime-type-future": {
				"relativeTimePattern-count-one": "{0} p pärast",
				"relativeTimePattern-count-other": "{0} p pärast"
			},
			"relativeTime-type-past": {
				"relativeTimePattern-count-one": "{0} p eest",
				"relativeTimePattern-count-other": "{0} p eest"
			}
		},
		"day-narrow": {
			"displayName": "p",
			"relative-type--2": "üleeile",
			"relative-type--1": "eile",
			"relative-type-0": "täna",
			"relative-type-1": "homme",
			"relative-type-2": "ülehomme",
			"relativeTime-type-future": {
				"relativeTimePattern-count-one": "{0} p pärast",
				"relativeTimePattern-count-other": "{0} p pärast"
			},
			"relativeTime-type-past": {
				"relativeTimePattern-count-one": "{0} p eest",
				"relativeTimePattern-count-other": "{0} p eest"
			}
		},
		"weekday": {
			"displayName": "nädalapäev"
		},
		"hour-wide": {
			"displayName": "tund",
			"relative-type-0": "praegusel tunnil",
			"relativeTime-type-future": {
				"relativeTimePattern-count-one": "{0} tunni pärast",
				"relativeTimePattern-count-other": "{0} tunni pärast"
			},
			"relativeTime-type-past": {
				"relativeTimePattern-count-one": "{0} tunni eest",
				"relativeTimePattern-count-other": "{0} tunni eest"
			}
		},
		"hour-short": {
			"displayName": "t",
			"relative-type-0": "praegusel tunnil",
			"relativeTime-type-future": {
				"relativeTimePattern-count-one": "{0} t pärast",
				"relativeTimePattern-count-other": "{0} t pärast"
			},
			"relativeTime-type-past": {
				"relativeTimePattern-count-one": "{0} t eest",
				"relativeTimePattern-count-other": "{0} t eest"
			}
		},
		"hour-narrow": {
			"displayName": "t",
			"relative-type-0": "praegusel tunnil",
			"relativeTime-type-future": {
				"relativeTimePattern-count-one": "{0} t pärast",
				"relativeTimePattern-count-other": "{0} t pärast"
			},
			"relativeTime-type-past": {
				"relativeTimePattern-count-one": "{0} t eest",
				"relativeTimePattern-count-other": "{0} t eest"
			}
		},
		"minute-wide": {
			"displayName": "minut",
			"relative-type-0": "praegusel minutil",
			"relativeTime-type-future": {
				"relativeTimePattern-count-one": "{0} minuti pärast",
				"relativeTimePattern-count-other": "{0} minuti pärast"
			},
			"relativeTime-type-past": {
				"relativeTimePattern-count-one": "{0} minuti eest",
				"relativeTimePattern-count-other": "{0} minuti eest"
			}
		},
		"minute-short": {
			"displayName": "min",
			"relative-type-0": "praegusel minutil",
			"relativeTime-type-future": {
				"relativeTimePattern-count-one": "{0} min pärast",
				"relativeTimePattern-count-other": "{0} min pärast"
			},
			"relativeTime-type-past": {
				"relativeTimePattern-count-one": "{0} min eest",
				"relativeTimePattern-count-other": "{0} min eest"
			}
		},
		"minute-narrow": {
			"displayName": "min",
			"relative-type-0": "praegusel minutil",
			"relativeTime-type-future": {
				"relativeTimePattern-count-one": "{0} min pärast",
				"relativeTimePattern-count-other": "{0} min pärast"
			},
			"relativeTime-type-past": {
				"relativeTimePattern-count-one": "{0} min eest",
				"relativeTimePattern-count-other": "{0} min eest"
			}
		},
		"second-wide": {
			"displayName": "sekund",
			"relative-type-0": "nüüd",
			"relativeTime-type-future": {
				"relativeTimePattern-count-one": "{0} sekundi pärast",
				"relativeTimePattern-count-other": "{0} sekundi pärast"
			},
			"relativeTime-type-past": {
				"relativeTimePattern-count-one": "{0} sekundi eest",
				"relativeTimePattern-count-other": "{0} sekundi eest"
			}
		},
		"second-short": {
			"displayName": "sek",
			"relative-type-0": "nüüd",
			"relativeTime-type-future": {
				"relativeTimePattern-count-one": "{0} sek pärast",
				"relativeTimePattern-count-other": "{0} sek pärast"
			},
			"relativeTime-type-past": {
				"relativeTimePattern-count-one": "{0} sek eest",
				"relativeTimePattern-count-other": "{0} sek eest"
			}
		},
		"second-narrow": {
			"displayName": "s",
			"relative-type-0": "nüüd",
			"relativeTime-type-future": {
				"relativeTimePattern-count-one": "{0} s pärast",
				"relativeTimePattern-count-other": "{0} s pärast"
			},
			"relativeTime-type-past": {
				"relativeTimePattern-count-one": "{0} s eest",
				"relativeTimePattern-count-other": "{0} s eest"
			}
		},
		"zone": {
			"displayName": "ajavöönd"
		}
	},
	"decimalFormat": {
		"standard": "#,##0.###"
	},
	"decimalFormat-long": {
		"1000-one": "0 tuhat",
		"1000-other": "0 tuhat",
		"10000-one": "00 tuhat",
		"10000-other": "00 tuhat",
		"100000-one": "000 tuhat",
		"100000-other": "000 tuhat",
		"1000000-one": "0 miljon",
		"1000000-other": "0 miljonit",
		"10000000-one": "00 miljonit",
		"10000000-other": "00 miljonit",
		"100000000-one": "000 miljonit",
		"100000000-other": "000 miljonit",
		"1000000000-one": "0 miljard",
		"1000000000-other": "0 miljardit",
		"10000000000-one": "00 miljardit",
		"10000000000-other": "00 miljardit",
		"100000000000-one": "000 miljardit",
		"100000000000-other": "000 miljardit",
		"1000000000000-one": "0 triljon",
		"1000000000000-other": "0 triljonit",
		"10000000000000-one": "00 triljonit",
		"10000000000000-other": "00 triljonit",
		"100000000000000-one": "000 triljonit",
		"100000000000000-other": "000 triljonit"
	},
	"decimalFormat-short": {
		"1000-one": "0 tuh",
		"1000-other": "0 tuh",
		"10000-one": "00 tuh",
		"10000-other": "00 tuh",
		"100000-one": "000 tuh",
		"100000-other": "000 tuh",
		"1000000-one": "0 mln",
		"1000000-other": "0 mln",
		"10000000-one": "00 mln",
		"10000000-other": "00 mln",
		"100000000-one": "000 mln",
		"100000000-other": "000 mln",
		"1000000000-one": "0 mld",
		"1000000000-other": "0 mld",
		"10000000000-one": "00 mld",
		"10000000000-other": "00 mld",
		"100000000000-one": "000 mld",
		"100000000000-other": "000 mld",
		"1000000000000-one": "0 trl",
		"1000000000000-other": "0 trl",
		"10000000000000-one": "00 trl",
		"10000000000000-other": "00 trl",
		"100000000000000-one": "000 trl",
		"100000000000000-other": "000 trl"
	},
	"scientificFormat": {
		"standard": "#E0"
	},
	"percentFormat": {
		"standard": "#,##0%"
	},
	"currencyFormat": {
		"standard": "#,##0.00 ¤",
		"accounting": "#,##0.00 ¤;(#,##0.00 ¤)",
		"currencySpacing": {
			"beforeCurrency": {
				"currencyMatch": "[:^S:]",
				"surroundingMatch": "[:digit:]",
				"insertBetween": " "
			},
			"afterCurrency": {
				"currencyMatch": "[:^S:]",
				"surroundingMatch": "[:digit:]",
				"insertBetween": " "
			}
		}
	},
	"currencyFormat-short": {
		"1000-one": "0 tuh ¤",
		"1000-other": "0 tuh ¤",
		"10000-one": "00 tuh ¤",
		"10000-other": "00 tuh ¤",
		"100000-one": "000 tuh ¤",
		"100000-other": "000 tuh ¤",
		"1000000-one": "0 mln ¤",
		"1000000-other": "0 mln ¤",
		"10000000-one": "00 mln ¤",
		"10000000-other": "00 mln ¤",
		"100000000-one": "000 mln ¤",
		"100000000-other": "000 mln ¤",
		"1000000000-one": "0 mld ¤",
		"1000000000-other": "0 mld ¤",
		"10000000000-one": "00 mld ¤",
		"10000000000-other": "00 mld ¤",
		"100000000000-one": "000 mld ¤",
		"100000000000-other": "000 mld ¤",
		"1000000000000-one": "0 trl ¤",
		"1000000000000-other": "0 trl ¤",
		"10000000000000-one": "00 trl ¤",
		"10000000000000-other": "00 trl ¤",
		"100000000000000-one": "000 trl ¤",
		"100000000000000-other": "000 trl ¤"
	},
	"symbols-latn-decimal": ",",
	"symbols-latn-group": " ",
	"symbols-latn-list": ";",
	"symbols-latn-percentSign": "%",
	"symbols-latn-plusSign": "+",
	"symbols-latn-minusSign": "−",
	"symbols-latn-exponential": "×10^",
	"symbols-latn-superscriptingExponent": "×",
	"symbols-latn-perMille": "‰",
	"symbols-latn-infinity": "∞",
	"symbols-latn-nan": "NaN",
	"symbols-latn-timeSeparator": ":",
	"currencySymbols": {
		"AUD": "AU$",
		"BRL": "R$",
		"CAD": "CA$",
		"CNY": "CN¥",
		"EEK": "kr",
		"EUR": "€",
		"GBP": "£",
		"HKD": "HK$",
		"ILS": "₪",
		"INR": "₹",
		"JPY": "¥",
		"KRW": "₩",
		"MXN": "MX$",
		"NZD": "NZ$",
		"THB": "฿",
		"TWD": "NT$",
		"USD": "$",
		"VND": "₫",
		"XAF": "FCFA",
		"XCD": "EC$",
		"XOF": "CFA",
		"XPF": "CFPF",
		"XXX": "¤"
	},
	"rtl": false,
	"listPattern-standard-wide": {
		"2": "{0} ja {1}",
		"start": "{0}, {1}",
		"middle": "{0}, {1}",
		"end": "{0} ja {1}"
	},
	"listPattern-or-wide": {
		"2": "{0} või {1}",
		"start": "{0}, {1}",
		"middle": "{0}, {1}",
		"end": "{0} või {1}"
	},
	"listPattern-or-short": {
		"2": "{0} või {1}",
		"start": "{0}, {1}",
		"middle": "{0}, {1}",
		"end": "{0} või {1}"
	},
	"listPattern-standard-short": {
		"2": "{0} ja {1}",
		"start": "{0}, {1}",
		"middle": "{0}, {1}",
		"end": "{0} ja {1}"
	},
	"units": {
		"short": {
			"per": {
				"compoundUnitPattern": "{0}/{1}"
			},
			"acceleration-g-force": {
				"displayName": "Maa raskuskiirendus",
				"unitPattern-count-one": "{0} G",
				"unitPattern-count-other": "{0} G"
			},
			"acceleration-meter-per-second-squared": {
				"displayName": "m/s²",
				"unitPattern-count-one": "{0} m/s²",
				"unitPattern-count-other": "{0} m/s²"
			},
			"angle-revolution": {
				"displayName": "pööre",
				"unitPattern-count-one": "{0} pööre",
				"unitPattern-count-other": "{0} pööret"
			},
			"angle-radian": {
				"displayName": "radiaanid",
				"unitPattern-count-one": "{0} rad",
				"unitPattern-count-other": "{0} rad"
			},
			"angle-degree": {
				"displayName": "kraadid",
				"unitPattern-count-one": "{0}°",
				"unitPattern-count-other": "{0}°"
			},
			"angle-arc-minute": {
				"displayName": "kaareminut",
				"unitPattern-count-one": "{0}′",
				"unitPattern-count-other": "{0}′"
			},
			"angle-arc-second": {
				"displayName": "″",
				"unitPattern-count-one": "{0}″",
				"unitPattern-count-other": "{0}″"
			},
			"area-square-kilometer": {
				"displayName": "km²",
				"unitPattern-count-one": "{0} km²",
				"unitPattern-count-other": "{0} km²",
				"perUnitPattern": "{0}/km²"
			},
			"area-hectare": {
				"displayName": "hektarid",
				"unitPattern-count-one": "{0} ha",
				"unitPattern-count-other": "{0} ha"
			},
			"area-square-meter": {
				"displayName": "m²",
				"unitPattern-count-one": "{0} m²",
				"unitPattern-count-other": "{0} m²",
				"perUnitPattern": "{0}/m²"
			},
			"area-square-centimeter": {
				"displayName": "cm²",
				"unitPattern-count-one": "{0} cm²",
				"unitPattern-count-other": "{0} cm²",
				"perUnitPattern": "{0}/cm²"
			},
			"area-square-mile": {
				"displayName": "mi²",
				"unitPattern-count-one": "{0} mi²",
				"unitPattern-count-other": "{0} mi²",
				"perUnitPattern": "{0}/mi²"
			},
			"area-acre": {
				"displayName": "aakrid",
				"unitPattern-count-one": "{0} ac",
				"unitPattern-count-other": "{0} ac"
			},
			"area-square-yard": {
				"displayName": "ruutjardid",
				"unitPattern-count-one": "{0} yd²",
				"unitPattern-count-other": "{0} yd²"
			},
			"area-square-foot": {
				"displayName": "ruutjalad",
				"unitPattern-count-one": "{0} ft²",
				"unitPattern-count-other": "{0} ft²"
			},
			"area-square-inch": {
				"displayName": "ruuttollid",
				"unitPattern-count-one": "{0} in²",
				"unitPattern-count-other": "{0} in²",
				"perUnitPattern": "{0}/in²"
			},
			"concentr-karat": {
				"displayName": "karaat",
				"unitPattern-count-one": "{0} ct",
				"unitPattern-count-other": "{0} ct"
			},
			"concentr-milligram-per-deciliter": {
				"displayName": "mg/dl",
				"unitPattern-count-one": "{0} mg/dl",
				"unitPattern-count-other": "{0} mg/dl"
			},
			"concentr-millimole-per-liter": {
				"displayName": "mmol/l",
				"unitPattern-count-one": "{0} mmol/l",
				"unitPattern-count-other": "{0} mmol/l"
			},
			"concentr-part-per-million": {
				"displayName": "osa/miljon",
				"unitPattern-count-one": "{0} ppm",
				"unitPattern-count-other": "{0} ppm"
			},
			"concentr-percent": {
				"displayName": "%",
				"unitPattern-count-one": "{0}%",
				"unitPattern-count-other": "{0}%"
			},
			"concentr-permille": {
				"displayName": "‰",
				"unitPattern-count-one": "{0}‰",
				"unitPattern-count-other": "{0}‰"
			},
			"consumption-liter-per-kilometer": {
				"displayName": "l/km",
				"unitPattern-count-one": "{0} l/km",
				"unitPattern-count-other": "{0} l/km"
			},
			"consumption-liter-per-100kilometers": {
				"displayName": "l/100 km",
				"unitPattern-count-one": "{0} l/100 km",
				"unitPattern-count-other": "{0} l/100 km"
			},
			"consumption-mile-per-gallon": {
				"displayName": "miil/gallon",
				"unitPattern-count-one": "{0} mpg",
				"unitPattern-count-other": "{0} mpg"
			},
			"consumption-mile-per-gallon-imperial": {
				"displayName": "miil/gal imp.",
				"unitPattern-count-one": "{0} mpg imp.",
				"unitPattern-count-other": "{0} mpg imp."
			},
			"digital-petabyte": {
				"displayName": "PB",
				"unitPattern-count-one": "{0} PB",
				"unitPattern-count-other": "{0} PB"
			},
			"digital-terabyte": {
				"displayName": "TB",
				"unitPattern-count-one": "{0} TB",
				"unitPattern-count-other": "{0} TB"
			},
			"digital-terabit": {
				"displayName": "Tb",
				"unitPattern-count-one": "{0} Tb",
				"unitPattern-count-other": "{0} Tb"
			},
			"digital-gigabyte": {
				"displayName": "GB",
				"unitPattern-count-one": "{0} GB",
				"unitPattern-count-other": "{0} GB"
			},
			"digital-gigabit": {
				"displayName": "Gb",
				"unitPattern-count-one": "{0} Gb",
				"unitPattern-count-other": "{0} Gb"
			},
			"digital-megabyte": {
				"displayName": "MB",
				"unitPattern-count-one": "{0} MB",
				"unitPattern-count-other": "{0} MB"
			},
			"digital-megabit": {
				"displayName": "Mb",
				"unitPattern-count-one": "{0} Mb",
				"unitPattern-count-other": "{0} Mb"
			},
			"digital-kilobyte": {
				"displayName": "kB",
				"unitPattern-count-one": "{0} kB",
				"unitPattern-count-other": "{0} kB"
			},
			"digital-kilobit": {
				"displayName": "kb",
				"unitPattern-count-one": "{0} kb",
				"unitPattern-count-other": "{0} kb"
			},
			"digital-byte": {
				"displayName": "bait",
				"unitPattern-count-one": "{0} bait",
				"unitPattern-count-other": "{0} baiti"
			},
			"digital-bit": {
				"displayName": "bitt",
				"unitPattern-count-one": "{0} b",
				"unitPattern-count-other": "{0} b"
			},
			"duration-century": {
				"displayName": "saj",
				"unitPattern-count-one": "{0} saj",
				"unitPattern-count-other": "{0} saj"
			},
			"duration-year": {
				"displayName": "aastad",
				"unitPattern-count-one": "{0} a",
				"unitPattern-count-other": "{0} a",
				"perUnitPattern": "{0}/a"
			},
			"duration-month": {
				"displayName": "kuud",
				"unitPattern-count-one": "{0} kuu",
				"unitPattern-count-other": "{0} kuud",
				"perUnitPattern": "{0}/k"
			},
			"duration-week": {
				"displayName": "näd",
				"unitPattern-count-one": "{0} näd",
				"unitPattern-count-other": "{0} näd",
				"perUnitPattern": "{0}/näd"
			},
			"duration-day": {
				"displayName": "päevad",
				"unitPattern-count-one": "{0} päev",
				"unitPattern-count-other": "{0} päeva",
				"perUnitPattern": "{0}/ööp"
			},
			"duration-hour": {
				"displayName": "t",
				"unitPattern-count-one": "{0} t",
				"unitPattern-count-other": "{0} t",
				"perUnitPattern": "{0}/t"
			},
			"duration-minute": {
				"displayName": "min",
				"unitPattern-count-one": "{0} min",
				"unitPattern-count-other": "{0} min",
				"perUnitPattern": "{0}/min"
			},
			"duration-second": {
				"displayName": "sek",
				"unitPattern-count-one": "{0} sek",
				"unitPattern-count-other": "{0} sek",
				"perUnitPattern": "{0}/sek"
			},
			"duration-millisecond": {
				"displayName": "ms",
				"unitPattern-count-one": "{0} ms",
				"unitPattern-count-other": "{0} ms"
			},
			"duration-microsecond": {
				"displayName": "μs",
				"unitPattern-count-one": "{0} μs",
				"unitPattern-count-other": "{0} μs"
			},
			"duration-nanosecond": {
				"displayName": "ns",
				"unitPattern-count-one": "{0} ns",
				"unitPattern-count-other": "{0} ns"
			},
			"electric-ampere": {
				"displayName": "amprid",
				"unitPattern-count-one": "{0} A",
				"unitPattern-count-other": "{0} A"
			},
			"electric-milliampere": {
				"displayName": "milliamprid",
				"unitPattern-count-one": "{0} mA",
				"unitPattern-count-other": "{0} mA"
			},
			"electric-ohm": {
				"displayName": "oomid",
				"unitPattern-count-one": "{0} Ω",
				"unitPattern-count-other": "{0} Ω"
			},
			"electric-volt": {
				"displayName": "voldid",
				"unitPattern-count-one": "{0} V",
				"unitPattern-count-other": "{0} V"
			},
			"energy-kilocalorie": {
				"displayName": "kcal",
				"unitPattern-count-one": "{0} kcal",
				"unitPattern-count-other": "{0} kcal"
			},
			"energy-calorie": {
				"displayName": "cal",
				"unitPattern-count-one": "{0} cal",
				"unitPattern-count-other": "{0} cal"
			},
			"energy-foodcalorie": {
				"displayName": "Cal",
				"unitPattern-count-one": "{0} Cal",
				"unitPattern-count-other": "{0} Cal"
			},
			"energy-kilojoule": {
				"displayName": "kJ",
				"unitPattern-count-one": "{0} kJ",
				"unitPattern-count-other": "{0} kJ"
			},
			"energy-joule": {
				"displayName": "džaulid",
				"unitPattern-count-one": "{0} J",
				"unitPattern-count-other": "{0} J"
			},
			"energy-kilowatt-hour": {
				"displayName": "kW-tund",
				"unitPattern-count-one": "{0} kWh",
				"unitPattern-count-other": "{0} kWh"
			},
			"frequency-gigahertz": {
				"displayName": "GHz",
				"unitPattern-count-one": "{0} GHz",
				"unitPattern-count-other": "{0} GHz"
			},
			"frequency-megahertz": {
				"displayName": "MHz",
				"unitPattern-count-one": "{0} MHz",
				"unitPattern-count-other": "{0} MHz"
			},
			"frequency-kilohertz": {
				"displayName": "kHz",
				"unitPattern-count-one": "{0} kHz",
				"unitPattern-count-other": "{0} kHz"
			},
			"frequency-hertz": {
				"displayName": "Hz",
				"unitPattern-count-one": "{0} Hz",
				"unitPattern-count-other": "{0} Hz"
			},
			"length-kilometer": {
				"displayName": "km",
				"unitPattern-count-one": "{0} km",
				"unitPattern-count-other": "{0} km",
				"perUnitPattern": "{0}/km"
			},
			"length-meter": {
				"displayName": "m",
				"unitPattern-count-one": "{0} m",
				"unitPattern-count-other": "{0} m",
				"perUnitPattern": "{0}/m"
			},
			"length-decimeter": {
				"displayName": "dm",
				"unitPattern-count-one": "{0} dm",
				"unitPattern-count-other": "{0} dm"
			},
			"length-centimeter": {
				"displayName": "cm",
				"unitPattern-count-one": "{0} cm",
				"unitPattern-count-other": "{0} cm",
				"perUnitPattern": "{0}/cm"
			},
			"length-millimeter": {
				"displayName": "mm",
				"unitPattern-count-one": "{0} mm",
				"unitPattern-count-other": "{0} mm"
			},
			"length-micrometer": {
				"displayName": "µm",
				"unitPattern-count-one": "{0} µm",
				"unitPattern-count-other": "{0} µm"
			},
			"length-nanometer": {
				"displayName": "nm",
				"unitPattern-count-one": "{0} nm",
				"unitPattern-count-other": "{0} nm"
			},
			"length-picometer": {
				"displayName": "pm",
				"unitPattern-count-one": "{0} pm",
				"unitPattern-count-other": "{0} pm"
			},
			"length-mile": {
				"displayName": "mi",
				"unitPattern-count-one": "{0} mi",
				"unitPattern-count-other": "{0} mi"
			},
			"length-yard": {
				"displayName": "jardid",
				"unitPattern-count-one": "{0} yd",
				"unitPattern-count-other": "{0} yd"
			},
			"length-foot": {
				"displayName": "ft",
				"unitPattern-count-one": "{0} ft",
				"unitPattern-count-other": "{0} ft",
				"perUnitPattern": "{0}/ft"
			},
			"length-inch": {
				"displayName": "tollid",
				"unitPattern-count-one": "{0} in",
				"unitPattern-count-other": "{0} in",
				"perUnitPattern": "{0}/in"
			},
			"length-parsec": {
				"displayName": "parsekid",
				"unitPattern-count-one": "{0} pc",
				"unitPattern-count-other": "{0} pc"
			},
			"length-light-year": {
				"displayName": "valgusaastad",
				"unitPattern-count-one": "{0} valgusa.",
				"unitPattern-count-other": "{0} valgusa."
			},
			"length-astronomical-unit": {
				"displayName": "aü",
				"unitPattern-count-one": "{0} aü",
				"unitPattern-count-other": "{0} aü"
			},
			"length-furlong": {
				"displayName": "furlongid",
				"unitPattern-count-one": "{0} fur",
				"unitPattern-count-other": "{0} fur"
			},
			"length-fathom": {
				"displayName": "süllad",
				"unitPattern-count-one": "{0} fth",
				"unitPattern-count-other": "{0} fth"
			},
			"length-nautical-mile": {
				"displayName": "nmi",
				"unitPattern-count-one": "{0} nmi",
				"unitPattern-count-other": "{0} nmi"
			},
			"length-mile-scandinavian": {
				"displayName": "smi",
				"unitPattern-count-one": "{0} smi",
				"unitPattern-count-other": "{0} smi"
			},
			"length-point": {
				"displayName": "punktid",
				"unitPattern-count-one": "{0} pt",
				"unitPattern-count-other": "{0} pt"
			},
			"light-lux": {
				"displayName": "lx",
				"unitPattern-count-one": "{0} lx",
				"unitPattern-count-other": "{0} lx"
			},
			"mass-metric-ton": {
				"displayName": "t",
				"unitPattern-count-one": "{0} t",
				"unitPattern-count-other": "{0} t"
			},
			"mass-kilogram": {
				"displayName": "kg",
				"unitPattern-count-one": "{0} kg",
				"unitPattern-count-other": "{0} kg",
				"perUnitPattern": "{0}/kg"
			},
			"mass-gram": {
				"displayName": "grammid",
				"unitPattern-count-one": "{0} g",
				"unitPattern-count-other": "{0} g",
				"perUnitPattern": "{0}/g"
			},
			"mass-milligram": {
				"displayName": "mg",
				"unitPattern-count-one": "{0} mg",
				"unitPattern-count-other": "{0} mg"
			},
			"mass-microgram": {
				"displayName": "µg",
				"unitPattern-count-one": "{0} µg",
				"unitPattern-count-other": "{0} µg"
			},
			"mass-ton": {
				"displayName": "lüh t",
				"unitPattern-count-one": "{0} lüh t",
				"unitPattern-count-other": "{0} lüh t"
			},
			"mass-stone": {
				"displayName": "kivid",
				"unitPattern-count-one": "{0} st",
				"unitPattern-count-other": "{0} st"
			},
			"mass-pound": {
				"displayName": "naelad",
				"unitPattern-count-one": "{0} lb",
				"unitPattern-count-other": "{0} lb",
				"perUnitPattern": "{0}/lb"
			},
			"mass-ounce": {
				"displayName": "oz",
				"unitPattern-count-one": "{0} oz",
				"unitPattern-count-other": "{0} oz",
				"perUnitPattern": "{0}/oz"
			},
			"mass-ounce-troy": {
				"displayName": "oz t",
				"unitPattern-count-one": "{0} oz t",
				"unitPattern-count-other": "{0} oz t"
			},
			"mass-carat": {
				"displayName": "ct",
				"unitPattern-count-one": "{0} ct",
				"unitPattern-count-other": "{0} ct"
			},
			"power-gigawatt": {
				"displayName": "GW",
				"unitPattern-count-one": "{0} GW",
				"unitPattern-count-other": "{0} GW"
			},
			"power-megawatt": {
				"displayName": "MW",
				"unitPattern-count-one": "{0} MW",
				"unitPattern-count-other": "{0} MW"
			},
			"power-kilowatt": {
				"displayName": "kW",
				"unitPattern-count-one": "{0} kW",
				"unitPattern-count-other": "{0} kW"
			},
			"power-watt": {
				"displayName": "vatid",
				"unitPattern-count-one": "{0} W",
				"unitPattern-count-other": "{0} W"
			},
			"power-milliwatt": {
				"displayName": "mW",
				"unitPattern-count-one": "{0} mW",
				"unitPattern-count-other": "{0} mW"
			},
			"power-horsepower": {
				"displayName": "hj",
				"unitPattern-count-one": "{0} hj",
				"unitPattern-count-other": "{0} hj"
			},
			"pressure-hectopascal": {
				"displayName": "hPa",
				"unitPattern-count-one": "{0} hPa",
				"unitPattern-count-other": "{0} hPa"
			},
			"pressure-millimeter-of-mercury": {
				"displayName": "mm Hg",
				"unitPattern-count-one": "{0} mm Hg",
				"unitPattern-count-other": "{0} mm Hg"
			},
			"pressure-pound-per-square-inch": {
				"displayName": "psi",
				"unitPattern-count-one": "{0} psi",
				"unitPattern-count-other": "{0} psi"
			},
			"pressure-inch-hg": {
				"displayName": "in Hg",
				"unitPattern-count-one": "{0} in Hg",
				"unitPattern-count-other": "{0} in Hg"
			},
			"pressure-millibar": {
				"displayName": "mbar",
				"unitPattern-count-one": "{0} mbar",
				"unitPattern-count-other": "{0} mbar"
			},
			"pressure-atmosphere": {
				"displayName": "atm",
				"unitPattern-count-one": "{0} atm",
				"unitPattern-count-other": "{0} atm"
			},
			"speed-kilometer-per-hour": {
				"displayName": "km/h",
				"unitPattern-count-one": "{0} km/h",
				"unitPattern-count-other": "{0} km/h"
			},
			"speed-meter-per-second": {
				"displayName": "m/s",
				"unitPattern-count-one": "{0} m/s",
				"unitPattern-count-other": "{0} m/s"
			},
			"speed-mile-per-hour": {
				"displayName": "mi/h",
				"unitPattern-count-one": "{0} mi/h",
				"unitPattern-count-other": "{0} mi/h"
			},
			"speed-knot": {
				"displayName": "kn",
				"unitPattern-count-one": "{0} kn",
				"unitPattern-count-other": "{0} kn"
			},
			"temperature-generic": {
				"displayName": "°",
				"unitPattern-count-one": "{0}°",
				"unitPattern-count-other": "{0}°"
			},
			"temperature-celsius": {
				"displayName": "°C",
				"unitPattern-count-one": "{0} °C",
				"unitPattern-count-other": "{0} °C"
			},
			"temperature-fahrenheit": {
				"displayName": "°F",
				"unitPattern-count-one": "{0} °F",
				"unitPattern-count-other": "{0} °F"
			},
			"temperature-kelvin": {
				"displayName": "K",
				"unitPattern-count-one": "{0} K",
				"unitPattern-count-other": "{0} K"
			},
			"volume-cubic-kilometer": {
				"displayName": "km³",
				"unitPattern-count-one": "{0} km³",
				"unitPattern-count-other": "{0} km³"
			},
			"volume-cubic-meter": {
				"displayName": "m³",
				"unitPattern-count-one": "{0} m³",
				"unitPattern-count-other": "{0} m³",
				"perUnitPattern": "{0}/m³"
			},
			"volume-cubic-centimeter": {
				"displayName": "cm³",
				"unitPattern-count-one": "{0} cm³",
				"unitPattern-count-other": "{0} cm³",
				"perUnitPattern": "{0}/cm³"
			},
			"volume-cubic-mile": {
				"displayName": "kuupmiilid",
				"unitPattern-count-one": "{0} mi³",
				"unitPattern-count-other": "{0} mi³"
			},
			"volume-cubic-yard": {
				"displayName": "kuupjardid",
				"unitPattern-count-one": "{0} yd³",
				"unitPattern-count-other": "{0} yd³"
			},
			"volume-cubic-foot": {
				"displayName": "ft³",
				"unitPattern-count-one": "{0} ft³",
				"unitPattern-count-other": "{0} ft³"
			},
			"volume-cubic-inch": {
				"displayName": "kuuptollid",
				"unitPattern-count-one": "{0} in³",
				"unitPattern-count-other": "{0} in³"
			},
			"volume-megaliter": {
				"displayName": "Ml",
				"unitPattern-count-one": "{0} Ml",
				"unitPattern-count-other": "{0} Ml"
			},
			"volume-hectoliter": {
				"displayName": "hl",
				"unitPattern-count-one": "{0} hl",
				"unitPattern-count-other": "{0} hl"
			},
			"volume-liter": {
				"displayName": "liitrid",
				"unitPattern-count-one": "{0} l",
				"unitPattern-count-other": "{0} l",
				"perUnitPattern": "{0}/l"
			},
			"volume-deciliter": {
				"displayName": "dl",
				"unitPattern-count-one": "{0} dl",
				"unitPattern-count-other": "{0} dl"
			},
			"volume-centiliter": {
				"displayName": "cl",
				"unitPattern-count-one": "{0} cl",
				"unitPattern-count-other": "{0} cl"
			},
			"volume-milliliter": {
				"displayName": "ml",
				"unitPattern-count-one": "{0} ml",
				"unitPattern-count-other": "{0} ml"
			},
			"volume-pint-metric": {
				"displayName": "mpt",
				"unitPattern-count-one": "{0} mpt",
				"unitPattern-count-other": "{0} mpt"
			},
			"volume-cup-metric": {
				"displayName": "mcup",
				"unitPattern-count-one": "{0} mc",
				"unitPattern-count-other": "{0} mc"
			},
			"volume-acre-foot": {
				"displayName": "aakerjalg",
				"unitPattern-count-one": "{0} ac ft",
				"unitPattern-count-other": "{0} ac ft"
			},
			"volume-bushel": {
				"displayName": "buššelid",
				"unitPattern-count-other": "{0} bu"
			},
			"volume-gallon": {
				"displayName": "gal",
				"unitPattern-count-one": "{0} gal",
				"unitPattern-count-other": "{0} gal",
				"perUnitPattern": "{0}/gal"
			},
			"volume-gallon-imperial": {
				"displayName": "Imp. gal",
				"unitPattern-count-one": "{0} gal Imp.",
				"unitPattern-count-other": "{0} gal Imp.",
				"perUnitPattern": "{0}/gal Imp."
			},
			"volume-quart": {
				"displayName": "kvart",
				"unitPattern-count-one": "{0} qt",
				"unitPattern-count-other": "{0} qt"
			},
			"volume-pint": {
				"displayName": "pindid",
				"unitPattern-count-one": "{0} pt",
				"unitPattern-count-other": "{0} pt"
			},
			"volume-cup": {
				"displayName": "tass",
				"unitPattern-count-one": "{0} c",
				"unitPattern-count-other": "{0} c"
			},
			"volume-fluid-ounce": {
				"displayName": "fl oz",
				"unitPattern-count-one": "{0} fl oz",
				"unitPattern-count-other": "{0} fl oz"
			},
			"volume-tablespoon": {
				"displayName": "spl",
				"unitPattern-count-one": "{0} spl",
				"unitPattern-count-other": "{0} spl"
			},
			"volume-teaspoon": {
				"displayName": "tl",
				"unitPattern-count-one": "{0} tl",
				"unitPattern-count-other": "{0} tl"
			},
			"coordinateUnit": {
				"displayName": "ilmakaar",
				"east": "{0} ip",
				"north": "{0} pl",
				"south": "{0} ll",
				"west": "{0} lp"
			}
		}
	},
	"currencyDigits": {
		"ADP": 0,
		"AFN": 0,
		"ALL": 0,
		"BHD": 3,
		"BIF": 0,
		"BYR": 0,
		"CLF": 4,
		"CLP": 0,
		"DEFAULT": 2,
		"DJF": 0,
		"ESP": 0,
		"GNF": 0,
		"HUF": 0,
		"IQD": 0,
		"IRR": 0,
		"ISK": 0,
		"ITL": 0,
		"JOD": 3,
		"JPY": 0,
		"KMF": 0,
		"KPW": 0,
		"KRW": 0,
		"KWD": 3,
		"LAK": 0,
		"LBP": 0,
		"LUF": 0,
		"LYD": 3,
		"MGA": 0,
		"MGF": 0,
		"MMK": 0,
		"MRO": 0,
		"OMR": 3,
		"PYG": 0,
		"RSD": 0,
		"RWF": 0,
		"SLL": 0,
		"SOS": 0,
		"STD": 0,
		"SYP": 0,
		"TMM": 0,
		"TND": 3,
		"TRL": 0,
		"TWD": 0,
		"UGX": 0,
		"UYI": 0,
		"UYW": 4,
		"VND": 0,
		"VUV": 0,
		"XAF": 0,
		"XOF": 0,
		"XPF": 0,
		"YER": 0,
		"ZMK": 0,
		"ZWD": 0
	},
	"plurals": {
		"one": "i = 1 and v = 0"
	},
	"weekData-minDays": 4,
	"weekData-firstDay": 1,
	"weekData-weekendStart": 6,
	"weekData-weekendEnd": 0,
	"timeData": {
		"_allowed": "H hB",
		"_preferred": "H"
	},
	"eras-gregorian": {
		"0": {
			"_end": "0-12-31"
		},
		"1": {
			"_start": "1-01-01"
		}
	},
	"eras-islamic": {
		"0": {
			"_start": "622-7-15"
		}
	},
	"eras-persian": {
		"0": {
			"_start": "622-01-01"
		}
	},
	"eras-buddhist": {
		"0": {
			"_start": "-542-01-01"
		}
	},
	"eras-japanese": {
		"232": {
			"_start": "1868-9-8"
		},
		"233": {
			"_start": "1912-7-30"
		},
		"234": {
			"_start": "1926-12-25"
		},
		"235": {
			"_start": "1989-1-8"
		},
		"236": {
			"_start": "2019-5-1"
		}
	}
}