{
	"__license": "This file has been derived from Unicode Common Locale Data Repository (CLDR) files (http://cldr.unicode.org). See the copyright and permission notice in the Unicode-Data-Files-LICENSE.txt available at the same location as this file or visit http://www.unicode.org/copyright.html",
	"languages": {
		"aa": "afar",
		"ab": "abcaso",
		"ace": "accinese",
		"ach": "acioli",
		"ada": "adangme",
		"ady": "adyghe",
		"ae": "avestan",
		"aeb": "arabo tunisino",
		"af": "afrikaans",
		"afh": "afrihili",
		"agq": "aghem",
		"ain": "ainu",
		"ak": "akan",
		"akk": "accado",
		"akz": "alabama",
		"ale": "aleuto",
		"aln": "albanese ghego",
		"alt": "altai meridionale",
		"am": "amarico",
		"an": "aragonese",
		"ang": "inglese antico",
		"anp": "angika",
		"ar": "arabo",
		"ar_001": "arabo moderno standard",
		"arc": "aramaico",
		"arn": "mapudungun",
		"aro": "araona",
		"arp": "arapaho",
		"arq": "arabo algerino",
		"ars": "arabo najd",
		"arw": "aruaco",
		"ary": "arabo marocchino",
		"arz": "arabo egiziano",
		"as": "assamese",
		"asa": "asu",
		"ase": "lingua dei segni americana",
		"ast": "asturiano",
		"av": "avaro",
		"avk": "kotava",
		"awa": "awadhi",
		"ay": "aymara",
		"az": "azerbaigiano",
		"az_alt-short": "azero",
		"ba": "baschiro",
		"bal": "beluci",
		"ban": "balinese",
		"bar": "bavarese",
		"bas": "basa",
		"bax": "bamun",
		"bbc": "batak toba",
		"bbj": "ghomala",
		"be": "bielorusso",
		"bej": "begia",
		"bem": "wemba",
		"bew": "betawi",
		"bez": "bena",
		"bfd": "bafut",
		"bfq": "badaga",
		"bg": "bulgaro",
		"bgn": "beluci occidentale",
		"bho": "bhojpuri",
		"bi": "bislama",
		"bik": "bicol",
		"bin": "bini",
		"bjn": "banjar",
		"bkm": "kom",
		"bla": "siksika",
		"bm": "bambara",
		"bn": "bengalese",
		"bo": "tibetano",
		"bpy": "bishnupriya",
		"bqi": "bakhtiari",
		"br": "bretone",
		"bra": "braj",
		"brh": "brahui",
		"brx": "bodo",
		"bs": "bosniaco",
		"bss": "akoose",
		"bua": "buriat",
		"bug": "bugi",
		"bum": "bulu",
		"byn": "blin",
		"byv": "medumba",
		"ca": "catalano",
		"cad": "caddo",
		"car": "caribico",
		"cay": "cayuga",
		"cch": "atsam",
		"ccp": "ccp",
		"ce": "ceceno",
		"ceb": "cebuano",
		"cgg": "chiga",
		"ch": "chamorro",
		"chb": "chibcha",
		"chg": "ciagataico",
		"chk": "chuukese",
		"chm": "mari",
		"chn": "gergo chinook",
		"cho": "choctaw",
		"chp": "chipewyan",
		"chr": "cherokee",
		"chy": "cheyenne",
		"ckb": "curdo sorani",
		"co": "corso",
		"cop": "copto",
		"cps": "capiznon",
		"cr": "cree",
		"crh": "turco crimeo",
		"crs": "creolo delle Seychelles",
		"cs": "ceco",
		"csb": "kashubian",
		"cu": "slavo della Chiesa",
		"cv": "ciuvascio",
		"cy": "gallese",
		"da": "danese",
		"dak": "dakota",
		"dar": "dargwa",
		"dav": "taita",
		"de": "tedesco",
		"de_AT": "tedesco austriaco",
		"de_CH": "alto tedesco svizzero",
		"del": "delaware",
		"den": "slave",
		"dgr": "dogrib",
		"din": "dinca",
		"dje": "zarma",
		"doi": "dogri",
		"dsb": "basso sorabo",
		"dtp": "dusun centrale",
		"dua": "duala",
		"dum": "olandese medio",
		"dv": "divehi",
		"dyo": "jola-fony",
		"dyu": "diula",
		"dz": "dzongkha",
		"dzg": "dazaga",
		"ebu": "embu",
		"ee": "ewe",
		"efi": "efik",
		"egl": "emiliano",
		"egy": "egiziano antico",
		"eka": "ekajuka",
		"el": "greco",
		"elx": "elamitico",
		"en": "inglese",
		"en_AU": "inglese australiano",
		"en_CA": "inglese canadese",
		"en_GB": "inglese britannico",
		"en_GB-alt-short": "inglese (GB)",
		"en_US": "inglese americano",
		"en_US-alt-short": "inglese (USA)",
		"enm": "inglese medio",
		"eo": "esperanto",
		"es": "spagnolo",
		"es_419": "spagnolo latinoamericano",
		"es_ES": "spagnolo europeo",
		"es_MX": "spagnolo messicano",
		"esu": "yupik centrale",
		"et": "estone",
		"eu": "basco",
		"ewo": "ewondo",
		"ext": "estremegno",
		"fa": "persiano",
		"fan": "fang",
		"fat": "fanti",
		"ff": "fulah",
		"fi": "finlandese",
		"fil": "filippino",
		"fit": "finlandese del Tornedalen",
		"fj": "figiano",
		"fo": "faroese",
		"fon": "fon",
		"fr": "francese",
		"fr_CA": "francese canadese",
		"fr_CH": "francese svizzero",
		"frc": "francese cajun",
		"frm": "francese medio",
		"fro": "francese antico",
		"frp": "francoprovenzale",
		"frr": "frisone settentrionale",
		"frs": "frisone orientale",
		"fur": "friulano",
		"fy": "frisone occidentale",
		"ga": "irlandese",
		"gaa": "ga",
		"gag": "gagauzo",
		"gan": "gan",
		"gay": "gayo",
		"gba": "gbaya",
		"gbz": "dari zoroastriano",
		"gd": "gaelico scozzese",
		"gez": "geez",
		"gil": "gilbertese",
		"gl": "galiziano",
		"glk": "gilaki",
		"gmh": "tedesco medio alto",
		"gn": "guaraní",
		"goh": "tedesco antico alto",
		"gom": "konkani goano",
		"gon": "gondi",
		"gor": "gorontalo",
		"got": "gotico",
		"grb": "grebo",
		"grc": "greco antico",
		"gsw": "tedesco svizzero",
		"gu": "gujarati",
		"guc": "wayuu",
		"guz": "gusii",
		"gv": "mannese",
		"gwi": "gwichʼin",
		"ha": "hausa",
		"hai": "haida",
		"hak": "hakka",
		"haw": "hawaiano",
		"he": "ebraico",
		"hi": "hindi",
		"hif": "hindi figiano",
		"hil": "ilongo",
		"hit": "hittite",
		"hmn": "hmong",
		"ho": "hiri motu",
		"hr": "croato",
		"hsb": "alto sorabo",
		"hsn": "xiang",
		"ht": "haitiano",
		"hu": "ungherese",
		"hup": "hupa",
		"hy": "armeno",
		"hz": "herero",
		"ia": "interlingua",
		"iba": "iban",
		"ibb": "ibibio",
		"id": "indonesiano",
		"ie": "interlingue",
		"ig": "igbo",
		"ii": "sichuan yi",
		"ik": "inupiak",
		"ilo": "ilocano",
		"inh": "ingush",
		"io": "ido",
		"is": "islandese",
		"it": "italiano",
		"iu": "inuktitut",
		"izh": "ingrico",
		"ja": "giapponese",
		"jam": "creolo giamaicano",
		"jbo": "lojban",
		"jgo": "ngamambo",
		"jmc": "machame",
		"jpr": "giudeo persiano",
		"jrb": "giudeo arabo",
		"jut": "jutlandico",
		"jv": "giavanese",
		"ka": "georgiano",
		"kaa": "kara-kalpak",
		"kab": "cabilo",
		"kac": "kachin",
		"kaj": "kai",
		"kam": "kamba",
		"kaw": "kawi",
		"kbd": "cabardino",
		"kbl": "kanembu",
		"kcg": "tyap",
		"kde": "makonde",
		"kea": "capoverdiano",
		"kfo": "koro",
		"kg": "kongo",
		"kgp": "kaingang",
		"kha": "khasi",
		"kho": "khotanese",
		"khq": "koyra chiini",
		"khw": "khowar",
		"ki": "kikuyu",
		"kiu": "kirmanjki",
		"kj": "kuanyama",
		"kk": "kazako",
		"kkj": "kako",
		"kl": "groenlandese",
		"kln": "kalenjin",
		"km": "khmer",
		"kmb": "kimbundu",
		"kn": "kannada",
		"ko": "coreano",
		"koi": "permiaco",
		"kok": "konkani",
		"kos": "kosraean",
		"kpe": "kpelle",
		"kr": "kanuri",
		"krc": "karachay-Balkar",
		"krl": "careliano",
		"kru": "kurukh",
		"ks": "kashmiri",
		"ksb": "shambala",
		"ksf": "bafia",
		"ksh": "coloniese",
		"ku": "curdo",
		"kum": "kumyk",
		"kut": "kutenai",
		"kv": "komi",
		"kw": "cornico",
		"ky": "kirghiso",
		"la": "latino",
		"lad": "giudeo-spagnolo",
		"lag": "langi",
		"lah": "lahnda",
		"lam": "lamba",
		"lb": "lussemburghese",
		"lez": "lesgo",
		"lfn": "Lingua Franca Nova",
		"lg": "ganda",
		"li": "limburghese",
		"lij": "ligure",
		"liv": "livone",
		"lkt": "lakota",
		"lmo": "lombardo",
		"ln": "lingala",
		"lo": "lao",
		"lol": "lolo bantu",
		"lou": "creolo della Louisiana",
		"loz": "lozi",
		"lrc": "luri settentrionale",
		"lt": "lituano",
		"ltg": "letgallo",
		"lu": "luba-katanga",
		"lua": "luba-lulua",
		"lui": "luiseno",
		"lun": "lunda",
		"luo": "luo",
		"lus": "lushai",
		"luy": "luyia",
		"lv": "lettone",
		"lzh": "cinese classico",
		"lzz": "laz",
		"mad": "madurese",
		"maf": "mafa",
		"mag": "magahi",
		"mai": "maithili",
		"mak": "makasar",
		"man": "mandingo",
		"mas": "masai",
		"mde": "maba",
		"mdf": "moksha",
		"mdr": "mandar",
		"men": "mende",
		"mer": "meru",
		"mfe": "creolo mauriziano",
		"mg": "malgascio",
		"mga": "irlandese medio",
		"mgh": "makhuwa-meetto",
		"mgo": "meta’",
		"mh": "marshallese",
		"mi": "maori",
		"mic": "micmac",
		"min": "menangkabau",
		"mk": "macedone",
		"ml": "malayalam",
		"mn": "mongolo",
		"mnc": "manchu",
		"mni": "manipuri",
		"moh": "mohawk",
		"mos": "mossi",
		"mr": "marathi",
		"mrj": "mari occidentale",
		"ms": "malese",
		"mt": "maltese",
		"mua": "mundang",
		"mul": "multilingua",
		"mus": "creek",
		"mwl": "mirandese",
		"mwr": "marwari",
		"mwv": "mentawai",
		"my": "birmano",
		"mye": "myene",
		"myv": "erzya",
		"mzn": "mazandarani",
		"na": "nauru",
		"nan": "min nan",
		"nap": "napoletano",
		"naq": "nama",
		"nb": "norvegese bokmål",
		"nd": "ndebele del nord",
		"nds": "basso tedesco",
		"nds_NL": "basso tedesco olandese",
		"ne": "nepalese",
		"new": "newari",
		"ng": "ndonga",
		"nia": "nias",
		"niu": "niue",
		"njo": "ao",
		"nl": "olandese",
		"nl_BE": "fiammingo",
		"nmg": "kwasio",
		"nn": "norvegese nynorsk",
		"nnh": "ngiemboon",
		"no": "norvegese",
		"nog": "nogai",
		"non": "norse antico",
		"nov": "novial",
		"nqo": "n’ko",
		"nr": "ndebele del sud",
		"nso": "sotho del nord",
		"nus": "nuer",
		"nv": "navajo",
		"nwc": "newari classico",
		"ny": "nyanja",
		"nym": "nyamwezi",
		"nyn": "nyankole",
		"nyo": "nyoro",
		"nzi": "nzima",
		"oc": "occitano",
		"oj": "ojibwa",
		"om": "oromo",
		"or": "odia",
		"os": "ossetico",
		"osa": "osage",
		"ota": "turco ottomano",
		"pa": "punjabi",
		"pag": "pangasinan",
		"pal": "pahlavi",
		"pam": "pampanga",
		"pap": "papiamento",
		"pau": "palau",
		"pcd": "piccardo",
		"pcm": "pidgin nigeriano",
		"pdc": "tedesco della Pennsylvania",
		"peo": "persiano antico",
		"pfl": "tedesco palatino",
		"phn": "fenicio",
		"pi": "pali",
		"pl": "polacco",
		"pms": "piemontese",
		"pnt": "pontico",
		"pon": "ponape",
		"prg": "prussiano",
		"pro": "provenzale antico",
		"ps": "pashto",
		"pt": "portoghese",
		"pt_BR": "portoghese brasiliano",
		"pt_PT": "portoghese europeo",
		"qu": "quechua",
		"quc": "k’iche’",
		"qug": "quechua dell’altopiano del Chimborazo",
		"raj": "rajasthani",
		"rap": "rapanui",
		"rar": "rarotonga",
		"rgn": "romagnolo",
		"rif": "tarifit",
		"rm": "romancio",
		"rn": "rundi",
		"ro": "rumeno",
		"ro_MD": "moldavo",
		"rof": "rombo",
		"rom": "romani",
		"root": "root",
		"rtm": "rotumano",
		"ru": "russo",
		"rue": "ruteno",
		"rug": "roviana",
		"rup": "arumeno",
		"rw": "kinyarwanda",
		"rwk": "rwa",
		"sa": "sanscrito",
		"sad": "sandawe",
		"sah": "yakut",
		"sam": "aramaico samaritano",
		"saq": "samburu",
		"sas": "sasak",
		"sat": "santali",
		"saz": "saurashtra",
		"sba": "ngambay",
		"sbp": "sangu",
		"sc": "sardo",
		"scn": "siciliano",
		"sco": "scozzese",
		"sd": "sindhi",
		"sdc": "sassarese",
		"sdh": "curdo meridionale",
		"se": "sami del nord",
		"see": "seneca",
		"seh": "sena",
		"sei": "seri",
		"sel": "selkup",
		"ses": "koyraboro senni",
		"sg": "sango",
		"sga": "irlandese antico",
		"sgs": "samogitico",
		"sh": "serbo-croato",
		"shi": "tashelhit",
		"shn": "shan",
		"shu": "arabo ciadiano",
		"si": "singalese",
		"sid": "sidamo",
		"sk": "slovacco",
		"sl": "sloveno",
		"sli": "tedesco slesiano",
		"sly": "selayar",
		"sm": "samoano",
		"sma": "sami del sud",
		"smj": "sami di Lule",
		"smn": "sami di Inari",
		"sms": "sami skolt",
		"sn": "shona",
		"snk": "soninke",
		"so": "somalo",
		"sog": "sogdiano",
		"sq": "albanese",
		"sr": "serbo",
		"srn": "sranan tongo",
		"srr": "serer",
		"ss": "swati",
		"ssy": "saho",
		"st": "sotho del sud",
		"stq": "saterfriesisch",
		"su": "sundanese",
		"suk": "sukuma",
		"sus": "susu",
		"sux": "sumero",
		"sv": "svedese",
		"sw": "swahili",
		"sw_CD": "swahili del Congo",
		"swb": "comoriano",
		"syc": "siriaco classico",
		"syr": "siriaco",
		"szl": "slesiano",
		"ta": "tamil",
		"tcy": "tulu",
		"te": "telugu",
		"tem": "temne",
		"teo": "teso",
		"ter": "tereno",
		"tet": "tetum",
		"tg": "tagico",
		"th": "thai",
		"ti": "tigrino",
		"tig": "tigre",
		"tiv": "tiv",
		"tk": "turcomanno",
		"tkl": "tokelau",
		"tkr": "tsakhur",
		"tl": "tagalog",
		"tlh": "klingon",
		"tli": "tlingit",
		"tly": "taliscio",
		"tmh": "tamashek",
		"tn": "tswana",
		"to": "tongano",
		"tog": "nyasa del Tonga",
		"tpi": "tok pisin",
		"tr": "turco",
		"tru": "turoyo",
		"trv": "taroko",
		"ts": "tsonga",
		"tsd": "zaconico",
		"tsi": "tsimshian",
		"tt": "tataro",
		"ttt": "tat islamico",
		"tum": "tumbuka",
		"tvl": "tuvalu",
		"tw": "ci",
		"twq": "tasawaq",
		"ty": "taitiano",
		"tyv": "tuvinian",
		"tzm": "tamazight",
		"udm": "udmurt",
		"ug": "uiguro",
		"uga": "ugaritico",
		"uk": "ucraino",
		"umb": "mbundu",
		"und": "lingua imprecisata",
		"ur": "urdu",
		"uz": "uzbeco",
		"vai": "vai",
		"ve": "venda",
		"vec": "veneto",
		"vep": "vepso",
		"vi": "vietnamita",
		"vls": "fiammingo occidentale",
		"vo": "volapük",
		"vot": "voto",
		"vro": "võro",
		"vun": "vunjo",
		"wa": "vallone",
		"wae": "walser",
		"wal": "walamo",
		"war": "waray",
		"was": "washo",
		"wbp": "warlpiri",
		"wo": "wolof",
		"wuu": "wu",
		"xal": "kalmyk",
		"xh": "xhosa",
		"xmf": "mengrelio",
		"xog": "soga",
		"yao": "yao (bantu)",
		"yap": "yapese",
		"yav": "yangben",
		"ybb": "yemba",
		"yi": "yiddish",
		"yo": "yoruba",
		"yrl": "nheengatu",
		"yue": "cantonese",
		"za": "zhuang",
		"zap": "zapotec",
		"zbl": "blissymbol",
		"zea": "zelandese",
		"zen": "zenaga",
		"zgh": "tamazight del Marocco standard",
		"zh": "cinese",
		"zh_Hans": "cinese semplificato",
		"zh_Hant": "cinese tradizionale",
		"zu": "zulu",
		"zun": "zuni",
		"zxx": "nessun contenuto linguistico",
		"zza": "zaza"
	},
	"scripts": {
		"Adlm": "Adlm",
		"Afak": "afaka",
		"Aghb": "Aghb",
		"Ahom": "Ahom",
		"Arab": "arabo",
		"Arab-alt-variant": "arabo-persiano",
		"Armi": "aramaico imperiale",
		"Armn": "armeno",
		"Avst": "avestico",
		"Bali": "balinese",
		"Bamu": "bamum",
		"Bass": "Bassa Vah",
		"Batk": "batak",
		"Beng": "bengalese",
		"Bhks": "Bhks",
		"Blis": "simboli bliss",
		"Bopo": "bopomofo",
		"Brah": "brahmi",
		"Brai": "braille",
		"Bugi": "buginese",
		"Buhd": "buhid",
		"Cakm": "chakma",
		"Cans": "simboli aborigeni canadesi unificati",
		"Cari": "carian",
		"Cham": "cham",
		"Cher": "cherokee",
		"Cirt": "cirth",
		"Copt": "copto",
		"Cprt": "cipriota",
		"Cyrl": "cirillico",
		"Cyrs": "cirillico antica chiesa slavonica",
		"Deva": "devanagari",
		"Dogr": "Dogr",
		"Dsrt": "deseret",
		"Dupl": "stenografia duployan",
		"Egyd": "egiziano demotico",
		"Egyh": "ieratico egiziano",
		"Egyp": "geroglifici egiziani",
		"Elba": "Elba",
		"Ethi": "etiope",
		"Geok": "kutsuri",
		"Geor": "georgiano",
		"Glag": "glagolitico",
		"Gong": "Gong",
		"Gonm": "Gonm",
		"Goth": "gotico",
		"Gran": "grantha",
		"Grek": "greco",
		"Gujr": "gujarati",
		"Guru": "gurmukhi",
		"Hanb": "hanb",
		"Hang": "hangul",
		"Hani": "han",
		"Hano": "hanunoo",
		"Hans": "semplificato",
		"Hans-alt-stand-alone": "han semplificato",
		"Hant": "tradizionale",
		"Hant-alt-stand-alone": "han tradizionale",
		"Hatr": "Hatr",
		"Hebr": "ebraico",
		"Hira": "hiragana",
		"Hluw": "geroglifici anatolici",
		"Hmng": "pahawn hmong",
		"Hrkt": "katanaka o hiragana",
		"Hung": "antico ungherese",
		"Inds": "indu",
		"Ital": "italico antico",
		"Jamo": "jamo",
		"Java": "javanese",
		"Jpan": "giapponese",
		"Jurc": "jurchen",
		"Kali": "kayah li",
		"Kana": "katakana",
		"Khar": "kharoshthi",
		"Khmr": "khmer",
		"Khoj": "khojki",
		"Knda": "kannada",
		"Kore": "coreano",
		"Kpel": "Kpelle",
		"Kthi": "kaithi",
		"Lana": "lanna",
		"Laoo": "lao",
		"Latf": "variante fraktur del latino",
		"Latg": "variante gaelica del latino",
		"Latn": "latino",
		"Lepc": "lepcha",
		"Limb": "limbu",
		"Lina": "lineare A",
		"Linb": "lineare B",
		"Lisu": "lisu",
		"Loma": "loma",
		"Lyci": "lyci",
		"Lydi": "lydi",
		"Mahj": "Mahj",
		"Maka": "Maka",
		"Mand": "mandaico",
		"Mani": "manicheo",
		"Marc": "Marc",
		"Maya": "geroglifici maya",
		"Medf": "Medf",
		"Mend": "mende",
		"Merc": "corsivo meroitico",
		"Mero": "meroitico",
		"Mlym": "malayalam",
		"Modi": "Modi",
		"Mong": "mongolo",
		"Moon": "moon",
		"Mroo": "mro",
		"Mtei": "meetei mayek",
		"Mult": "Mult",
		"Mymr": "birmano",
		"Narb": "arabo settentrionale antico",
		"Nbat": "nabateo",
		"Newa": "Newa",
		"Nkgb": "geba naxi",
		"Nkoo": "n’ko",
		"Nshu": "nushu",
		"Ogam": "ogham",
		"Olck": "ol chiki",
		"Orkh": "orkhon",
		"Orya": "oriya",
		"Osge": "Osge",
		"Osma": "osmanya",
		"Palm": "palmireno",
		"Pauc": "Pauc",
		"Perm": "permico antico",
		"Phag": "phags-pa",
		"Phli": "pahlavi delle iscrizioni",
		"Phlp": "pahlavi psalter",
		"Phlv": "pahlavi book",
		"Phnx": "fenicio",
		"Plrd": "fonetica di pollard",
		"Prti": "partico delle iscrizioni",
		"Qaag": "Qaag",
		"Rjng": "rejang",
		"Rohg": "Rohg",
		"Roro": "rongorongo",
		"Runr": "runico",
		"Samr": "samaritano",
		"Sara": "sarati",
		"Sarb": "arabo meridionale antico",
		"Saur": "saurashtra",
		"Sgnw": "linguaggio dei segni",
		"Shaw": "shaviano",
		"Shrd": "sharada",
		"Sidd": "Sidd",
		"Sind": "khudawadi",
		"Sinh": "singalese",
		"Sogd": "Sogd",
		"Sogo": "Sogo",
		"Sora": "sora sompeng",
		"Soyo": "Soyo",
		"Sund": "sundanese",
		"Sylo": "syloti nagri",
		"Syrc": "siriano",
		"Syre": "siriaco estrangelo",
		"Syrj": "siriaco occidentale",
		"Syrn": "siriaco orientale",
		"Tagb": "tagbanwa",
		"Takr": "takri",
		"Tale": "tai le",
		"Talu": "tai lue",
		"Taml": "tamil",
		"Tang": "tangut",
		"Tavt": "tai viet",
		"Telu": "telugu",
		"Teng": "tengwar",
		"Tfng": "tifinagh",
		"Tglg": "tagalog",
		"Thaa": "thaana",
		"Thai": "thailandese",
		"Tibt": "tibetano",
		"Tirh": "tirhuta",
		"Ugar": "ugarita",
		"Vaii": "vaii",
		"Visp": "alfabeto visivo",
		"Wara": "varang kshiti",
		"Wole": "woleai",
		"Xpeo": "persiano antico",
		"Xsux": "sumero-accadiano cuneiforme",
		"Yiii": "yi",
		"Zanb": "Zanb",
		"Zinh": "ereditato",
		"Zmth": "notazione matematica",
		"Zsye": "emoji",
		"Zsym": "simboli",
		"Zxxx": "non scritto",
		"Zyyy": "comune",
		"Zzzz": "scrittura sconosciuta"
	},
	"territories": {
		"142": "Asia",
		"143": "Asia centrale",
		"145": "Asia occidentale",
		"150": "Europa",
		"151": "Europa orientale",
		"154": "Europa settentrionale",
		"155": "Europa occidentale",
		"202": "Africa subsahariana",
		"419": "America Latina",
		"001": "Mondo",
		"002": "Africa",
		"003": "Nord America",
		"005": "America del Sud",
		"009": "Oceania",
		"011": "Africa occidentale",
		"013": "America Centrale",
		"014": "Africa orientale",
		"015": "Nordafrica",
		"017": "Africa centrale",
		"018": "Africa del Sud",
		"019": "Americhe",
		"021": "America del Nord",
		"029": "Caraibi",
		"030": "Asia orientale",
		"034": "Asia del Sud",
		"035": "Sud-est asiatico",
		"039": "Europa meridionale",
		"053": "Australasia",
		"054": "Melanesia",
		"057": "Regione micronesiana",
		"061": "Polinesia",
		"AC": "Isola Ascensione",
		"AD": "Andorra",
		"AE": "Emirati Arabi Uniti",
		"AF": "Afghanistan",
		"AG": "Antigua e Barbuda",
		"AI": "Anguilla",
		"AL": "Albania",
		"AM": "Armenia",
		"AO": "Angola",
		"AQ": "Antartide",
		"AR": "Argentina",
		"AS": "Samoa americane",
		"AT": "Austria",
		"AU": "Australia",
		"AW": "Aruba",
		"AX": "Isole Åland",
		"AZ": "Azerbaigian",
		"BA": "Bosnia ed Erzegovina",
		"BB": "Barbados",
		"BD": "Bangladesh",
		"BE": "Belgio",
		"BF": "Burkina Faso",
		"BG": "Bulgaria",
		"BH": "Bahrein",
		"BI": "Burundi",
		"BJ": "Benin",
		"BL": "Saint-Barthélemy",
		"BM": "Bermuda",
		"BN": "Brunei",
		"BO": "Bolivia",
		"BQ": "Caraibi olandesi",
		"BR": "Brasile",
		"BS": "Bahamas",
		"BT": "Bhutan",
		"BV": "Isola Bouvet",
		"BW": "Botswana",
		"BY": "Bielorussia",
		"BZ": "Belize",
		"CA": "Canada",
		"CC": "Isole Cocos (Keeling)",
		"CD": "Congo - Kinshasa",
		"CD-alt-variant": "Congo (RDC)",
		"CF": "Repubblica Centrafricana",
		"CG": "Congo-Brazzaville",
		"CG-alt-variant": "Congo (Repubblica)",
		"CH": "Svizzera",
		"CI": "Costa d’Avorio",
		"CI-alt-variant": "Côte d’Ivoire",
		"CK": "Isole Cook",
		"CL": "Cile",
		"CM": "Camerun",
		"CN": "Cina",
		"CO": "Colombia",
		"CP": "Isola di Clipperton",
		"CR": "Costa Rica",
		"CU": "Cuba",
		"CV": "Capo Verde",
		"CW": "Curaçao",
		"CX": "Isola Christmas",
		"CY": "Cipro",
		"CZ": "Cechia",
		"CZ-alt-variant": "Repubblica Ceca",
		"DE": "Germania",
		"DG": "Diego Garcia",
		"DJ": "Gibuti",
		"DK": "Danimarca",
		"DM": "Dominica",
		"DO": "Repubblica Dominicana",
		"DZ": "Algeria",
		"EA": "Ceuta e Melilla",
		"EC": "Ecuador",
		"EE": "Estonia",
		"EG": "Egitto",
		"EH": "Sahara occidentale",
		"ER": "Eritrea",
		"ES": "Spagna",
		"ET": "Etiopia",
		"EU": "Unione Europea",
		"EZ": "Eurozona",
		"FI": "Finlandia",
		"FJ": "Figi",
		"FK": "Isole Falkland",
		"FK-alt-variant": "Isole Falkland (Isole Malvine)",
		"FM": "Micronesia",
		"FO": "Isole Fær Øer",
		"FR": "Francia",
		"GA": "Gabon",
		"GB": "Regno Unito",
		"GB-alt-short": "UK",
		"GD": "Grenada",
		"GE": "Georgia",
		"GF": "Guyana francese",
		"GG": "Guernsey",
		"GH": "Ghana",
		"GI": "Gibilterra",
		"GL": "Groenlandia",
		"GM": "Gambia",
		"GN": "Guinea",
		"GP": "Guadalupa",
		"GQ": "Guinea Equatoriale",
		"GR": "Grecia",
		"GS": "Georgia del Sud e Sandwich australi",
		"GT": "Guatemala",
		"GU": "Guam",
		"GW": "Guinea-Bissau",
		"GY": "Guyana",
		"HK": "RAS di Hong Kong",
		"HK-alt-short": "Hong Kong",
		"HM": "Isole Heard e McDonald",
		"HN": "Honduras",
		"HR": "Croazia",
		"HT": "Haiti",
		"HU": "Ungheria",
		"IC": "Isole Canarie",
		"ID": "Indonesia",
		"IE": "Irlanda",
		"IL": "Israele",
		"IM": "Isola di Man",
		"IN": "India",
		"IO": "Territorio britannico dell’Oceano Indiano",
		"IQ": "Iraq",
		"IR": "Iran",
		"IS": "Islanda",
		"IT": "Italia",
		"JE": "Jersey",
		"JM": "Giamaica",
		"JO": "Giordania",
		"JP": "Giappone",
		"KE": "Kenya",
		"KG": "Kirghizistan",
		"KH": "Cambogia",
		"KI": "Kiribati",
		"KM": "Comore",
		"KN": "Saint Kitts e Nevis",
		"KP": "Corea del Nord",
		"KR": "Corea del Sud",
		"KW": "Kuwait",
		"KY": "Isole Cayman",
		"KZ": "Kazakistan",
		"LA": "Laos",
		"LB": "Libano",
		"LC": "Saint Lucia",
		"LI": "Liechtenstein",
		"LK": "Sri Lanka",
		"LR": "Liberia",
		"LS": "Lesotho",
		"LT": "Lituania",
		"LU": "Lussemburgo",
		"LV": "Lettonia",
		"LY": "Libia",
		"MA": "Marocco",
		"MC": "Monaco",
		"MD": "Moldavia",
		"ME": "Montenegro",
		"MF": "Saint Martin",
		"MG": "Madagascar",
		"MH": "Isole Marshall",
		"MK": "Repubblica di Macedonia",
		"MK-alt-variant": "Ex Repubblica Jugoslava di Macedonia",
		"ML": "Mali",
		"MM": "Myanmar (Birmania)",
		"MN": "Mongolia",
		"MO": "RAS di Macao",
		"MO-alt-short": "Macao",
		"MP": "Isole Marianne settentrionali",
		"MQ": "Martinica",
		"MR": "Mauritania",
		"MS": "Montserrat",
		"MT": "Malta",
		"MU": "Mauritius",
		"MV": "Maldive",
		"MW": "Malawi",
		"MX": "Messico",
		"MY": "Malaysia",
		"MZ": "Mozambico",
		"NA": "Namibia",
		"NC": "Nuova Caledonia",
		"NE": "Niger",
		"NF": "Isola Norfolk",
		"NG": "Nigeria",
		"NI": "Nicaragua",
		"NL": "Paesi Bassi",
		"NO": "Norvegia",
		"NP": "Nepal",
		"NR": "Nauru",
		"NU": "Niue",
		"NZ": "Nuova Zelanda",
		"OM": "Oman",
		"PA": "Panamá",
		"PE": "Perù",
		"PF": "Polinesia francese",
		"PG": "Papua Nuova Guinea",
		"PH": "Filippine",
		"PK": "Pakistan",
		"PL": "Polonia",
		"PM": "Saint-Pierre e Miquelon",
		"PN": "Isole Pitcairn",
		"PR": "Portorico",
		"PS": "Territori palestinesi",
		"PS-alt-short": "Palestina",
		"PT": "Portogallo",
		"PW": "Palau",
		"PY": "Paraguay",
		"QA": "Qatar",
		"QO": "Oceania lontana",
		"RE": "Riunione",
		"RO": "Romania",
		"RS": "Serbia",
		"RU": "Russia",
		"RW": "Ruanda",
		"SA": "Arabia Saudita",
		"SB": "Isole Salomone",
		"SC": "Seychelles",
		"SD": "Sudan",
		"SE": "Svezia",
		"SG": "Singapore",
		"SH": "Sant’Elena",
		"SI": "Slovenia",
		"SJ": "Svalbard e Jan Mayen",
		"SK": "Slovacchia",
		"SL": "Sierra Leone",
		"SM": "San Marino",
		"SN": "Senegal",
		"SO": "Somalia",
		"SR": "Suriname",
		"SS": "Sud Sudan",
		"ST": "São Tomé e Príncipe",
		"SV": "El Salvador",
		"SX": "Sint Maarten",
		"SY": "Siria",
		"SZ": "Swaziland",
		"TA": "Tristan da Cunha",
		"TC": "Isole Turks e Caicos",
		"TD": "Ciad",
		"TF": "Terre australi francesi",
		"TG": "Togo",
		"TH": "Thailandia",
		"TJ": "Tagikistan",
		"TK": "Tokelau",
		"TL": "Timor Est",
		"TL-alt-variant": "TL",
		"TM": "Turkmenistan",
		"TN": "Tunisia",
		"TO": "Tonga",
		"TR": "Turchia",
		"TT": "Trinidad e Tobago",
		"TV": "Tuvalu",
		"TW": "Taiwan",
		"TZ": "Tanzania",
		"UA": "Ucraina",
		"UG": "Uganda",
		"UM": "Altre isole americane del Pacifico",
		"UN": "Nazioni Unite",
		"UN-alt-short": "ONU",
		"US": "Stati Uniti",
		"US-alt-short": "USA",
		"UY": "Uruguay",
		"UZ": "Uzbekistan",
		"VA": "Città del Vaticano",
		"VC": "Saint Vincent e Grenadine",
		"VE": "Venezuela",
		"VG": "Isole Vergini Britanniche",
		"VI": "Isole Vergini Americane",
		"VN": "Vietnam",
		"VU": "Vanuatu",
		"WF": "Wallis e Futuna",
		"WS": "Samoa",
		"XA": "XA",
		"XB": "XB",
		"XK": "Kosovo",
		"YE": "Yemen",
		"YT": "Mayotte",
		"ZA": "Sudafrica",
		"ZM": "Zambia",
		"ZW": "Zimbabwe",
		"ZZ": "Regione sconosciuta"
	},
	"orientation": "left-to-right",
	"ca-gregorian": {
		"dateFormats": {
			"full": "EEEE, d MMMM y",
			"long": "d MMMM y",
			"medium": "d MMM y",
			"short": "dd.MM.yy"
		},
		"timeFormats": {
			"full": "HH:mm:ss zzzz",
			"long": "HH:mm:ss z",
			"medium": "HH:mm:ss",
			"short": "HH:mm"
		},
		"dateTimeFormats": {
			"full": "{1} {0}",
			"long": "{1} {0}",
			"medium": "{1}, {0}",
			"short": "{1}, {0}",
			"availableFormats": {
				"Bh": "h B",
				"Bhm": "h:mm B",
				"Bhms": "h:mm:ss B",
				"d": "d",
				"E": "ccc",
				"EBhm": "E h:mm B",
				"EBhms": "E h:mm:ss B",
				"Ed": "E d",
				"Ehm": "E h:mm a",
				"EHm": "E HH:mm",
				"Ehms": "E h:mm:ss a",
				"EHms": "E HH:mm:ss",
				"Gy": "y G",
				"GyMMM": "MMM y G",
				"GyMMMd": "d MMM y G",
				"GyMMMEd": "E d MMM y G",
				"h": "h a",
				"H": "HH",
				"hm": "h:mm a",
				"Hm": "HH:mm",
				"hms": "h:mm:ss a",
				"Hms": "HH:mm:ss",
				"hmsv": "h:mm:ss a v",
				"Hmsv": "HH:mm:ss v",
				"hmv": "h:mm a v",
				"Hmv": "HH:mm v",
				"M": "L",
				"Md": "d/M",
				"MEd": "E d/M",
				"MMM": "LLL",
				"MMMd": "d MMM",
				"MMMEd": "E d MMM",
				"MMMMd": "d MMMM",
				"ms": "mm:ss",
				"y": "y",
				"yM": "M/y",
				"yMd": "d/M/y",
				"yMEd": "E d/M/y",
				"yMMM": "MMM y",
				"yMMMd": "d MMM y",
				"yMMMEd": "E d MMM y",
				"yMMMM": "MMMM y",
				"yQQQ": "QQQ y",
				"yQQQQ": "QQQQ y",
				"MMMMW": "'settimana' W 'di' MMM",
				"yw": "'settimana' w 'del' Y"
			},
			"appendItems": {
				"Day": "{0} ({2}: {1})",
				"Day-Of-Week": "{0} {1}",
				"Era": "{1} {0}",
				"Hour": "{0} ({2}: {1})",
				"Minute": "{0} ({2}: {1})",
				"Month": "{0} ({2}: {1})",
				"Quarter": "{0} ({2}: {1})",
				"Second": "{0} ({2}: {1})",
				"Timezone": "{0} {1}",
				"Week": "{0} ({2}: {1})",
				"Year": "{1} {0}"
			},
			"intervalFormats": {
				"intervalFormatFallback": "{0} - {1}",
				"d": {
					"d": "d–d"
				},
				"Gy": {
					"G": "G y – G y",
					"y": "G y–y"
				},
				"GyM": {
					"G": "GGGGG y-MM – GGGGG y-MM",
					"M": "GGGGG y-MM – y-MM",
					"y": "GGGGG y-MM – y-MM"
				},
				"GyMd": {
					"d": "GGGGG y-MM-dd – y-MM-dd",
					"G": "GGGGG y-MM-dd – GGGGG y-MM-dd",
					"M": "GGGGG y-MM-dd – y-MM-dd",
					"y": "GGGGG y-MM-dd – y-MM-dd"
				},
				"GyMEd": {
					"d": "GGGGG y-MM-dd, E – y-MM-dd, E",
					"G": "GGGGG y-MM-dd, E – GGGGG y-MM-dd, E",
					"M": "GGGGG y-MM-dd, E – y-MM-dd, E",
					"y": "GGGGG y-MM-dd, E – y-MM-dd, E"
				},
				"GyMMM": {
					"G": "G y MMM – G y MMM",
					"M": "G y MMM–MMM",
					"y": "G y MMM – y MMM"
				},
				"GyMMMd": {
					"d": "G y MMM d–d",
					"G": "G y MMM d – G y MMM d",
					"M": "G y MMM d – MMM d",
					"y": "G y MMM d – y MMM d"
				},
				"GyMMMEd": {
					"d": "G y MMM d, E – MMM d, E",
					"G": "G y MMM d, E – G y MMM d, E",
					"M": "G y MMM d, E – MMM d, E",
					"y": "G y MMM d, E – y MMM d, E"
				},
				"h": {
					"a": "h a – h a",
					"h": "h–h a"
				},
				"H": {
					"H": "HH–HH"
				},
				"hm": {
					"a": "h:mm a – h:mm a",
					"h": "h:mm–h:mm a",
					"m": "h:mm–h:mm a"
				},
				"Hm": {
					"H": "HH:mm–HH:mm",
					"m": "HH:mm–HH:mm"
				},
				"hmv": {
					"a": "h:mm a – h:mm a v",
					"h": "h:mm–h:mm a v",
					"m": "h:mm–h:mm a v"
				},
				"Hmv": {
					"H": "HH:mm–HH:mm v",
					"m": "HH:mm–HH:mm v"
				},
				"hv": {
					"a": "h a – h a v",
					"h": "h–h a v"
				},
				"Hv": {
					"H": "HH–HH v"
				},
				"M": {
					"M": "M–M"
				},
				"Md": {
					"d": "dd/MM – dd/MM",
					"M": "dd/MM – dd/MM"
				},
				"MEd": {
					"d": "E dd/MM – E dd/MM",
					"M": "E dd/MM – E dd/MM"
				},
				"MMM": {
					"M": "MMM–MMM"
				},
				"MMMd": {
					"d": "dd–dd MMM",
					"M": "dd MMM – dd MMM"
				},
				"MMMEd": {
					"d": "E dd – E dd MMM",
					"M": "E dd MMM – E dd MMM"
				},
				"y": {
					"y": "y–y"
				},
				"yM": {
					"M": "MM/y – MM/y",
					"y": "MM/y – MM/y"
				},
				"yMd": {
					"d": "dd/MM/y – dd/MM/y",
					"M": "dd/MM/y – dd/MM/y",
					"y": "dd/MM/y – dd/MM/y"
				},
				"yMEd": {
					"d": "E dd/MM/y – E dd/MM/y",
					"M": "E dd/MM/y – E dd/MM/y",
					"y": "E dd/MM/y – E dd/MM/y"
				},
				"yMMM": {
					"M": "MMM–MMM y",
					"y": "MMM y – MMM y"
				},
				"yMMMd": {
					"d": "dd–dd MMM y",
					"M": "dd MMM – dd MMM y",
					"y": "dd MMM y – dd MMM y"
				},
				"yMMMEd": {
					"d": "E d – E d MMM y",
					"M": "E d MMM – E d MMM y",
					"y": "E d MMM y – E d MMM y"
				},
				"yMMMM": {
					"M": "MMMM–MMMM y",
					"y": "MMMM y – MMMM y"
				}
			}
		},
		"months": {
			"format": {
				"abbreviated": [
					"gen",
					"feb",
					"mar",
					"apr",
					"mag",
					"giu",
					"lug",
					"ago",
					"set",
					"ott",
					"nov",
					"dic"
				],
				"narrow": [
					"G",
					"F",
					"M",
					"A",
					"M",
					"G",
					"L",
					"A",
					"S",
					"O",
					"N",
					"D"
				],
				"wide": [
					"gennaio",
					"febbraio",
					"marzo",
					"aprile",
					"maggio",
					"giugno",
					"luglio",
					"agosto",
					"settembre",
					"ottobre",
					"novembre",
					"dicembre"
				]
			},
			"stand-alone": {
				"abbreviated": [
					"gen",
					"feb",
					"mar",
					"apr",
					"mag",
					"giu",
					"lug",
					"ago",
					"set",
					"ott",
					"nov",
					"dic"
				],
				"narrow": [
					"G",
					"F",
					"M",
					"A",
					"M",
					"G",
					"L",
					"A",
					"S",
					"O",
					"N",
					"D"
				],
				"wide": [
					"gennaio",
					"febbraio",
					"marzo",
					"aprile",
					"maggio",
					"giugno",
					"luglio",
					"agosto",
					"settembre",
					"ottobre",
					"novembre",
					"dicembre"
				]
			}
		},
		"days": {
			"format": {
				"abbreviated": [
					"dom",
					"lun",
					"mar",
					"mer",
					"gio",
					"ven",
					"sab"
				],
				"narrow": [
					"D",
					"L",
					"M",
					"M",
					"G",
					"V",
					"S"
				],
				"short": [
					"dom",
					"lun",
					"mar",
					"mer",
					"gio",
					"ven",
					"sab"
				],
				"wide": [
					"domenica",
					"lunedì",
					"martedì",
					"mercoledì",
					"giovedì",
					"venerdì",
					"sabato"
				]
			},
			"stand-alone": {
				"abbreviated": [
					"dom",
					"lun",
					"mar",
					"mer",
					"gio",
					"ven",
					"sab"
				],
				"narrow": [
					"D",
					"L",
					"M",
					"M",
					"G",
					"V",
					"S"
				],
				"short": [
					"dom",
					"lun",
					"mar",
					"mer",
					"gio",
					"ven",
					"sab"
				],
				"wide": [
					"domenica",
					"lunedì",
					"martedì",
					"mercoledì",
					"giovedì",
					"venerdì",
					"sabato"
				]
			}
		},
		"quarters": {
			"format": {
				"abbreviated": [
					"T1",
					"T2",
					"T3",
					"T4"
				],
				"narrow": [
					"1",
					"2",
					"3",
					"4"
				],
				"wide": [
					"1º trimestre",
					"2º trimestre",
					"3º trimestre",
					"4º trimestre"
				]
			},
			"stand-alone": {
				"abbreviated": [
					"T1",
					"T2",
					"T3",
					"T4"
				],
				"narrow": [
					"1",
					"2",
					"3",
					"4"
				],
				"wide": [
					"1º trimestre",
					"2º trimestre",
					"3º trimestre",
					"4º trimestre"
				]
			}
		},
		"dayPeriods": {
			"format": {
				"abbreviated": [
					"AM",
					"PM"
				],
				"narrow": [
					"m.",
					"p."
				],
				"wide": [
					"AM",
					"PM"
				]
			},
			"stand-alone": {
				"abbreviated": [
					"AM",
					"PM"
				],
				"narrow": [
					"m.",
					"p."
				],
				"wide": [
					"AM",
					"PM"
				]
			}
		},
		"era-wide": {
			"0": "avanti Cristo",
			"1": "dopo Cristo"
		},
		"era-abbreviated": {
			"0": "a.C.",
			"1": "d.C."
		},
		"era-narrow": {
			"0": "aC",
			"1": "dC"
		}
	},
	"ca-islamic": {
		"dateFormats": {
			"full": "EEEE, d MMMM y G",
			"long": "d MMMM y G",
			"medium": "d MMM y G",
			"short": "dd.MM.yy GGGGG"
		},
		"timeFormats": {
			"full": "HH:mm:ss zzzz",
			"long": "HH:mm:ss z",
			"medium": "HH:mm:ss",
			"short": "HH:mm"
		},
		"dateTimeFormats": {
			"full": "{1} 'alle' {0}",
			"long": "{1} 'alle' {0}",
			"medium": "{1}, {0}",
			"short": "{1}, {0}",
			"availableFormats": {
				"Bh": "h B",
				"Bhm": "h:mm B",
				"Bhms": "h:mm:ss B",
				"d": "d",
				"E": "ccc",
				"EBhm": "E h:mm B",
				"EBhms": "E h:mm:ss B",
				"Ed": "E d",
				"Ehm": "E h:mm a",
				"EHm": "E HH:mm",
				"Ehms": "E h:mm:ss a",
				"EHms": "E HH:mm:ss",
				"Gy": "y G",
				"GyMMM": "MMM y G",
				"GyMMMd": "d MMM y G",
				"GyMMMEd": "E d MMM y G",
				"h": "hh a",
				"H": "HH",
				"hm": "hh:mm a",
				"Hm": "HH:mm",
				"hms": "hh:mm:ss a",
				"Hms": "HH:mm:ss",
				"M": "L",
				"Md": "d/M",
				"MEd": "E d/M",
				"MMM": "LLL",
				"MMMd": "d MMM",
				"MMMEd": "E d MMM",
				"MMMMd": "d MMMM",
				"ms": "mm:ss",
				"y": "y G",
				"yyyy": "y G",
				"yyyyM": "M/y GGGGG",
				"yyyyMd": "d/M/y GGGGG",
				"yyyyMEd": "E d/M/y GGGGG",
				"yyyyMMM": "MMM y G",
				"yyyyMMMd": "d MMM y G",
				"yyyyMMMEd": "E d MMM y G",
				"yyyyMMMM": "MMMM y G",
				"yyyyQQQ": "QQQ y G",
				"yyyyQQQQ": "QQQQ y G"
			},
			"appendItems": {
				"Day": "{0} ({2}: {1})",
				"Day-Of-Week": "{0} {1}",
				"Era": "{1} {0}",
				"Hour": "{0} ({2}: {1})",
				"Minute": "{0} ({2}: {1})",
				"Month": "{0} ({2}: {1})",
				"Quarter": "{0} ({2}: {1})",
				"Second": "{0} ({2}: {1})",
				"Timezone": "{0} {1}",
				"Week": "{0} ({2}: {1})",
				"Year": "{1} {0}"
			},
			"intervalFormats": {
				"intervalFormatFallback": "{0} - {1}",
				"d": {
					"d": "d–d"
				},
				"Gy": {
					"G": "G y – G y",
					"y": "G y–y"
				},
				"GyM": {
					"G": "GGGGG y-MM – GGGGG y-MM",
					"M": "GGGGG y-MM – y-MM",
					"y": "GGGGG y-MM – y-MM"
				},
				"GyMd": {
					"d": "GGGGG y-MM-dd – y-MM-dd",
					"G": "GGGGG y-MM-dd – GGGGG y-MM-dd",
					"M": "GGGGG y-MM-dd – y-MM-dd",
					"y": "GGGGG y-MM-dd – y-MM-dd"
				},
				"GyMEd": {
					"d": "GGGGG y-MM-dd, E – y-MM-dd, E",
					"G": "GGGGG y-MM-dd, E – GGGGG y-MM-dd, E",
					"M": "GGGGG y-MM-dd, E – y-MM-dd, E",
					"y": "GGGGG y-MM-dd, E – y-MM-dd, E"
				},
				"GyMMM": {
					"G": "G y MMM – G y MMM",
					"M": "G y MMM–MMM",
					"y": "G y MMM – y MMM"
				},
				"GyMMMd": {
					"d": "G y MMM d–d",
					"G": "G y MMM d – G y MMM d",
					"M": "G y MMM d – MMM d",
					"y": "G y MMM d – y MMM d"
				},
				"GyMMMEd": {
					"d": "G y MMM d, E – MMM d, E",
					"G": "G y MMM d, E – G y MMM d, E",
					"M": "G y MMM d, E – MMM d, E",
					"y": "G y MMM d, E – y MMM d, E"
				},
				"h": {
					"a": "h a – h a",
					"h": "h–h a"
				},
				"H": {
					"H": "HH–HH"
				},
				"hm": {
					"a": "h:mm a – h:mm a",
					"h": "h:mm–h:mm a",
					"m": "h:mm–h:mm a"
				},
				"Hm": {
					"H": "HH:mm–HH:mm",
					"m": "HH:mm–HH:mm"
				},
				"hmv": {
					"a": "h:mm a – h:mm a v",
					"h": "h:mm–h:mm a v",
					"m": "h:mm–h:mm a v"
				},
				"Hmv": {
					"H": "HH:mm–HH:mm v",
					"m": "HH:mm–HH:mm v"
				},
				"hv": {
					"a": "h a – h a v",
					"h": "h–h a v"
				},
				"Hv": {
					"H": "HH–HH v"
				},
				"M": {
					"M": "M–M"
				},
				"Md": {
					"d": "dd/MM – dd/MM",
					"M": "dd/MM – dd/MM"
				},
				"MEd": {
					"d": "E dd/MM – E dd/MM",
					"M": "E dd/MM – E dd/MM"
				},
				"MMM": {
					"M": "MMM–MMM"
				},
				"MMMd": {
					"d": "dd–dd MMM",
					"M": "dd MMM – dd MMM"
				},
				"MMMEd": {
					"d": "E dd – E dd MMM",
					"M": "E dd MMM – E dd MMM"
				},
				"y": {
					"y": "y–y G"
				},
				"yM": {
					"M": "MM/y – MM/y G",
					"y": "MM/y – MM/y G"
				},
				"yMd": {
					"d": "dd/MM/y – dd/MM/y G",
					"M": "dd/MM/y – dd/MM/y G",
					"y": "dd/MM/y – dd/MM/y G"
				},
				"yMEd": {
					"d": "E dd/MM/y – E dd/MM/y G",
					"M": "E dd/MM/y – E dd/MM/y G",
					"y": "E dd/MM/y – E dd/MM/y G"
				},
				"yMMM": {
					"M": "MMM–MMM y G",
					"y": "MMM y – MMM y G"
				},
				"yMMMd": {
					"d": "dd–dd MMM y G",
					"M": "dd MMM – dd MMM y G",
					"y": "dd MMM y – dd MMM y G"
				},
				"yMMMEd": {
					"d": "E d – E d MMM y G",
					"M": "E d MMM – E d MMM y G",
					"y": "E d MMM y – E d MMM y G"
				},
				"yMMMM": {
					"M": "MMMM–MMMM y G",
					"y": "MMMM y – MMMM y G"
				}
			}
		},
		"months": {
			"format": {
				"abbreviated": [
					"Muh.",
					"Saf.",
					"Rab. I",
					"Rab. II",
					"Jum. I",
					"Jum. II",
					"Raj.",
					"Sha.",
					"Ram.",
					"Shaw.",
					"Dhuʻl-Q.",
					"Dhuʻl-H."
				],
				"narrow": [
					"1",
					"2",
					"3",
					"4",
					"5",
					"6",
					"7",
					"8",
					"9",
					"10",
					"11",
					"12"
				],
				"wide": [
					"Muharram",
					"Safar",
					"Rabiʻ I",
					"Rabiʻ II",
					"Jumada I",
					"Jumada II",
					"Rajab",
					"Shaʻban",
					"Ramadan",
					"Shawwal",
					"Dhuʻl-Qiʻdah",
					"Dhuʻl-Hijjah"
				]
			},
			"stand-alone": {
				"abbreviated": [
					"Muh.",
					"Saf.",
					"Rab. I",
					"Rab. II",
					"Jum. I",
					"Jum. II",
					"Raj.",
					"Sha.",
					"Ram.",
					"Shaw.",
					"Dhuʻl-Q.",
					"Dhuʻl-H."
				],
				"narrow": [
					"1",
					"2",
					"3",
					"4",
					"5",
					"6",
					"7",
					"8",
					"9",
					"10",
					"11",
					"12"
				],
				"wide": [
					"Muharram",
					"Safar",
					"Rabiʻ I",
					"Rabiʻ II",
					"Jumada I",
					"Jumada II",
					"Rajab",
					"Shaʻban",
					"Ramadan",
					"Shawwal",
					"Dhuʻl-Qiʻdah",
					"Dhuʻl-Hijjah"
				]
			}
		},
		"days": {
			"format": {
				"abbreviated": [
					"dom",
					"lun",
					"mar",
					"mer",
					"gio",
					"ven",
					"sab"
				],
				"narrow": [
					"D",
					"L",
					"M",
					"M",
					"G",
					"V",
					"S"
				],
				"short": [
					"dom",
					"lun",
					"mar",
					"mer",
					"gio",
					"ven",
					"sab"
				],
				"wide": [
					"domenica",
					"lunedì",
					"martedì",
					"mercoledì",
					"giovedì",
					"venerdì",
					"sabato"
				]
			},
			"stand-alone": {
				"abbreviated": [
					"dom",
					"lun",
					"mar",
					"mer",
					"gio",
					"ven",
					"sab"
				],
				"narrow": [
					"D",
					"L",
					"M",
					"M",
					"G",
					"V",
					"S"
				],
				"short": [
					"dom",
					"lun",
					"mar",
					"mer",
					"gio",
					"ven",
					"sab"
				],
				"wide": [
					"domenica",
					"lunedì",
					"martedì",
					"mercoledì",
					"giovedì",
					"venerdì",
					"sabato"
				]
			}
		},
		"quarters": {
			"format": {
				"abbreviated": [
					"T1",
					"T2",
					"T3",
					"T4"
				],
				"narrow": [
					"1",
					"2",
					"3",
					"4"
				],
				"wide": [
					"1º trimestre",
					"2º trimestre",
					"3º trimestre",
					"4º trimestre"
				]
			},
			"stand-alone": {
				"abbreviated": [
					"T1",
					"T2",
					"T3",
					"T4"
				],
				"narrow": [
					"1",
					"2",
					"3",
					"4"
				],
				"wide": [
					"1º trimestre",
					"2º trimestre",
					"3º trimestre",
					"4º trimestre"
				]
			}
		},
		"dayPeriods": {
			"format": {
				"abbreviated": [
					"AM",
					"PM"
				],
				"narrow": [
					"m.",
					"p."
				],
				"wide": [
					"AM",
					"PM"
				]
			},
			"stand-alone": {
				"abbreviated": [
					"AM",
					"PM"
				],
				"narrow": [
					"m.",
					"p."
				],
				"wide": [
					"AM",
					"PM"
				]
			}
		},
		"era-wide": {
			"0": "AH"
		},
		"era-abbreviated": {
			"0": "AH"
		},
		"era-narrow": {
			"0": "AH"
		}
	},
	"ca-japanese": {
		"dateFormats": {
			"full": "EEEE d MMMM y G",
			"long": "dd MMMM y G",
			"medium": "dd MMM y G",
			"short": "dd/MM/yy GGGGG"
		},
		"timeFormats": {
			"full": "HH:mm:ss zzzz",
			"long": "HH:mm:ss z",
			"medium": "HH:mm:ss",
			"short": "HH:mm"
		},
		"dateTimeFormats": {
			"full": "{1} 'alle' {0}",
			"long": "{1} 'alle' {0}",
			"medium": "{1}, {0}",
			"short": "{1}, {0}",
			"availableFormats": {
				"Bh": "h B",
				"Bhm": "h:mm B",
				"Bhms": "h:mm:ss B",
				"d": "d",
				"E": "ccc",
				"EBhm": "E h:mm B",
				"EBhms": "E h:mm:ss B",
				"Ed": "E d",
				"Ehm": "E h:mm a",
				"EHm": "E HH:mm",
				"Ehms": "E h:mm:ss a",
				"EHms": "E HH:mm:ss",
				"Gy": "y G",
				"GyMMM": "MMM y G",
				"GyMMMd": "d MMM y G",
				"GyMMMEd": "E d MMM y G",
				"h": "hh a",
				"H": "HH",
				"hm": "hh:mm a",
				"Hm": "HH:mm",
				"hms": "hh:mm:ss a",
				"Hms": "HH:mm:ss",
				"M": "L",
				"Md": "d/M",
				"MEd": "E d/M",
				"MMM": "LLL",
				"MMMd": "d MMM",
				"MMMEd": "E d MMM",
				"MMMMd": "d MMMM",
				"ms": "mm:ss",
				"y": "y G",
				"yyyy": "y G",
				"yyyyM": "M/y GGGGG",
				"yyyyMd": "d/M/y GGGGG",
				"yyyyMEd": "E d/M/y GGGGG",
				"yyyyMMM": "MMM y G",
				"yyyyMMMd": "d MMM y G",
				"yyyyMMMEd": "E d MMM y G",
				"yyyyMMMM": "MMMM y G",
				"yyyyQQQ": "QQQ y G",
				"yyyyQQQQ": "QQQQ y G"
			},
			"appendItems": {
				"Day": "{0} ({2}: {1})",
				"Day-Of-Week": "{0} {1}",
				"Era": "{1} {0}",
				"Hour": "{0} ({2}: {1})",
				"Minute": "{0} ({2}: {1})",
				"Month": "{0} ({2}: {1})",
				"Quarter": "{0} ({2}: {1})",
				"Second": "{0} ({2}: {1})",
				"Timezone": "{0} {1}",
				"Week": "{0} ({2}: {1})",
				"Year": "{1} {0}"
			},
			"intervalFormats": {
				"intervalFormatFallback": "{0} - {1}",
				"d": {
					"d": "d–d"
				},
				"Gy": {
					"G": "G y – G y",
					"y": "G y–y"
				},
				"GyM": {
					"G": "GGGGG y-MM – GGGGG y-MM",
					"M": "GGGGG y-MM – y-MM",
					"y": "GGGGG y-MM – y-MM"
				},
				"GyMd": {
					"d": "GGGGG y-MM-dd – y-MM-dd",
					"G": "GGGGG y-MM-dd – GGGGG y-MM-dd",
					"M": "GGGGG y-MM-dd – y-MM-dd",
					"y": "GGGGG y-MM-dd – y-MM-dd"
				},
				"GyMEd": {
					"d": "GGGGG y-MM-dd, E – y-MM-dd, E",
					"G": "GGGGG y-MM-dd, E – GGGGG y-MM-dd, E",
					"M": "GGGGG y-MM-dd, E – y-MM-dd, E",
					"y": "GGGGG y-MM-dd, E – y-MM-dd, E"
				},
				"GyMMM": {
					"G": "G y MMM – G y MMM",
					"M": "G y MMM–MMM",
					"y": "G y MMM – y MMM"
				},
				"GyMMMd": {
					"d": "G y MMM d–d",
					"G": "G y MMM d – G y MMM d",
					"M": "G y MMM d – MMM d",
					"y": "G y MMM d – y MMM d"
				},
				"GyMMMEd": {
					"d": "G y MMM d, E – MMM d, E",
					"G": "G y MMM d, E – G y MMM d, E",
					"M": "G y MMM d, E – MMM d, E",
					"y": "G y MMM d, E – y MMM d, E"
				},
				"h": {
					"a": "h a – h a",
					"h": "h–h a"
				},
				"H": {
					"H": "HH–HH"
				},
				"hm": {
					"a": "h:mm a – h:mm a",
					"h": "h:mm–h:mm a",
					"m": "h:mm–h:mm a"
				},
				"Hm": {
					"H": "HH:mm–HH:mm",
					"m": "HH:mm–HH:mm"
				},
				"hmv": {
					"a": "h:mm a – h:mm a v",
					"h": "h:mm–h:mm a v",
					"m": "h:mm–h:mm a v"
				},
				"Hmv": {
					"H": "HH:mm–HH:mm v",
					"m": "HH:mm–HH:mm v"
				},
				"hv": {
					"a": "h a – h a v",
					"h": "h–h a v"
				},
				"Hv": {
					"H": "HH–HH v"
				},
				"M": {
					"M": "M–M"
				},
				"Md": {
					"d": "dd/MM – dd/MM",
					"M": "dd/MM – dd/MM"
				},
				"MEd": {
					"d": "E dd/MM – E dd/MM",
					"M": "E dd/MM – E dd/MM"
				},
				"MMM": {
					"M": "MMM–MMM"
				},
				"MMMd": {
					"d": "dd–dd MMM",
					"M": "dd MMM – dd MMM"
				},
				"MMMEd": {
					"d": "E dd – E dd MMM",
					"M": "E dd MMM – E dd MMM"
				},
				"y": {
					"y": "y–y G"
				},
				"yM": {
					"M": "MM/y – MM/y G",
					"y": "MM/y – MM/y G"
				},
				"yMd": {
					"d": "dd/MM/y – dd/MM/y G",
					"M": "dd/MM/y – dd/MM/y G",
					"y": "dd/MM/y – dd/MM/y G"
				},
				"yMEd": {
					"d": "E dd/MM/y – E dd/MM/y G",
					"M": "E dd/MM/y – E dd/MM/y G",
					"y": "E dd/MM/y – E dd/MM/y G"
				},
				"yMMM": {
					"M": "MMM–MMM y G",
					"y": "MMM y – MMM y G"
				},
				"yMMMd": {
					"d": "dd–dd MMM y G",
					"M": "dd MMM – dd MMM y G",
					"y": "dd MMM y – dd MMM y G"
				},
				"yMMMEd": {
					"d": "E d – E d MMM y G",
					"M": "E d MMM – E d MMM y G",
					"y": "E d MMM y – E d MMM y G"
				},
				"yMMMM": {
					"M": "MMMM–MMMM y G",
					"y": "MMMM y – MMMM y G"
				}
			}
		},
		"months": {
			"format": {
				"abbreviated": [
					"gen",
					"feb",
					"mar",
					"apr",
					"mag",
					"giu",
					"lug",
					"ago",
					"set",
					"ott",
					"nov",
					"dic"
				],
				"narrow": [
					"G",
					"F",
					"M",
					"A",
					"M",
					"G",
					"L",
					"A",
					"S",
					"O",
					"N",
					"D"
				],
				"wide": [
					"gennaio",
					"febbraio",
					"marzo",
					"aprile",
					"maggio",
					"giugno",
					"luglio",
					"agosto",
					"settembre",
					"ottobre",
					"novembre",
					"dicembre"
				]
			},
			"stand-alone": {
				"abbreviated": [
					"gen",
					"feb",
					"mar",
					"apr",
					"mag",
					"giu",
					"lug",
					"ago",
					"set",
					"ott",
					"nov",
					"dic"
				],
				"narrow": [
					"G",
					"F",
					"M",
					"A",
					"M",
					"G",
					"L",
					"A",
					"S",
					"O",
					"N",
					"D"
				],
				"wide": [
					"gennaio",
					"febbraio",
					"marzo",
					"aprile",
					"maggio",
					"giugno",
					"luglio",
					"agosto",
					"settembre",
					"ottobre",
					"novembre",
					"dicembre"
				]
			}
		},
		"days": {
			"format": {
				"abbreviated": [
					"dom",
					"lun",
					"mar",
					"mer",
					"gio",
					"ven",
					"sab"
				],
				"narrow": [
					"D",
					"L",
					"M",
					"M",
					"G",
					"V",
					"S"
				],
				"short": [
					"dom",
					"lun",
					"mar",
					"mer",
					"gio",
					"ven",
					"sab"
				],
				"wide": [
					"domenica",
					"lunedì",
					"martedì",
					"mercoledì",
					"giovedì",
					"venerdì",
					"sabato"
				]
			},
			"stand-alone": {
				"abbreviated": [
					"dom",
					"lun",
					"mar",
					"mer",
					"gio",
					"ven",
					"sab"
				],
				"narrow": [
					"D",
					"L",
					"M",
					"M",
					"G",
					"V",
					"S"
				],
				"short": [
					"dom",
					"lun",
					"mar",
					"mer",
					"gio",
					"ven",
					"sab"
				],
				"wide": [
					"domenica",
					"lunedì",
					"martedì",
					"mercoledì",
					"giovedì",
					"venerdì",
					"sabato"
				]
			}
		},
		"quarters": {
			"format": {
				"abbreviated": [
					"T1",
					"T2",
					"T3",
					"T4"
				],
				"narrow": [
					"1",
					"2",
					"3",
					"4"
				],
				"wide": [
					"1º trimestre",
					"2º trimestre",
					"3º trimestre",
					"4º trimestre"
				]
			},
			"stand-alone": {
				"abbreviated": [
					"T1",
					"T2",
					"T3",
					"T4"
				],
				"narrow": [
					"1",
					"2",
					"3",
					"4"
				],
				"wide": [
					"1º trimestre",
					"2º trimestre",
					"3º trimestre",
					"4º trimestre"
				]
			}
		},
		"dayPeriods": {
			"format": {
				"abbreviated": [
					"AM",
					"PM"
				],
				"narrow": [
					"m.",
					"p."
				],
				"wide": [
					"AM",
					"PM"
				]
			},
			"stand-alone": {
				"abbreviated": [
					"AM",
					"PM"
				],
				"narrow": [
					"m.",
					"p."
				],
				"wide": [
					"AM",
					"PM"
				]
			}
		},
		"era-wide": {
			"232": "Meiji",
			"233": "Taishō",
			"234": "Shōwa",
			"235": "Heisei",
			"236": "Reiwa"
		},
		"era-abbreviated": {
			"232": "Meiji",
			"233": "Taishō",
			"234": "Shōwa",
			"235": "Heisei",
			"236": "Reiwa"
		},
		"era-narrow": {
			"232": "M",
			"233": "T",
			"234": "S",
			"235": "H",
			"236": "R"
		}
	},
	"ca-persian": {
		"dateFormats": {
			"full": "EEEE, d MMMM y G",
			"long": "d MMMM y G",
			"medium": "d MMM y G",
			"short": "dd.MM.yy GGGGG"
		},
		"timeFormats": {
			"full": "HH:mm:ss zzzz",
			"long": "HH:mm:ss z",
			"medium": "HH:mm:ss",
			"short": "HH:mm"
		},
		"dateTimeFormats": {
			"full": "{1} 'alle' {0}",
			"long": "{1} 'alle' {0}",
			"medium": "{1}, {0}",
			"short": "{1}, {0}",
			"availableFormats": {
				"Bh": "h B",
				"Bhm": "h:mm B",
				"Bhms": "h:mm:ss B",
				"d": "d",
				"E": "ccc",
				"EBhm": "E h:mm B",
				"EBhms": "E h:mm:ss B",
				"Ed": "E d",
				"Ehm": "E h:mm a",
				"EHm": "E HH:mm",
				"Ehms": "E h:mm:ss a",
				"EHms": "E HH:mm:ss",
				"Gy": "y G",
				"GyMMM": "MMM y G",
				"GyMMMd": "d MMM y G",
				"GyMMMEd": "E d MMM y G",
				"h": "hh a",
				"H": "HH",
				"hm": "hh:mm a",
				"Hm": "HH:mm",
				"hms": "hh:mm:ss a",
				"Hms": "HH:mm:ss",
				"M": "L",
				"Md": "d/M",
				"MEd": "E d/M",
				"MMM": "LLL",
				"MMMd": "d MMM",
				"MMMEd": "E d MMM",
				"MMMMd": "d MMMM",
				"ms": "mm:ss",
				"y": "y G",
				"yyyy": "y G",
				"yyyyM": "M/y GGGGG",
				"yyyyMd": "d/M/y GGGGG",
				"yyyyMEd": "E d/M/y GGGGG",
				"yyyyMMM": "MMM y G",
				"yyyyMMMd": "d MMM y G",
				"yyyyMMMEd": "E d MMM y G",
				"yyyyMMMM": "MMMM y G",
				"yyyyQQQ": "QQQ y G",
				"yyyyQQQQ": "QQQQ y G"
			},
			"appendItems": {
				"Day": "{0} ({2}: {1})",
				"Day-Of-Week": "{0} {1}",
				"Era": "{1} {0}",
				"Hour": "{0} ({2}: {1})",
				"Minute": "{0} ({2}: {1})",
				"Month": "{0} ({2}: {1})",
				"Quarter": "{0} ({2}: {1})",
				"Second": "{0} ({2}: {1})",
				"Timezone": "{0} {1}",
				"Week": "{0} ({2}: {1})",
				"Year": "{1} {0}"
			},
			"intervalFormats": {
				"intervalFormatFallback": "{0} - {1}",
				"d": {
					"d": "d–d"
				},
				"Gy": {
					"G": "G y – G y",
					"y": "G y–y"
				},
				"GyM": {
					"G": "GGGGG y-MM – GGGGG y-MM",
					"M": "GGGGG y-MM – y-MM",
					"y": "GGGGG y-MM – y-MM"
				},
				"GyMd": {
					"d": "GGGGG y-MM-dd – y-MM-dd",
					"G": "GGGGG y-MM-dd – GGGGG y-MM-dd",
					"M": "GGGGG y-MM-dd – y-MM-dd",
					"y": "GGGGG y-MM-dd – y-MM-dd"
				},
				"GyMEd": {
					"d": "GGGGG y-MM-dd, E – y-MM-dd, E",
					"G": "GGGGG y-MM-dd, E – GGGGG y-MM-dd, E",
					"M": "GGGGG y-MM-dd, E – y-MM-dd, E",
					"y": "GGGGG y-MM-dd, E – y-MM-dd, E"
				},
				"GyMMM": {
					"G": "G y MMM – G y MMM",
					"M": "G y MMM–MMM",
					"y": "G y MMM – y MMM"
				},
				"GyMMMd": {
					"d": "G y MMM d–d",
					"G": "G y MMM d – G y MMM d",
					"M": "G y MMM d – MMM d",
					"y": "G y MMM d – y MMM d"
				},
				"GyMMMEd": {
					"d": "G y MMM d, E – MMM d, E",
					"G": "G y MMM d, E – G y MMM d, E",
					"M": "G y MMM d, E – MMM d, E",
					"y": "G y MMM d, E – y MMM d, E"
				},
				"h": {
					"a": "h a – h a",
					"h": "h–h a"
				},
				"H": {
					"H": "HH–HH"
				},
				"hm": {
					"a": "h:mm a – h:mm a",
					"h": "h:mm–h:mm a",
					"m": "h:mm–h:mm a"
				},
				"Hm": {
					"H": "HH:mm–HH:mm",
					"m": "HH:mm–HH:mm"
				},
				"hmv": {
					"a": "h:mm a – h:mm a v",
					"h": "h:mm–h:mm a v",
					"m": "h:mm–h:mm a v"
				},
				"Hmv": {
					"H": "HH:mm–HH:mm v",
					"m": "HH:mm–HH:mm v"
				},
				"hv": {
					"a": "h a – h a v",
					"h": "h–h a v"
				},
				"Hv": {
					"H": "HH–HH v"
				},
				"M": {
					"M": "M–M"
				},
				"Md": {
					"d": "dd/MM – dd/MM",
					"M": "dd/MM – dd/MM"
				},
				"MEd": {
					"d": "E dd/MM – E dd/MM",
					"M": "E dd/MM – E dd/MM"
				},
				"MMM": {
					"M": "MMM–MMM"
				},
				"MMMd": {
					"d": "dd–dd MMM",
					"M": "dd MMM – dd MMM"
				},
				"MMMEd": {
					"d": "E dd – E dd MMM",
					"M": "E dd MMM – E dd MMM"
				},
				"y": {
					"y": "y–y G"
				},
				"yM": {
					"M": "MM/y – MM/y G",
					"y": "MM/y – MM/y G"
				},
				"yMd": {
					"d": "dd/MM/y – dd/MM/y G",
					"M": "dd/MM/y – dd/MM/y G",
					"y": "dd/MM/y – dd/MM/y G"
				},
				"yMEd": {
					"d": "E dd/MM/y – E dd/MM/y G",
					"M": "E dd/MM/y – E dd/MM/y G",
					"y": "E dd/MM/y – E dd/MM/y G"
				},
				"yMMM": {
					"M": "MMM–MMM y G",
					"y": "MMM y – MMM y G"
				},
				"yMMMd": {
					"d": "dd–dd MMM y G",
					"M": "dd MMM – dd MMM y G",
					"y": "dd MMM y – dd MMM y G"
				},
				"yMMMEd": {
					"d": "E d – E d MMM y G",
					"M": "E d MMM – E d MMM y G",
					"y": "E d MMM y – E d MMM y G"
				},
				"yMMMM": {
					"M": "MMMM–MMMM y G",
					"y": "MMMM y – MMMM y G"
				}
			}
		},
		"months": {
			"format": {
				"abbreviated": [
					"Farvardin",
					"Ordibehesht",
					"Khordad",
					"Tir",
					"Mordad",
					"Shahrivar",
					"Mehr",
					"Aban",
					"Azar",
					"Dey",
					"Bahman",
					"Esfand"
				],
				"narrow": [
					"1",
					"2",
					"3",
					"4",
					"5",
					"6",
					"7",
					"8",
					"9",
					"10",
					"11",
					"12"
				],
				"wide": [
					"Farvardin",
					"Ordibehesht",
					"Khordad",
					"Tir",
					"Mordad",
					"Shahrivar",
					"Mehr",
					"Aban",
					"Azar",
					"Dey",
					"Bahman",
					"Esfand"
				]
			},
			"stand-alone": {
				"abbreviated": [
					"Farvardin",
					"Ordibehesht",
					"Khordad",
					"Tir",
					"Mordad",
					"Shahrivar",
					"Mehr",
					"Aban",
					"Azar",
					"Dey",
					"Bahman",
					"Esfand"
				],
				"narrow": [
					"1",
					"2",
					"3",
					"4",
					"5",
					"6",
					"7",
					"8",
					"9",
					"10",
					"11",
					"12"
				],
				"wide": [
					"Farvardin",
					"Ordibehesht",
					"Khordad",
					"Tir",
					"Mordad",
					"Shahrivar",
					"Mehr",
					"Aban",
					"Azar",
					"Dey",
					"Bahman",
					"Esfand"
				]
			}
		},
		"days": {
			"format": {
				"abbreviated": [
					"dom",
					"lun",
					"mar",
					"mer",
					"gio",
					"ven",
					"sab"
				],
				"narrow": [
					"D",
					"L",
					"M",
					"M",
					"G",
					"V",
					"S"
				],
				"short": [
					"dom",
					"lun",
					"mar",
					"mer",
					"gio",
					"ven",
					"sab"
				],
				"wide": [
					"domenica",
					"lunedì",
					"martedì",
					"mercoledì",
					"giovedì",
					"venerdì",
					"sabato"
				]
			},
			"stand-alone": {
				"abbreviated": [
					"dom",
					"lun",
					"mar",
					"mer",
					"gio",
					"ven",
					"sab"
				],
				"narrow": [
					"D",
					"L",
					"M",
					"M",
					"G",
					"V",
					"S"
				],
				"short": [
					"dom",
					"lun",
					"mar",
					"mer",
					"gio",
					"ven",
					"sab"
				],
				"wide": [
					"domenica",
					"lunedì",
					"martedì",
					"mercoledì",
					"giovedì",
					"venerdì",
					"sabato"
				]
			}
		},
		"quarters": {
			"format": {
				"abbreviated": [
					"T1",
					"T2",
					"T3",
					"T4"
				],
				"narrow": [
					"1",
					"2",
					"3",
					"4"
				],
				"wide": [
					"1º trimestre",
					"2º trimestre",
					"3º trimestre",
					"4º trimestre"
				]
			},
			"stand-alone": {
				"abbreviated": [
					"T1",
					"T2",
					"T3",
					"T4"
				],
				"narrow": [
					"1",
					"2",
					"3",
					"4"
				],
				"wide": [
					"1º trimestre",
					"2º trimestre",
					"3º trimestre",
					"4º trimestre"
				]
			}
		},
		"dayPeriods": {
			"format": {
				"abbreviated": [
					"AM",
					"PM"
				],
				"narrow": [
					"m.",
					"p."
				],
				"wide": [
					"AM",
					"PM"
				]
			},
			"stand-alone": {
				"abbreviated": [
					"AM",
					"PM"
				],
				"narrow": [
					"m.",
					"p."
				],
				"wide": [
					"AM",
					"PM"
				]
			}
		},
		"era-wide": {
			"0": "AP"
		},
		"era-abbreviated": {
			"0": "AP"
		},
		"era-narrow": {
			"0": "AP"
		}
	},
	"ca-buddhist": {
		"dateFormats": {
			"full": "EEEE, d MMMM y G",
			"long": "d MMMM y G",
			"medium": "d MMM y G",
			"short": "dd.MM.yy GGGGG"
		},
		"timeFormats": {
			"full": "HH:mm:ss zzzz",
			"long": "HH:mm:ss z",
			"medium": "HH:mm:ss",
			"short": "HH:mm"
		},
		"dateTimeFormats": {
			"full": "{1} 'alle' {0}",
			"long": "{1} 'alle' {0}",
			"medium": "{1}, {0}",
			"short": "{1}, {0}",
			"availableFormats": {
				"Bh": "h B",
				"Bhm": "h:mm B",
				"Bhms": "h:mm:ss B",
				"d": "d",
				"E": "ccc",
				"EBhm": "E h:mm B",
				"EBhms": "E h:mm:ss B",
				"Ed": "E d",
				"Ehm": "E h:mm a",
				"EHm": "E HH:mm",
				"Ehms": "E h:mm:ss a",
				"EHms": "E HH:mm:ss",
				"Gy": "y G",
				"GyMMM": "MMM y G",
				"GyMMMd": "d MMM y G",
				"GyMMMEd": "E d MMM y G",
				"h": "hh a",
				"H": "HH",
				"hm": "hh:mm a",
				"Hm": "HH:mm",
				"hms": "hh:mm:ss a",
				"Hms": "HH:mm:ss",
				"M": "L",
				"Md": "d/M",
				"MEd": "E d/M",
				"MMM": "LLL",
				"MMMd": "d MMM",
				"MMMEd": "E d MMM",
				"MMMMd": "d MMMM",
				"ms": "mm:ss",
				"y": "y G",
				"yyyy": "y G",
				"yyyyM": "M/y GGGGG",
				"yyyyMd": "d/M/y GGGGG",
				"yyyyMEd": "E d/M/y GGGGG",
				"yyyyMMM": "MMM y G",
				"yyyyMMMd": "d MMM y G",
				"yyyyMMMEd": "E d MMM y G",
				"yyyyMMMM": "MMMM y G",
				"yyyyQQQ": "QQQ y G",
				"yyyyQQQQ": "QQQQ y G"
			},
			"appendItems": {
				"Day": "{0} ({2}: {1})",
				"Day-Of-Week": "{0} {1}",
				"Era": "{1} {0}",
				"Hour": "{0} ({2}: {1})",
				"Minute": "{0} ({2}: {1})",
				"Month": "{0} ({2}: {1})",
				"Quarter": "{0} ({2}: {1})",
				"Second": "{0} ({2}: {1})",
				"Timezone": "{0} {1}",
				"Week": "{0} ({2}: {1})",
				"Year": "{1} {0}"
			},
			"intervalFormats": {
				"intervalFormatFallback": "{0} - {1}",
				"d": {
					"d": "d–d"
				},
				"Gy": {
					"G": "G y – G y",
					"y": "G y–y"
				},
				"GyM": {
					"G": "GGGGG y-MM – GGGGG y-MM",
					"M": "GGGGG y-MM – y-MM",
					"y": "GGGGG y-MM – y-MM"
				},
				"GyMd": {
					"d": "GGGGG y-MM-dd – y-MM-dd",
					"G": "GGGGG y-MM-dd – GGGGG y-MM-dd",
					"M": "GGGGG y-MM-dd – y-MM-dd",
					"y": "GGGGG y-MM-dd – y-MM-dd"
				},
				"GyMEd": {
					"d": "GGGGG y-MM-dd, E – y-MM-dd, E",
					"G": "GGGGG y-MM-dd, E – GGGGG y-MM-dd, E",
					"M": "GGGGG y-MM-dd, E – y-MM-dd, E",
					"y": "GGGGG y-MM-dd, E – y-MM-dd, E"
				},
				"GyMMM": {
					"G": "G y MMM – G y MMM",
					"M": "G y MMM–MMM",
					"y": "G y MMM – y MMM"
				},
				"GyMMMd": {
					"d": "G y MMM d–d",
					"G": "G y MMM d – G y MMM d",
					"M": "G y MMM d – MMM d",
					"y": "G y MMM d – y MMM d"
				},
				"GyMMMEd": {
					"d": "G y MMM d, E – MMM d, E",
					"G": "G y MMM d, E – G y MMM d, E",
					"M": "G y MMM d, E – MMM d, E",
					"y": "G y MMM d, E – y MMM d, E"
				},
				"h": {
					"a": "h a – h a",
					"h": "h–h a"
				},
				"H": {
					"H": "HH–HH"
				},
				"hm": {
					"a": "h:mm a – h:mm a",
					"h": "h:mm–h:mm a",
					"m": "h:mm–h:mm a"
				},
				"Hm": {
					"H": "HH:mm–HH:mm",
					"m": "HH:mm–HH:mm"
				},
				"hmv": {
					"a": "h:mm a – h:mm a v",
					"h": "h:mm–h:mm a v",
					"m": "h:mm–h:mm a v"
				},
				"Hmv": {
					"H": "HH:mm–HH:mm v",
					"m": "HH:mm–HH:mm v"
				},
				"hv": {
					"a": "h a – h a v",
					"h": "h–h a v"
				},
				"Hv": {
					"H": "HH–HH v"
				},
				"M": {
					"M": "M–M"
				},
				"Md": {
					"d": "dd/MM – dd/MM",
					"M": "dd/MM – dd/MM"
				},
				"MEd": {
					"d": "E dd/MM – E dd/MM",
					"M": "E dd/MM – E dd/MM"
				},
				"MMM": {
					"M": "MMM–MMM"
				},
				"MMMd": {
					"d": "dd–dd MMM",
					"M": "dd MMM – dd MMM"
				},
				"MMMEd": {
					"d": "E dd – E dd MMM",
					"M": "E dd MMM – E dd MMM"
				},
				"y": {
					"y": "y–y G"
				},
				"yM": {
					"M": "MM/y – MM/y G",
					"y": "MM/y – MM/y G"
				},
				"yMd": {
					"d": "dd/MM/y – dd/MM/y G",
					"M": "dd/MM/y – dd/MM/y G",
					"y": "dd/MM/y – dd/MM/y G"
				},
				"yMEd": {
					"d": "E dd/MM/y – E dd/MM/y G",
					"M": "E dd/MM/y – E dd/MM/y G",
					"y": "E dd/MM/y – E dd/MM/y G"
				},
				"yMMM": {
					"M": "MMM–MMM y G",
					"y": "MMM y – MMM y G"
				},
				"yMMMd": {
					"d": "dd–dd MMM y G",
					"M": "dd MMM – dd MMM y G",
					"y": "dd MMM y – dd MMM y G"
				},
				"yMMMEd": {
					"d": "E d – E d MMM y G",
					"M": "E d MMM – E d MMM y G",
					"y": "E d MMM y – E d MMM y G"
				},
				"yMMMM": {
					"M": "MMMM–MMMM y G",
					"y": "MMMM y – MMMM y G"
				}
			}
		},
		"months": {
			"format": {
				"abbreviated": [
					"gen",
					"feb",
					"mar",
					"apr",
					"mag",
					"giu",
					"lug",
					"ago",
					"set",
					"ott",
					"nov",
					"dic"
				],
				"narrow": [
					"G",
					"F",
					"M",
					"A",
					"M",
					"G",
					"L",
					"A",
					"S",
					"O",
					"N",
					"D"
				],
				"wide": [
					"gennaio",
					"febbraio",
					"marzo",
					"aprile",
					"maggio",
					"giugno",
					"luglio",
					"agosto",
					"settembre",
					"ottobre",
					"novembre",
					"dicembre"
				]
			},
			"stand-alone": {
				"abbreviated": [
					"gen",
					"feb",
					"mar",
					"apr",
					"mag",
					"giu",
					"lug",
					"ago",
					"set",
					"ott",
					"nov",
					"dic"
				],
				"narrow": [
					"G",
					"F",
					"M",
					"A",
					"M",
					"G",
					"L",
					"A",
					"S",
					"O",
					"N",
					"D"
				],
				"wide": [
					"gennaio",
					"febbraio",
					"marzo",
					"aprile",
					"maggio",
					"giugno",
					"luglio",
					"agosto",
					"settembre",
					"ottobre",
					"novembre",
					"dicembre"
				]
			}
		},
		"days": {
			"format": {
				"abbreviated": [
					"dom",
					"lun",
					"mar",
					"mer",
					"gio",
					"ven",
					"sab"
				],
				"narrow": [
					"D",
					"L",
					"M",
					"M",
					"G",
					"V",
					"S"
				],
				"short": [
					"dom",
					"lun",
					"mar",
					"mer",
					"gio",
					"ven",
					"sab"
				],
				"wide": [
					"domenica",
					"lunedì",
					"martedì",
					"mercoledì",
					"giovedì",
					"venerdì",
					"sabato"
				]
			},
			"stand-alone": {
				"abbreviated": [
					"dom",
					"lun",
					"mar",
					"mer",
					"gio",
					"ven",
					"sab"
				],
				"narrow": [
					"D",
					"L",
					"M",
					"M",
					"G",
					"V",
					"S"
				],
				"short": [
					"dom",
					"lun",
					"mar",
					"mer",
					"gio",
					"ven",
					"sab"
				],
				"wide": [
					"domenica",
					"lunedì",
					"martedì",
					"mercoledì",
					"giovedì",
					"venerdì",
					"sabato"
				]
			}
		},
		"quarters": {
			"format": {
				"abbreviated": [
					"T1",
					"T2",
					"T3",
					"T4"
				],
				"narrow": [
					"1",
					"2",
					"3",
					"4"
				],
				"wide": [
					"1º trimestre",
					"2º trimestre",
					"3º trimestre",
					"4º trimestre"
				]
			},
			"stand-alone": {
				"abbreviated": [
					"T1",
					"T2",
					"T3",
					"T4"
				],
				"narrow": [
					"1",
					"2",
					"3",
					"4"
				],
				"wide": [
					"1º trimestre",
					"2º trimestre",
					"3º trimestre",
					"4º trimestre"
				]
			}
		},
		"dayPeriods": {
			"format": {
				"abbreviated": [
					"AM",
					"PM"
				],
				"narrow": [
					"m.",
					"p."
				],
				"wide": [
					"AM",
					"PM"
				]
			},
			"stand-alone": {
				"abbreviated": [
					"AM",
					"PM"
				],
				"narrow": [
					"m.",
					"p."
				],
				"wide": [
					"AM",
					"PM"
				]
			}
		},
		"era-wide": {
			"0": "EB"
		},
		"era-abbreviated": {
			"0": "EB"
		},
		"era-narrow": {
			"0": "EB"
		}
	},
	"dateFields": {
		"era": {
			"displayName": "era"
		},
		"year-wide": {
			"displayName": "anno",
			"relative-type--1": "anno scorso",
			"relative-type-0": "quest’anno",
			"relative-type-1": "anno prossimo",
			"relativeTime-type-future": {
				"relativeTimePattern-count-one": "tra {0} anno",
				"relativeTimePattern-count-other": "tra {0} anni"
			},
			"relativeTime-type-past": {
				"relativeTimePattern-count-one": "{0} anno fa",
				"relativeTimePattern-count-other": "{0} anni fa"
			}
		},
		"year-short": {
			"displayName": "anno",
			"relative-type--1": "anno scorso",
			"relative-type-0": "quest’anno",
			"relative-type-1": "anno prossimo",
			"relativeTime-type-future": {
				"relativeTimePattern-count-one": "tra {0} anno",
				"relativeTimePattern-count-other": "tra {0} anni"
			},
			"relativeTime-type-past": {
				"relativeTimePattern-count-one": "{0} anno fa",
				"relativeTimePattern-count-other": "{0} anni fa"
			}
		},
		"year-narrow": {
			"displayName": "anno",
			"relative-type--1": "anno scorso",
			"relative-type-0": "quest’anno",
			"relative-type-1": "anno prossimo",
			"relativeTime-type-future": {
				"relativeTimePattern-count-one": "tra {0} anno",
				"relativeTimePattern-count-other": "tra {0} anni"
			},
			"relativeTime-type-past": {
				"relativeTimePattern-count-one": "{0} anno fa",
				"relativeTimePattern-count-other": "{0} anni fa"
			}
		},
		"quarter-wide": {
			"displayName": "trimestre",
			"relative-type--1": "trimestre scorso",
			"relative-type-0": "questo trimestre",
			"relative-type-1": "trimestre prossimo",
			"relativeTime-type-future": {
				"relativeTimePattern-count-one": "tra {0} trimestre",
				"relativeTimePattern-count-other": "tra {0} trimestri"
			},
			"relativeTime-type-past": {
				"relativeTimePattern-count-one": "{0} trimestre fa",
				"relativeTimePattern-count-other": "{0} trimestri fa"
			}
		},
		"quarter-short": {
			"displayName": "trim.",
			"relative-type--1": "trim. scorso",
			"relative-type-0": "questo trim.",
			"relative-type-1": "trim. prossimo",
			"relativeTime-type-future": {
				"relativeTimePattern-count-one": "tra {0} trim.",
				"relativeTimePattern-count-other": "tra {0} trim."
			},
			"relativeTime-type-past": {
				"relativeTimePattern-count-one": "{0} trim. fa",
				"relativeTimePattern-count-other": "{0} trim. fa"
			}
		},
		"quarter-narrow": {
			"displayName": "trim.",
			"relative-type--1": "trim. scorso",
			"relative-type-0": "questo trim.",
			"relative-type-1": "trim. prossimo",
			"relativeTime-type-future": {
				"relativeTimePattern-count-one": "tra {0} trim.",
				"relativeTimePattern-count-other": "tra {0} trim."
			},
			"relativeTime-type-past": {
				"relativeTimePattern-count-one": "{0} trim. fa",
				"relativeTimePattern-count-other": "{0} trim. fa"
			}
		},
		"month-wide": {
			"displayName": "mese",
			"relative-type--1": "mese scorso",
			"relative-type-0": "questo mese",
			"relative-type-1": "mese prossimo",
			"relativeTime-type-future": {
				"relativeTimePattern-count-one": "tra {0} mese",
				"relativeTimePattern-count-other": "tra {0} mesi"
			},
			"relativeTime-type-past": {
				"relativeTimePattern-count-one": "{0} mese fa",
				"relativeTimePattern-count-other": "{0} mesi fa"
			}
		},
		"month-short": {
			"displayName": "mese",
			"relative-type--1": "mese scorso",
			"relative-type-0": "questo mese",
			"relative-type-1": "mese prossimo",
			"relativeTime-type-future": {
				"relativeTimePattern-count-one": "tra {0} mese",
				"relativeTimePattern-count-other": "tra {0} mesi"
			},
			"relativeTime-type-past": {
				"relativeTimePattern-count-one": "{0} mese fa",
				"relativeTimePattern-count-other": "{0} mesi fa"
			}
		},
		"month-narrow": {
			"displayName": "mese",
			"relative-type--1": "mese scorso",
			"relative-type-0": "questo mese",
			"relative-type-1": "mese prossimo",
			"relativeTime-type-future": {
				"relativeTimePattern-count-one": "tra {0} mese",
				"relativeTimePattern-count-other": "tra {0} mesi"
			},
			"relativeTime-type-past": {
				"relativeTimePattern-count-one": "{0} mese fa",
				"relativeTimePattern-count-other": "{0} mesi fa"
			}
		},
		"week-wide": {
			"displayName": "settimana",
			"relative-type--1": "settimana scorsa",
			"relative-type-0": "questa settimana",
			"relative-type-1": "settimana prossima",
			"relativeTime-type-future": {
				"relativeTimePattern-count-one": "tra {0} settimana",
				"relativeTimePattern-count-other": "tra {0} settimane"
			},
			"relativeTime-type-past": {
				"relativeTimePattern-count-one": "{0} settimana fa",
				"relativeTimePattern-count-other": "{0} settimane fa"
			},
			"relativePeriod": "la settimana del {0}"
		},
		"week-short": {
			"displayName": "sett.",
			"relative-type--1": "settimana scorsa",
			"relative-type-0": "questa settimana",
			"relative-type-1": "settimana prossima",
			"relativeTime-type-future": {
				"relativeTimePattern-count-one": "tra {0} sett.",
				"relativeTimePattern-count-other": "tra {0} sett."
			},
			"relativeTime-type-past": {
				"relativeTimePattern-count-one": "{0} sett. fa",
				"relativeTimePattern-count-other": "{0} sett. fa"
			},
			"relativePeriod": "la settimana del {0}"
		},
		"week-narrow": {
			"displayName": "sett.",
			"relative-type--1": "settimana scorsa",
			"relative-type-0": "questa settimana",
			"relative-type-1": "settimana prossima",
			"relativeTime-type-future": {
				"relativeTimePattern-count-one": "tra {0} sett.",
				"relativeTimePattern-count-other": "tra {0} sett."
			},
			"relativeTime-type-past": {
				"relativeTimePattern-count-one": "{0} sett. fa",
				"relativeTimePattern-count-other": "{0} sett. fa"
			},
			"relativePeriod": "la settimana del {0}"
		},
		"day-wide": {
			"displayName": "giorno",
			"relative-type--2": "l’altro ieri",
			"relative-type--1": "ieri",
			"relative-type-0": "oggi",
			"relative-type-1": "domani",
			"relative-type-2": "dopodomani",
			"relativeTime-type-future": {
				"relativeTimePattern-count-one": "tra {0} giorno",
				"relativeTimePattern-count-other": "tra {0} giorni"
			},
			"relativeTime-type-past": {
				"relativeTimePattern-count-one": "{0} giorno fa",
				"relativeTimePattern-count-other": "{0} giorni fa"
			}
		},
		"day-short": {
			"displayName": "g",
			"relative-type--2": "l’altro ieri",
			"relative-type--1": "ieri",
			"relative-type-0": "oggi",
			"relative-type-1": "domani",
			"relative-type-2": "dopodomani",
			"relativeTime-type-future": {
				"relativeTimePattern-count-one": "tra {0} g",
				"relativeTimePattern-count-other": "tra {0} gg"
			},
			"relativeTime-type-past": {
				"relativeTimePattern-count-one": "{0} g fa",
				"relativeTimePattern-count-other": "{0} gg fa"
			}
		},
		"day-narrow": {
			"displayName": "g",
			"relative-type--2": "l’altro ieri",
			"relative-type--1": "ieri",
			"relative-type-0": "oggi",
			"relative-type-1": "domani",
			"relative-type-2": "dopodomani",
			"relativeTime-type-future": {
				"relativeTimePattern-count-one": "tra {0} g",
				"relativeTimePattern-count-other": "tra {0} gg"
			},
			"relativeTime-type-past": {
				"relativeTimePattern-count-one": "{0} g fa",
				"relativeTimePattern-count-other": "{0} gg fa"
			}
		},
		"weekday": {
			"displayName": "giorno della settimana"
		},
		"hour-wide": {
			"displayName": "ora",
			"relative-type-0": "quest’ora",
			"relativeTime-type-future": {
				"relativeTimePattern-count-one": "tra {0} ora",
				"relativeTimePattern-count-other": "tra {0} ore"
			},
			"relativeTime-type-past": {
				"relativeTimePattern-count-one": "{0} ora fa",
				"relativeTimePattern-count-other": "{0} ore fa"
			}
		},
		"hour-short": {
			"displayName": "h.",
			"relative-type-0": "quest’ora",
			"relativeTime-type-future": {
				"relativeTimePattern-count-one": "tra {0} h",
				"relativeTimePattern-count-other": "tra {0} h"
			},
			"relativeTime-type-past": {
				"relativeTimePattern-count-one": "{0} h fa",
				"relativeTimePattern-count-other": "{0} h fa"
			}
		},
		"hour-narrow": {
			"displayName": "h",
			"relative-type-0": "quest’ora",
			"relativeTime-type-future": {
				"relativeTimePattern-count-one": "tra {0} h",
				"relativeTimePattern-count-other": "tra {0} h"
			},
			"relativeTime-type-past": {
				"relativeTimePattern-count-one": "{0} h fa",
				"relativeTimePattern-count-other": "{0} h fa"
			}
		},
		"minute-wide": {
			"displayName": "minuto",
			"relative-type-0": "questo minuto",
			"relativeTime-type-future": {
				"relativeTimePattern-count-one": "tra {0} minuto",
				"relativeTimePattern-count-other": "tra {0} minuti"
			},
			"relativeTime-type-past": {
				"relativeTimePattern-count-one": "{0} minuto fa",
				"relativeTimePattern-count-other": "{0} minuti fa"
			}
		},
		"minute-short": {
			"displayName": "min",
			"relative-type-0": "questo minuto",
			"relativeTime-type-future": {
				"relativeTimePattern-count-one": "tra {0} min",
				"relativeTimePattern-count-other": "tra {0} min"
			},
			"relativeTime-type-past": {
				"relativeTimePattern-count-one": "{0} min fa",
				"relativeTimePattern-count-other": "{0} min fa"
			}
		},
		"minute-narrow": {
			"displayName": "min",
			"relative-type-0": "questo minuto",
			"relativeTime-type-future": {
				"relativeTimePattern-count-one": "tra {0} min",
				"relativeTimePattern-count-other": "tra {0} min"
			},
			"relativeTime-type-past": {
				"relativeTimePattern-count-one": "{0} min fa",
				"relativeTimePattern-count-other": "{0} min fa"
			}
		},
		"second-wide": {
			"displayName": "secondo",
			"relative-type-0": "ora",
			"relativeTime-type-future": {
				"relativeTimePattern-count-one": "tra {0} secondo",
				"relativeTimePattern-count-other": "tra {0} secondi"
			},
			"relativeTime-type-past": {
				"relativeTimePattern-count-one": "{0} secondo fa",
				"relativeTimePattern-count-other": "{0} secondi fa"
			}
		},
		"second-short": {
			"displayName": "s",
			"relative-type-0": "ora",
			"relativeTime-type-future": {
				"relativeTimePattern-count-one": "tra {0} s",
				"relativeTimePattern-count-other": "tra {0} sec."
			},
			"relativeTime-type-past": {
				"relativeTimePattern-count-one": "{0} s fa",
				"relativeTimePattern-count-other": "{0} sec. fa"
			}
		},
		"second-narrow": {
			"displayName": "s",
			"relative-type-0": "ora",
			"relativeTime-type-future": {
				"relativeTimePattern-count-one": "tra {0} s",
				"relativeTimePattern-count-other": "tra {0} s"
			},
			"relativeTime-type-past": {
				"relativeTimePattern-count-one": "{0} s fa",
				"relativeTimePattern-count-other": "{0} s fa"
			}
		},
		"zone": {
			"displayName": "fuso orario"
		}
	},
	"decimalFormat": {
		"standard": "#,##0.###"
	},
	"decimalFormat-long": {
		"1000-one": "0 mille",
		"1000-other": "0 mila",
		"10000-one": "00 mila",
		"10000-other": "00 mila",
		"100000-one": "000 mila",
		"100000-other": "000 mila",
		"1000000-one": "0 milione",
		"1000000-other": "0 milioni",
		"10000000-one": "00 milioni",
		"10000000-other": "00 milioni",
		"100000000-one": "000 milioni",
		"100000000-other": "000 milioni",
		"1000000000-one": "0 miliardo",
		"1000000000-other": "0 miliardi",
		"10000000000-one": "00 miliardi",
		"10000000000-other": "00 miliardi",
		"100000000000-one": "000 miliardi",
		"100000000000-other": "000 miliardi",
		"1000000000000-one": "0 mille miliardi",
		"1000000000000-other": "0 mila miliardi",
		"10000000000000-one": "00 mila miliardi",
		"10000000000000-other": "00 mila miliardi",
		"100000000000000-one": "000 mila miliardi",
		"100000000000000-other": "000 mila miliardi"
	},
	"decimalFormat-short": {
		"1000-one": "0",
		"1000-other": "0",
		"10000-one": "0",
		"10000-other": "0",
		"100000-one": "0",
		"100000-other": "0",
		"1000000-one": "0 Mln",
		"1000000-other": "0 Mln",
		"10000000-one": "00 Mln",
		"10000000-other": "00 Mln",
		"100000000-one": "000 Mln",
		"100000000-other": "000 Mln",
		"1000000000-one": "0 Mrd",
		"1000000000-other": "0 Mrd",
		"10000000000-one": "00 Mrd",
		"10000000000-other": "00 Mrd",
		"100000000000-one": "000 Mrd",
		"100000000000-other": "000 Mrd",
		"1000000000000-one": "0 Bln",
		"1000000000000-other": "0 Bln",
		"10000000000000-one": "00 Bln",
		"10000000000000-other": "00 Bln",
		"100000000000000-one": "000 Bln",
		"100000000000000-other": "000 Bln"
	},
	"scientificFormat": {
		"standard": "#E0"
	},
	"percentFormat": {
		"standard": "#,##0%"
	},
	"currencyFormat": {
		"standard": "¤ #,##0.00;¤-#,##0.00",
		"accounting": "#,##0.00 ¤",
		"currencySpacing": {
			"beforeCurrency": {
				"currencyMatch": "[:^S:]",
				"surroundingMatch": "[:digit:]",
				"insertBetween": " "
			},
			"afterCurrency": {
				"currencyMatch": "[:^S:]",
				"surroundingMatch": "[:digit:]",
				"insertBetween": " "
			}
		}
	},
	"currencyFormat-short": {
		"1000-one": "0",
		"1000-other": "0",
		"10000-one": "0",
		"10000-other": "0",
		"100000-one": "0",
		"100000-other": "0",
		"1000000-one": "0 Mio ¤",
		"1000000-other": "0 Mio ¤",
		"10000000-one": "00 Mio ¤",
		"10000000-other": "00 Mio ¤",
		"100000000-one": "000 Mio ¤",
		"100000000-other": "000 Mio ¤",
		"1000000000-one": "0 Mrd ¤",
		"1000000000-other": "0 Mrd ¤",
		"10000000000-one": "00 Mrd ¤",
		"10000000000-other": "00 Mrd ¤",
		"100000000000-one": "000 Mrd ¤",
		"100000000000-other": "000 Mrd ¤",
		"1000000000000-one": "0 Bln ¤",
		"1000000000000-other": "0 Bln ¤",
		"10000000000000-one": "00 Bln ¤",
		"10000000000000-other": "00 Bln ¤",
		"100000000000000-one": "000 Bln ¤",
		"100000000000000-other": "000 Bln ¤"
	},
	"symbols-latn-decimal": ".",
	"symbols-latn-group": "’",
	"symbols-latn-list": ";",
	"symbols-latn-percentSign": "%",
	"symbols-latn-plusSign": "+",
	"symbols-latn-minusSign": "-",
	"symbols-latn-exponential": "E",
	"symbols-latn-superscriptingExponent": "×",
	"symbols-latn-perMille": "‰",
	"symbols-latn-infinity": "∞",
	"symbols-latn-nan": "NaN",
	"symbols-latn-timeSeparator": ":",
	"currencySymbols": {
		"AUD": "A$",
		"CAD": "CA$",
		"CNY": "CN¥",
		"EUR": "€",
		"GBP": "£",
		"ILS": "₪",
		"INR": "₹",
		"NZD": "NZ$",
		"THB": "฿",
		"VND": "₫",
		"XAF": "FCFA",
		"XCD": "EC$",
		"XOF": "CFA",
		"XPF": "CFPF",
		"XXX": "¤"
	},
	"rtl": false,
	"listPattern-standard-wide": {
		"2": "{0} e {1}",
		"start": "{0}, {1}",
		"middle": "{0}, {1}",
		"end": "{0} e {1}"
	},
	"listPattern-or-wide": {
		"2": "{0} o {1}",
		"start": "{0}, {1}",
		"middle": "{0}, {1}",
		"end": "{0} o {1}"
	},
	"listPattern-or-short": {
		"2": "{0} o {1}",
		"start": "{0}, {1}",
		"middle": "{0}, {1}",
		"end": "{0} o {1}"
	},
	"listPattern-standard-short": {
		"2": "{0} e {1}",
		"start": "{0}, {1}",
		"middle": "{0}, {1}",
		"end": "{0} e {1}"
	},
	"units": {
		"short": {
			"per": {
				"compoundUnitPattern": "{0}/{1}"
			},
			"acceleration-g-force": {
				"displayName": "forza g",
				"unitPattern-count-one": "{0} G",
				"unitPattern-count-other": "{0} G"
			},
			"acceleration-meter-per-second-squared": {
				"displayName": "m/s²",
				"unitPattern-count-one": "{0} m/s²",
				"unitPattern-count-other": "{0} m/s²"
			},
			"angle-revolution": {
				"displayName": "riv",
				"unitPattern-count-one": "{0} riv",
				"unitPattern-count-other": "{0} riv"
			},
			"angle-radian": {
				"displayName": "rad",
				"unitPattern-count-one": "{0} rad",
				"unitPattern-count-other": "{0} rad"
			},
			"angle-degree": {
				"displayName": "°",
				"unitPattern-count-one": "{0}°",
				"unitPattern-count-other": "{0}°"
			},
			"angle-arc-minute": {
				"displayName": "′",
				"unitPattern-count-one": "{0}′",
				"unitPattern-count-other": "{0}′"
			},
			"angle-arc-second": {
				"displayName": "″",
				"unitPattern-count-one": "{0}″",
				"unitPattern-count-other": "{0}″"
			},
			"area-square-kilometer": {
				"displayName": "km²",
				"unitPattern-count-one": "{0} km²",
				"unitPattern-count-other": "{0} km²",
				"perUnitPattern": "{0}/km²"
			},
			"area-hectare": {
				"displayName": "ettari",
				"unitPattern-count-one": "{0} ha",
				"unitPattern-count-other": "{0} ha"
			},
			"area-square-meter": {
				"displayName": "m²",
				"unitPattern-count-one": "{0} m²",
				"unitPattern-count-other": "{0} m²",
				"perUnitPattern": "{0}/m²"
			},
			"area-square-centimeter": {
				"displayName": "cm²",
				"unitPattern-count-one": "{0} cm²",
				"unitPattern-count-other": "{0} cm²",
				"perUnitPattern": "{0}/cm²"
			},
			"area-square-mile": {
				"displayName": "mi²",
				"unitPattern-count-one": "{0} mi²",
				"unitPattern-count-other": "{0} mi²",
				"perUnitPattern": "{0}/mi²"
			},
			"area-acre": {
				"displayName": "acri",
				"unitPattern-count-one": "{0} ac",
				"unitPattern-count-other": "{0} ac"
			},
			"area-square-yard": {
				"displayName": "yd²",
				"unitPattern-count-one": "{0} yd²",
				"unitPattern-count-other": "{0} yd²"
			},
			"area-square-foot": {
				"displayName": "piedi quadrati",
				"unitPattern-count-one": "{0} ft²",
				"unitPattern-count-other": "{0} ft²"
			},
			"area-square-inch": {
				"displayName": "in²",
				"unitPattern-count-one": "{0} in²",
				"unitPattern-count-other": "{0} in²",
				"perUnitPattern": "{0}/in²"
			},
			"concentr-karat": {
				"displayName": "kt",
				"unitPattern-count-one": "{0} kt",
				"unitPattern-count-other": "{0} kt"
			},
			"concentr-milligram-per-deciliter": {
				"displayName": "mg/dl",
				"unitPattern-count-one": "{0} mg/dl",
				"unitPattern-count-other": "{0} mg/dl"
			},
			"concentr-millimole-per-liter": {
				"displayName": "mmol/l",
				"unitPattern-count-one": "{0} mmol/l",
				"unitPattern-count-other": "{0} mmol/l"
			},
			"concentr-part-per-million": {
				"displayName": "ppm",
				"unitPattern-count-one": "{0} ppm",
				"unitPattern-count-other": "{0} ppm"
			},
			"concentr-percent": {
				"displayName": "percento",
				"unitPattern-count-one": "{0}%",
				"unitPattern-count-other": "{0}%"
			},
			"concentr-permille": {
				"displayName": "‰",
				"unitPattern-count-one": "{0}‰",
				"unitPattern-count-other": "{0}‰"
			},
			"consumption-liter-per-kilometer": {
				"displayName": "L/km",
				"unitPattern-count-one": "{0} L/km",
				"unitPattern-count-other": "{0} L/km"
			},
			"consumption-liter-per-100kilometers": {
				"displayName": "L/100km",
				"unitPattern-count-one": "{0} L/100km",
				"unitPattern-count-other": "{0} L/100km"
			},
			"consumption-mile-per-gallon": {
				"displayName": "mpg",
				"unitPattern-count-one": "{0} mpg",
				"unitPattern-count-other": "{0} mpg"
			},
			"consumption-mile-per-gallon-imperial": {
				"displayName": "mi/Imp gal",
				"unitPattern-count-one": "{0} mi/Imp gal",
				"unitPattern-count-other": "{0} mi/Imp gal"
			},
			"digital-petabyte": {
				"displayName": "PByte",
				"unitPattern-count-one": "{0} PB",
				"unitPattern-count-other": "{0} PB"
			},
			"digital-terabyte": {
				"displayName": "TB",
				"unitPattern-count-one": "{0} TB",
				"unitPattern-count-other": "{0} TB"
			},
			"digital-terabit": {
				"displayName": "Tb",
				"unitPattern-count-one": "{0} Tb",
				"unitPattern-count-other": "{0} Tb"
			},
			"digital-gigabyte": {
				"displayName": "GB",
				"unitPattern-count-one": "{0} GB",
				"unitPattern-count-other": "{0} GB"
			},
			"digital-gigabit": {
				"displayName": "Gb",
				"unitPattern-count-one": "{0} Gb",
				"unitPattern-count-other": "{0} Gb"
			},
			"digital-megabyte": {
				"displayName": "MB",
				"unitPattern-count-one": "{0} MB",
				"unitPattern-count-other": "{0} MB"
			},
			"digital-megabit": {
				"displayName": "Mb",
				"unitPattern-count-one": "{0} Mb",
				"unitPattern-count-other": "{0} Mb"
			},
			"digital-kilobyte": {
				"displayName": "kB",
				"unitPattern-count-one": "{0} kB",
				"unitPattern-count-other": "{0} kB"
			},
			"digital-kilobit": {
				"displayName": "kb",
				"unitPattern-count-one": "{0} kb",
				"unitPattern-count-other": "{0} kb"
			},
			"digital-byte": {
				"displayName": "byte",
				"unitPattern-count-one": "{0} byte",
				"unitPattern-count-other": "{0} byte"
			},
			"digital-bit": {
				"displayName": "bit",
				"unitPattern-count-one": "{0} bit",
				"unitPattern-count-other": "{0} bit"
			},
			"duration-century": {
				"displayName": "sec.",
				"unitPattern-count-one": "{0} sec.",
				"unitPattern-count-other": "{0} secc."
			},
			"duration-year": {
				"displayName": "anni",
				"unitPattern-count-one": "{0} anno",
				"unitPattern-count-other": "{0} anni",
				"perUnitPattern": "{0}/anno"
			},
			"duration-month": {
				"displayName": "mesi",
				"unitPattern-count-one": "{0} mese",
				"unitPattern-count-other": "{0} mesi",
				"perUnitPattern": "{0}/mese"
			},
			"duration-week": {
				"displayName": "settimane",
				"unitPattern-count-one": "{0} settimana",
				"unitPattern-count-other": "{0} settimane",
				"perUnitPattern": "{0}/settimana"
			},
			"duration-day": {
				"displayName": "giorni",
				"unitPattern-count-one": "{0} giorno",
				"unitPattern-count-other": "{0} giorni",
				"perUnitPattern": "{0}/giorno"
			},
			"duration-hour": {
				"displayName": "h",
				"unitPattern-count-one": "{0} h",
				"unitPattern-count-other": "{0} h",
				"perUnitPattern": "{0}/h"
			},
			"duration-minute": {
				"displayName": "min",
				"unitPattern-count-one": "{0} min",
				"unitPattern-count-other": "{0} min",
				"perUnitPattern": "{0}/min"
			},
			"duration-second": {
				"displayName": "s",
				"unitPattern-count-one": "{0} s",
				"unitPattern-count-other": "{0} s",
				"perUnitPattern": "{0}/s"
			},
			"duration-millisecond": {
				"displayName": "ms",
				"unitPattern-count-one": "{0} ms",
				"unitPattern-count-other": "{0} ms"
			},
			"duration-microsecond": {
				"displayName": "μs",
				"unitPattern-count-one": "{0} μs",
				"unitPattern-count-other": "{0} μs"
			},
			"duration-nanosecond": {
				"displayName": "ns",
				"unitPattern-count-one": "{0} ns",
				"unitPattern-count-other": "{0} ns"
			},
			"electric-ampere": {
				"displayName": "A",
				"unitPattern-count-one": "{0} A",
				"unitPattern-count-other": "{0} A"
			},
			"electric-milliampere": {
				"displayName": "mA",
				"unitPattern-count-one": "{0} mA",
				"unitPattern-count-other": "{0} mA"
			},
			"electric-ohm": {
				"displayName": "Ω",
				"unitPattern-count-one": "{0} Ω",
				"unitPattern-count-other": "{0} Ω"
			},
			"electric-volt": {
				"displayName": "V",
				"unitPattern-count-one": "{0} V",
				"unitPattern-count-other": "{0} V"
			},
			"energy-kilocalorie": {
				"displayName": "kcal",
				"unitPattern-count-one": "{0} kcal",
				"unitPattern-count-other": "{0} kcal"
			},
			"energy-calorie": {
				"displayName": "cal",
				"unitPattern-count-one": "{0} cal",
				"unitPattern-count-other": "{0} cal"
			},
			"energy-foodcalorie": {
				"displayName": "Cal",
				"unitPattern-count-one": "{0} Cal",
				"unitPattern-count-other": "{0} Cal"
			},
			"energy-kilojoule": {
				"displayName": "kJ",
				"unitPattern-count-one": "{0} kJ",
				"unitPattern-count-other": "{0} kJ"
			},
			"energy-joule": {
				"displayName": "J",
				"unitPattern-count-one": "{0} J",
				"unitPattern-count-other": "{0} J"
			},
			"energy-kilowatt-hour": {
				"displayName": "kWh",
				"unitPattern-count-one": "{0} kWh",
				"unitPattern-count-other": "{0} kWh"
			},
			"frequency-gigahertz": {
				"displayName": "GHz",
				"unitPattern-count-one": "{0} GHz",
				"unitPattern-count-other": "{0} GHz"
			},
			"frequency-megahertz": {
				"displayName": "MHz",
				"unitPattern-count-one": "{0} MHz",
				"unitPattern-count-other": "{0} MHz"
			},
			"frequency-kilohertz": {
				"displayName": "kHz",
				"unitPattern-count-one": "{0} kHz",
				"unitPattern-count-other": "{0} kHz"
			},
			"frequency-hertz": {
				"displayName": "Hz",
				"unitPattern-count-one": "{0} Hz",
				"unitPattern-count-other": "{0} Hz"
			},
			"length-kilometer": {
				"displayName": "km",
				"unitPattern-count-one": "{0} km",
				"unitPattern-count-other": "{0} km",
				"perUnitPattern": "{0}/km"
			},
			"length-meter": {
				"displayName": "m",
				"unitPattern-count-one": "{0} m",
				"unitPattern-count-other": "{0} m",
				"perUnitPattern": "{0}/m"
			},
			"length-decimeter": {
				"displayName": "dm",
				"unitPattern-count-one": "{0} dm",
				"unitPattern-count-other": "{0} dm"
			},
			"length-centimeter": {
				"displayName": "cm",
				"unitPattern-count-one": "{0} cm",
				"unitPattern-count-other": "{0} cm",
				"perUnitPattern": "{0}/cm"
			},
			"length-millimeter": {
				"displayName": "mm",
				"unitPattern-count-one": "{0} mm",
				"unitPattern-count-other": "{0} mm"
			},
			"length-micrometer": {
				"displayName": "µm",
				"unitPattern-count-one": "{0} µm",
				"unitPattern-count-other": "{0} µm"
			},
			"length-nanometer": {
				"displayName": "nm",
				"unitPattern-count-one": "{0} nm",
				"unitPattern-count-other": "{0} nm"
			},
			"length-picometer": {
				"displayName": "pm",
				"unitPattern-count-one": "{0} pm",
				"unitPattern-count-other": "{0} pm"
			},
			"length-mile": {
				"displayName": "miglia",
				"unitPattern-count-one": "{0} mi",
				"unitPattern-count-other": "{0} mi"
			},
			"length-yard": {
				"displayName": "iarde",
				"unitPattern-count-one": "{0} yd",
				"unitPattern-count-other": "{0} yd"
			},
			"length-foot": {
				"displayName": "ft",
				"unitPattern-count-one": "{0} ft",
				"unitPattern-count-other": "{0} ft",
				"perUnitPattern": "{0}/ft"
			},
			"length-inch": {
				"displayName": "in",
				"unitPattern-count-one": "{0} in",
				"unitPattern-count-other": "{0} in",
				"perUnitPattern": "{0}/in"
			},
			"length-parsec": {
				"displayName": "pc",
				"unitPattern-count-one": "{0} pc",
				"unitPattern-count-other": "{0} pc"
			},
			"length-light-year": {
				"displayName": "al",
				"unitPattern-count-one": "{0} al",
				"unitPattern-count-other": "{0} al"
			},
			"length-astronomical-unit": {
				"displayName": "au",
				"unitPattern-count-one": "{0} au",
				"unitPattern-count-other": "{0} au"
			},
			"length-furlong": {
				"displayName": "fur",
				"unitPattern-count-other": "{0} fur"
			},
			"length-fathom": {
				"displayName": "fm",
				"unitPattern-count-other": "{0} fth"
			},
			"length-nautical-mile": {
				"displayName": "nmi",
				"unitPattern-count-one": "{0} nmi",
				"unitPattern-count-other": "{0} nmi"
			},
			"length-mile-scandinavian": {
				"displayName": "smi",
				"unitPattern-count-one": "{0} smi",
				"unitPattern-count-other": "{0} smi"
			},
			"length-point": {
				"displayName": "pt",
				"unitPattern-count-one": "{0} pt",
				"unitPattern-count-other": "{0} pt"
			},
			"light-lux": {
				"displayName": "lx",
				"unitPattern-count-one": "{0} lx",
				"unitPattern-count-other": "{0} lx"
			},
			"mass-metric-ton": {
				"displayName": "t",
				"unitPattern-count-one": "{0} t",
				"unitPattern-count-other": "{0} t"
			},
			"mass-kilogram": {
				"displayName": "kg",
				"unitPattern-count-one": "{0} kg",
				"unitPattern-count-other": "{0} kg",
				"perUnitPattern": "{0}/kg"
			},
			"mass-gram": {
				"displayName": "grammi",
				"unitPattern-count-one": "{0} g",
				"unitPattern-count-other": "{0} g",
				"perUnitPattern": "{0}/g"
			},
			"mass-milligram": {
				"displayName": "mg",
				"unitPattern-count-one": "{0} mg",
				"unitPattern-count-other": "{0} mg"
			},
			"mass-microgram": {
				"displayName": "µg",
				"unitPattern-count-one": "{0} µg",
				"unitPattern-count-other": "{0} µg"
			},
			"mass-ton": {
				"displayName": "tn",
				"unitPattern-count-one": "{0} tn",
				"unitPattern-count-other": "{0} tn"
			},
			"mass-stone": {
				"displayName": "st",
				"unitPattern-count-other": "{0} st"
			},
			"mass-pound": {
				"displayName": "lb",
				"unitPattern-count-one": "{0} lb",
				"unitPattern-count-other": "{0} lb",
				"perUnitPattern": "{0}/lb"
			},
			"mass-ounce": {
				"displayName": "oz",
				"unitPattern-count-one": "{0} oz",
				"unitPattern-count-other": "{0} oz",
				"perUnitPattern": "{0}/oz"
			},
			"mass-ounce-troy": {
				"displayName": "ozt",
				"unitPattern-count-one": "{0} ozt",
				"unitPattern-count-other": "{0} ozt"
			},
			"mass-carat": {
				"displayName": "carati",
				"unitPattern-count-one": "{0} kt",
				"unitPattern-count-other": "{0} kt"
			},
			"power-gigawatt": {
				"displayName": "GW",
				"unitPattern-count-one": "{0} GW",
				"unitPattern-count-other": "{0} GW"
			},
			"power-megawatt": {
				"displayName": "MW",
				"unitPattern-count-one": "{0} MW",
				"unitPattern-count-other": "{0} MW"
			},
			"power-kilowatt": {
				"displayName": "kW",
				"unitPattern-count-one": "{0} kW",
				"unitPattern-count-other": "{0} kW"
			},
			"power-watt": {
				"displayName": "W",
				"unitPattern-count-one": "{0} W",
				"unitPattern-count-other": "{0} W"
			},
			"power-milliwatt": {
				"displayName": "mW",
				"unitPattern-count-one": "{0} mW",
				"unitPattern-count-other": "{0} mW"
			},
			"power-horsepower": {
				"displayName": "hp",
				"unitPattern-count-one": "{0} hp",
				"unitPattern-count-other": "{0} hp"
			},
			"pressure-hectopascal": {
				"displayName": "hPa",
				"unitPattern-count-one": "{0} hPa",
				"unitPattern-count-other": "{0} hPa"
			},
			"pressure-millimeter-of-mercury": {
				"displayName": "mm Hg",
				"unitPattern-count-one": "{0} mm Hg",
				"unitPattern-count-other": "{0} mm Hg"
			},
			"pressure-pound-per-square-inch": {
				"displayName": "psi",
				"unitPattern-count-one": "{0} psi",
				"unitPattern-count-other": "{0} psi"
			},
			"pressure-inch-hg": {
				"displayName": "inHg",
				"unitPattern-count-one": "{0} inHg",
				"unitPattern-count-other": "{0} inHg"
			},
			"pressure-millibar": {
				"displayName": "mbar",
				"unitPattern-count-one": "{0} mbar",
				"unitPattern-count-other": "{0} mbar"
			},
			"pressure-atmosphere": {
				"displayName": "atm",
				"unitPattern-count-one": "{0} atm",
				"unitPattern-count-other": "{0} atm"
			},
			"speed-kilometer-per-hour": {
				"displayName": "km/h",
				"unitPattern-count-one": "{0} km/h",
				"unitPattern-count-other": "{0} km/h"
			},
			"speed-meter-per-second": {
				"displayName": "m/s",
				"unitPattern-count-one": "{0} m/s",
				"unitPattern-count-other": "{0} m/s"
			},
			"speed-mile-per-hour": {
				"displayName": "mi/h",
				"unitPattern-count-one": "{0} mi/h",
				"unitPattern-count-other": "{0} mi/h"
			},
			"speed-knot": {
				"displayName": "kn",
				"unitPattern-count-one": "{0} kn",
				"unitPattern-count-other": "{0} kn"
			},
			"temperature-generic": {
				"displayName": "°",
				"unitPattern-count-one": "{0}°",
				"unitPattern-count-other": "{0}°"
			},
			"temperature-celsius": {
				"displayName": "°C",
				"unitPattern-count-one": "{0} °C",
				"unitPattern-count-other": "{0} °C"
			},
			"temperature-fahrenheit": {
				"displayName": "°F",
				"unitPattern-count-one": "{0} °F",
				"unitPattern-count-other": "{0} °F"
			},
			"temperature-kelvin": {
				"displayName": "K",
				"unitPattern-count-one": "{0} K",
				"unitPattern-count-other": "{0} K"
			},
			"volume-cubic-kilometer": {
				"displayName": "km³",
				"unitPattern-count-one": "{0} km³",
				"unitPattern-count-other": "{0} km³"
			},
			"volume-cubic-meter": {
				"displayName": "m³",
				"unitPattern-count-one": "{0} m³",
				"unitPattern-count-other": "{0} m³",
				"perUnitPattern": "{0}/m³"
			},
			"volume-cubic-centimeter": {
				"displayName": "cm³",
				"unitPattern-count-one": "{0} cm³",
				"unitPattern-count-other": "{0} cm³",
				"perUnitPattern": "{0}/cm³"
			},
			"volume-cubic-mile": {
				"displayName": "mi³",
				"unitPattern-count-one": "{0} mi³",
				"unitPattern-count-other": "{0} mi³"
			},
			"volume-cubic-yard": {
				"displayName": "yd³",
				"unitPattern-count-one": "{0} yd³",
				"unitPattern-count-other": "{0} yd³"
			},
			"volume-cubic-foot": {
				"displayName": "ft³",
				"unitPattern-count-one": "{0} ft³",
				"unitPattern-count-other": "{0} ft³"
			},
			"volume-cubic-inch": {
				"displayName": "in³",
				"unitPattern-count-one": "{0} in³",
				"unitPattern-count-other": "{0} in³"
			},
			"volume-megaliter": {
				"displayName": "Ml",
				"unitPattern-count-one": "{0} Ml",
				"unitPattern-count-other": "{0} Ml"
			},
			"volume-hectoliter": {
				"displayName": "hl",
				"unitPattern-count-one": "{0} hl",
				"unitPattern-count-other": "{0} hl"
			},
			"volume-liter": {
				"displayName": "l",
				"unitPattern-count-one": "{0} l",
				"unitPattern-count-other": "{0} l",
				"perUnitPattern": "{0}/l"
			},
			"volume-deciliter": {
				"displayName": "dl",
				"unitPattern-count-one": "{0} dl",
				"unitPattern-count-other": "{0} dl"
			},
			"volume-centiliter": {
				"displayName": "cl",
				"unitPattern-count-one": "{0} cl",
				"unitPattern-count-other": "{0} cl"
			},
			"volume-milliliter": {
				"displayName": "ml",
				"unitPattern-count-one": "{0} ml",
				"unitPattern-count-other": "{0} ml"
			},
			"volume-pint-metric": {
				"displayName": "mpt",
				"unitPattern-count-one": "{0} mpt",
				"unitPattern-count-other": "{0} mpt"
			},
			"volume-cup-metric": {
				"displayName": "mcup",
				"unitPattern-count-one": "{0} mc",
				"unitPattern-count-other": "{0} mc"
			},
			"volume-acre-foot": {
				"displayName": "ac ft",
				"unitPattern-count-one": "{0} ac ft",
				"unitPattern-count-other": "{0} ac ft"
			},
			"volume-bushel": {
				"displayName": "staia",
				"unitPattern-count-other": "{0} bu"
			},
			"volume-gallon": {
				"displayName": "gal",
				"unitPattern-count-one": "{0} gal",
				"unitPattern-count-other": "{0} gal",
				"perUnitPattern": "{0}/gal"
			},
			"volume-gallon-imperial": {
				"displayName": "Gal imp.",
				"unitPattern-count-one": "{0} gal imp.",
				"unitPattern-count-other": "{0} gal imp.",
				"perUnitPattern": "{0}/gal imp."
			},
			"volume-quart": {
				"displayName": "qt",
				"unitPattern-count-one": "{0} qt",
				"unitPattern-count-other": "{0} qt"
			},
			"volume-pint": {
				"displayName": "pt",
				"unitPattern-count-one": "{0} pt",
				"unitPattern-count-other": "{0} pt"
			},
			"volume-cup": {
				"displayName": "c",
				"unitPattern-count-one": "{0} c",
				"unitPattern-count-other": "{0} c"
			},
			"volume-fluid-ounce": {
				"displayName": "fl oz",
				"unitPattern-count-one": "{0} fl oz",
				"unitPattern-count-other": "{0} fl oz"
			},
			"volume-tablespoon": {
				"displayName": "tbsp",
				"unitPattern-count-one": "{0} tbsp",
				"unitPattern-count-other": "{0} tbsp"
			},
			"volume-teaspoon": {
				"displayName": "tsp",
				"unitPattern-count-one": "{0} tsp",
				"unitPattern-count-other": "{0} tsp"
			},
			"coordinateUnit": {
				"displayName": "punto",
				"east": "{0}E",
				"north": "{0}N",
				"south": "{0}S",
				"west": "{0}O"
			}
		}
	},
	"currencyDigits": {
		"ADP": 0,
		"AFN": 0,
		"ALL": 0,
		"BHD": 3,
		"BIF": 0,
		"BYR": 0,
		"CLF": 4,
		"CLP": 0,
		"DEFAULT": 2,
		"DJF": 0,
		"ESP": 0,
		"GNF": 0,
		"HUF": 0,
		"IQD": 0,
		"IRR": 0,
		"ISK": 0,
		"ITL": 0,
		"JOD": 3,
		"JPY": 0,
		"KMF": 0,
		"KPW": 0,
		"KRW": 0,
		"KWD": 3,
		"LAK": 0,
		"LBP": 0,
		"LUF": 0,
		"LYD": 3,
		"MGA": 0,
		"MGF": 0,
		"MMK": 0,
		"MRO": 0,
		"OMR": 3,
		"PYG": 0,
		"RSD": 0,
		"RWF": 0,
		"SLL": 0,
		"SOS": 0,
		"STD": 0,
		"SYP": 0,
		"TMM": 0,
		"TND": 3,
		"TRL": 0,
		"TWD": 0,
		"UGX": 0,
		"UYI": 0,
		"UYW": 4,
		"VND": 0,
		"VUV": 0,
		"XAF": 0,
		"XOF": 0,
		"XPF": 0,
		"YER": 0,
		"ZMK": 0,
		"ZWD": 0
	},
	"plurals": {
		"one": "i = 1 and v = 0"
	},
	"weekData-minDays": 4,
	"weekData-firstDay": 1,
	"weekData-weekendStart": 6,
	"weekData-weekendEnd": 0,
	"timeData": {
		"_allowed": "H hB h",
		"_preferred": "H"
	},
	"eras-gregorian": {
		"0": {
			"_end": "0-12-31"
		},
		"1": {
			"_start": "1-01-01"
		}
	},
	"eras-islamic": {
		"0": {
			"_start": "622-7-15"
		}
	},
	"eras-persian": {
		"0": {
			"_start": "622-01-01"
		}
	},
	"eras-buddhist": {
		"0": {
			"_start": "-542-01-01"
		}
	},
	"eras-japanese": {
		"232": {
			"_start": "1868-9-8"
		},
		"233": {
			"_start": "1912-7-30"
		},
		"234": {
			"_start": "1926-12-25"
		},
		"235": {
			"_start": "1989-1-8"
		},
		"236": {
			"_start": "2019-5-1"
		}
	}
}