{
	"__license": "This file has been derived from Unicode Common Locale Data Repository (CLDR) files (http://cldr.unicode.org). See the copyright and permission notice in the Unicode-Data-Files-LICENSE.txt available at the same location as this file or visit http://www.unicode.org/copyright.html",
	"languages": {
		"aa": "아파르어",
		"ab": "압카즈어",
		"ace": "아체어",
		"ach": "아콜리어",
		"ada": "아당메어",
		"ady": "아디게어",
		"ae": "아베스타어",
		"aeb": "튀니지 아랍어",
		"af": "아프리칸스어",
		"afh": "아프리힐리어",
		"agq": "아그햄어",
		"ain": "아이누어",
		"ak": "아칸어",
		"akk": "아카드어",
		"ale": "알류트어",
		"alt": "남부 알타이어",
		"am": "암하라어",
		"an": "아라곤어",
		"ang": "고대 영어",
		"anp": "앙가어",
		"ar": "아랍어",
		"ar_001": "현대 표준 아랍어",
		"arc": "아람어",
		"arn": "마푸둥군어",
		"arp": "아라파호어",
		"arq": "알제리 아랍어",
		"ars": "아랍어(나즈디)",
		"arw": "아라와크어",
		"ary": "모로코 아랍어",
		"arz": "이집트 아랍어",
		"as": "아삼어",
		"asa": "아수어",
		"ast": "아스투리아어",
		"av": "아바릭어",
		"awa": "아와히어",
		"ay": "아이마라어",
		"az": "아제르바이잔어",
		"az_alt-short": "아제리어",
		"ba": "바슈키르어",
		"bal": "발루치어",
		"ban": "발리어",
		"bas": "바사어",
		"bax": "바문어",
		"bbj": "고말라어",
		"be": "벨라루스어",
		"bej": "베자어",
		"bem": "벰바어",
		"bez": "베나어",
		"bfd": "바푸트어",
		"bg": "불가리아어",
		"bgn": "서부 발로치어",
		"bho": "호즈푸리어",
		"bi": "비슬라마어",
		"bik": "비콜어",
		"bin": "비니어",
		"bkm": "콤어",
		"bla": "식시카어",
		"bm": "밤바라어",
		"bn": "벵골어",
		"bo": "티베트어",
		"br": "브르타뉴어",
		"bra": "브라지어",
		"brh": "브라후이어",
		"brx": "보도어",
		"bs": "보스니아어",
		"bss": "아쿠즈어",
		"bua": "부리아타",
		"bug": "부기어",
		"bum": "불루어",
		"byn": "브린어",
		"byv": "메둠바어",
		"ca": "카탈로니아어",
		"cad": "카도어",
		"car": "카리브어",
		"cay": "카유가어",
		"cch": "앗삼어",
		"ccp": "ccp",
		"ce": "체첸어",
		"ceb": "세부아노어",
		"cgg": "치가어",
		"ch": "차모로어",
		"chb": "치브차어",
		"chg": "차가타이어",
		"chk": "추크어",
		"chm": "마리어",
		"chn": "치누크 자곤",
		"cho": "촉토어",
		"chp": "치페우얀",
		"chr": "체로키어",
		"chy": "샤이엔어",
		"ckb": "소라니 쿠르드어",
		"co": "코르시카어",
		"cop": "콥트어",
		"cr": "크리어",
		"crh": "크리민 터키어; 크리민 타타르어",
		"crs": "세이셸 크리올 프랑스어",
		"cs": "체코어",
		"csb": "카슈비아어",
		"cu": "교회 슬라브어",
		"cv": "추바시어",
		"cy": "웨일스어",
		"da": "덴마크어",
		"dak": "다코타어",
		"dar": "다르그와어",
		"dav": "타이타어",
		"de": "독일어",
		"de_AT": "독일어(오스트리아)",
		"de_CH": "고지 독일어(스위스)",
		"del": "델라웨어어",
		"den": "슬라브어",
		"dgr": "도그리브어",
		"din": "딩카어",
		"dje": "자르마어",
		"doi": "도그리어",
		"dsb": "저지 소르비아어",
		"dua": "두알라어",
		"dum": "중세 네덜란드어",
		"dv": "디베히어",
		"dyo": "졸라 포니어",
		"dyu": "드율라어",
		"dz": "종카어",
		"dzg": "다장가어",
		"ebu": "엠부어",
		"ee": "에웨어",
		"efi": "이픽어",
		"egy": "고대 이집트어",
		"eka": "이카죽어",
		"el": "그리스어",
		"elx": "엘람어",
		"en": "영어",
		"en_AU": "영어(호주)",
		"en_CA": "영어(캐나다)",
		"en_GB": "영어(영국)",
		"en_GB-alt-short": "영어(영국)",
		"en_US": "영어(미국)",
		"en_US-alt-short": "영어(미국)",
		"enm": "중세 영어",
		"eo": "에스페란토어",
		"es": "스페인어",
		"es_419": "스페인어(라틴 아메리카)",
		"es_ES": "스페인어(스페인)",
		"es_MX": "스페인어(멕시코)",
		"et": "에스토니아어",
		"eu": "바스크어",
		"ewo": "이원도어",
		"fa": "페르시아어",
		"fan": "팡그어",
		"fat": "판티어",
		"ff": "풀라어",
		"fi": "핀란드어",
		"fil": "필리핀어",
		"fj": "피지어",
		"fo": "페로어",
		"fon": "폰어",
		"fr": "프랑스어",
		"fr_CA": "프랑스어(캐나다)",
		"fr_CH": "프랑스어(스위스)",
		"frc": "케이준 프랑스어",
		"frm": "중세 프랑스어",
		"fro": "고대 프랑스어",
		"frr": "북부 프리지아어",
		"frs": "동부 프리슬란드어",
		"fur": "프리울리어",
		"fy": "서부 프리지아어",
		"ga": "아일랜드어",
		"gaa": "가어",
		"gag": "가가우스어",
		"gan": "간어",
		"gay": "가요어",
		"gba": "그바야어",
		"gbz": "조로아스터 다리어",
		"gd": "스코틀랜드 게일어",
		"gez": "게이즈어",
		"gil": "키리바시어",
		"gl": "갈리시아어",
		"glk": "길라키어",
		"gmh": "중세 고지 독일어",
		"gn": "과라니어",
		"goh": "고대 고지 독일어",
		"gom": "고아 콘칸어",
		"gon": "곤디어",
		"gor": "고론탈로어",
		"got": "고트어",
		"grb": "게르보어",
		"grc": "고대 그리스어",
		"gsw": "독일어(스위스)",
		"gu": "구자라트어",
		"guz": "구시어",
		"gv": "맹크스어",
		"gwi": "그위친어",
		"ha": "하우사어",
		"hai": "하이다어",
		"hak": "하카어",
		"haw": "하와이어",
		"he": "히브리어",
		"hi": "힌디어",
		"hif": "피지 힌디어",
		"hil": "헤리가뇬어",
		"hit": "하타이트어",
		"hmn": "히몸어",
		"ho": "히리 모투어",
		"hr": "크로아티아어",
		"hsb": "고지 소르비아어",
		"hsn": "샹어",
		"ht": "아이티어",
		"hu": "헝가리어",
		"hup": "후파어",
		"hy": "아르메니아어",
		"hz": "헤레로어",
		"ia": "인터링구아",
		"iba": "이반어",
		"ibb": "이비비오어",
		"id": "인도네시아어",
		"ie": "인테르링구에",
		"ig": "이그보어",
		"ii": "쓰촨 이어",
		"ik": "이누피아크어",
		"ilo": "이로코어",
		"inh": "인귀시어",
		"io": "이도어",
		"is": "아이슬란드어",
		"it": "이탈리아어",
		"iu": "이눅티투트어",
		"ja": "일본어",
		"jbo": "로반어",
		"jgo": "응곰바어",
		"jmc": "마차메어",
		"jpr": "유대-페르시아어",
		"jrb": "유대-아라비아어",
		"jv": "자바어",
		"ka": "조지아어",
		"kaa": "카라칼파크어",
		"kab": "커바일어",
		"kac": "카친어",
		"kaj": "까꼬토끄어",
		"kam": "캄바어",
		"kaw": "카위어",
		"kbd": "카바르디어",
		"kbl": "카넴부어",
		"kcg": "티얍어",
		"kde": "마콘데어",
		"kea": "크리올어",
		"kfo": "코로어",
		"kg": "콩고어",
		"kha": "카시어",
		"kho": "호탄어",
		"khq": "코이라 친니어",
		"khw": "코와르어",
		"ki": "키쿠유어",
		"kj": "쿠안야마어",
		"kk": "카자흐어",
		"kkj": "카코어",
		"kl": "그린란드어",
		"kln": "칼렌진어",
		"km": "크메르어",
		"kmb": "킴분두어",
		"kn": "칸나다어",
		"ko": "한국어",
		"koi": "코미페르먀크어",
		"kok": "코카니어",
		"kos": "코스라이엔어",
		"kpe": "크펠레어",
		"kr": "칸누리어",
		"krc": "카라챠이-발카르어",
		"krl": "카렐리야어",
		"kru": "쿠르크어",
		"ks": "카슈미르어",
		"ksb": "샴발라어",
		"ksf": "바피아어",
		"ksh": "콜로그니안어",
		"ku": "쿠르드어",
		"kum": "쿠믹어",
		"kut": "쿠테네어",
		"kv": "코미어",
		"kw": "콘월어",
		"ky": "키르기스어",
		"la": "라틴어",
		"lad": "라디노어",
		"lag": "랑기어",
		"lah": "라한다어",
		"lam": "람바어",
		"lb": "룩셈부르크어",
		"lez": "레즈기안어",
		"lfn": "링구아 프랑카 노바",
		"lg": "간다어",
		"li": "림버거어",
		"lkt": "라코타어",
		"ln": "링갈라어",
		"lo": "라오어",
		"lol": "몽고어",
		"lou": "루이지애나 크리올어",
		"loz": "로지어",
		"lrc": "북부 루리어",
		"lt": "리투아니아어",
		"lu": "루바-카탄가어",
		"lua": "루바-룰루아어",
		"lui": "루이세노어",
		"lun": "룬다어",
		"luo": "루오어",
		"lus": "루샤이어",
		"luy": "루야어",
		"lv": "라트비아어",
		"mad": "마두라어",
		"maf": "마파어",
		"mag": "마가히어",
		"mai": "마이틸리어",
		"mak": "마카사어",
		"man": "만딩고어",
		"mas": "마사이어",
		"mde": "마바어",
		"mdf": "모크샤어",
		"mdr": "만다르어",
		"men": "멘데어",
		"mer": "메루어",
		"mfe": "모리스얀어",
		"mg": "말라가시어",
		"mga": "중세 아일랜드어",
		"mgh": "마크후와-메토어",
		"mgo": "메타어",
		"mh": "마셜어",
		"mi": "마오리어",
		"mic": "미크맥어",
		"min": "미낭카바우어",
		"mk": "마케도니아어",
		"ml": "말라얄람어",
		"mn": "몽골어",
		"mnc": "만주어",
		"mni": "마니푸리어",
		"moh": "모호크어",
		"mos": "모시어",
		"mr": "마라티어",
		"mrj": "서부 마리어",
		"ms": "말레이어",
		"mt": "몰타어",
		"mua": "문당어",
		"mul": "다중 언어",
		"mus": "크리크어",
		"mwl": "미란데어",
		"mwr": "마르와리어",
		"my": "버마어",
		"mye": "미예네어",
		"myv": "엘즈야어",
		"mzn": "마잔데라니어",
		"na": "나우루어",
		"nan": "민난어",
		"nap": "나폴리어",
		"naq": "나마어",
		"nb": "노르웨이어(보크말)",
		"nd": "북부 은데벨레어",
		"nds": "저지 독일어",
		"nds_NL": "저지 색슨어",
		"ne": "네팔어",
		"new": "네와르어",
		"ng": "느동가어",
		"nia": "니아스어",
		"niu": "니웨언어",
		"nl": "네덜란드어",
		"nl_BE": "플라망어",
		"nmg": "크와시오어",
		"nn": "노르웨이어(니노르스크)",
		"nnh": "느기엠본어",
		"no": "노르웨이어",
		"nog": "노가이어",
		"non": "고대 노르웨이어",
		"nqo": "응코어",
		"nr": "남부 은데벨레어",
		"nso": "북부 소토어",
		"nus": "누에르어",
		"nv": "나바호어",
		"nwc": "고전 네와르어",
		"ny": "냔자어",
		"nym": "니암웨지어",
		"nyn": "니안콜어",
		"nyo": "뉴로어",
		"nzi": "느지마어",
		"oc": "오크어",
		"oj": "오지브와어",
		"om": "오로모어",
		"or": "오리야어",
		"os": "오세트어",
		"osa": "오세이지어",
		"ota": "오스만 터키어",
		"pa": "펀잡어",
		"pag": "판가시난어",
		"pal": "팔레비어",
		"pam": "팜팡가어",
		"pap": "파피아먼토어",
		"pau": "팔라우어",
		"pcm": "나이지리아 피진어",
		"peo": "고대 페르시아어",
		"phn": "페니키아어",
		"pi": "팔리어",
		"pl": "폴란드어",
		"pnt": "폰틱어",
		"pon": "폼페이어",
		"prg": "프러시아어",
		"pro": "고대 프로방스어",
		"ps": "파슈토어",
		"pt": "포르투갈어",
		"pt_BR": "포르투갈어(브라질)",
		"pt_PT": "포르투갈어(포르투갈)",
		"qu": "케추아어",
		"quc": "키체어",
		"raj": "라자스탄어",
		"rap": "라파뉴이",
		"rar": "라로통가어",
		"rm": "로만시어",
		"rn": "룬디어",
		"ro": "루마니아어",
		"ro_MD": "몰도바어",
		"rof": "롬보어",
		"rom": "집시어",
		"root": "어근",
		"ru": "러시아어",
		"rue": "루신어",
		"rup": "아로마니아어",
		"rw": "르완다어",
		"rwk": "르와어",
		"sa": "산스크리트어",
		"sad": "산다웨어",
		"sah": "야쿠트어",
		"sam": "사마리아 아랍어",
		"saq": "삼부루어",
		"sas": "사사크어",
		"sat": "산탈리어",
		"sba": "느감바이어",
		"sbp": "상구어",
		"sc": "사르디니아어",
		"scn": "시칠리아어",
		"sco": "스코틀랜드어",
		"sd": "신디어",
		"sdh": "남부 쿠르드어",
		"se": "북부 사미어",
		"see": "세네카어",
		"seh": "세나어",
		"sel": "셀쿠프어",
		"ses": "코이야보로 세니어",
		"sg": "산고어",
		"sga": "고대 아일랜드어",
		"sh": "세르비아-크로아티아어",
		"shi": "타셸히트어",
		"shn": "샨어",
		"shu": "차디언 아라비아어",
		"si": "스리랑카어",
		"sid": "시다모어",
		"sk": "슬로바키아어",
		"sl": "슬로베니아어",
		"sm": "사모아어",
		"sma": "남부 사미어",
		"smj": "룰레 사미어",
		"smn": "이나리 사미어",
		"sms": "스콜트 사미어",
		"sn": "쇼나어",
		"snk": "소닌케어",
		"so": "소말리아어",
		"sog": "소그디엔어",
		"sq": "알바니아어",
		"sr": "세르비아어",
		"srn": "스라난 통가어",
		"srr": "세레르어",
		"ss": "시스와티어",
		"ssy": "사호어",
		"st": "남부 소토어",
		"su": "순다어",
		"suk": "수쿠마어",
		"sus": "수수어",
		"sux": "수메르어",
		"sv": "스웨덴어",
		"sw": "스와힐리어",
		"sw_CD": "콩고 스와힐리어",
		"swb": "코모로어",
		"syc": "고전 시리아어",
		"syr": "시리아어",
		"ta": "타밀어",
		"te": "텔루구어",
		"tem": "팀니어",
		"teo": "테조어",
		"ter": "테레노어",
		"tet": "테툼어",
		"tg": "타지크어",
		"th": "태국어",
		"ti": "티그리냐어",
		"tig": "티그레어",
		"tiv": "티브어",
		"tk": "투르크멘어",
		"tkl": "토켈라우제도어",
		"tkr": "차후르어",
		"tl": "타갈로그어",
		"tlh": "클링온어",
		"tli": "틀링깃족어",
		"tly": "탈리쉬어",
		"tmh": "타마섹어",
		"tn": "츠와나어",
		"to": "통가어",
		"tog": "니아사 통가어",
		"tpi": "토크 피신어",
		"tr": "터키어",
		"trv": "타로코어",
		"ts": "총가어",
		"tsi": "트심시안어",
		"tt": "타타르어",
		"tum": "툼부카어",
		"tvl": "투발루어",
		"tw": "트위어",
		"twq": "타사와크어",
		"ty": "타히티어",
		"tyv": "투비니안어",
		"tzm": "중앙 모로코 타마지트어",
		"udm": "우드말트어",
		"ug": "위구르어",
		"uga": "유가리틱어",
		"uk": "우크라이나어",
		"umb": "움분두어",
		"und": "알 수 없는 언어",
		"ur": "우르두어",
		"uz": "우즈베크어",
		"vai": "바이어",
		"ve": "벤다어",
		"vi": "베트남어",
		"vo": "볼라퓌크어",
		"vot": "보틱어",
		"vun": "분조어",
		"wa": "왈론어",
		"wae": "월저어",
		"wal": "월라이타어",
		"war": "와라이어",
		"was": "와쇼어",
		"wbp": "왈피리어",
		"wo": "월로프어",
		"wuu": "우어",
		"xal": "칼미크어",
		"xh": "코사어",
		"xog": "소가어",
		"yao": "야오족어",
		"yap": "얍페세어",
		"yav": "양본어",
		"ybb": "옘바어",
		"yi": "이디시어",
		"yo": "요루바어",
		"yue": "광둥어",
		"za": "주앙어",
		"zap": "사포테크어",
		"zbl": "블리스 심볼",
		"zen": "제나가어",
		"zgh": "표준 모로코 타마지트어",
		"zh": "중국어",
		"zh_Hans": "중국어(간체)",
		"zh_Hant": "중국어(번체)",
		"zu": "줄루어",
		"zun": "주니어",
		"zxx": "언어 관련 내용 없음",
		"zza": "자자어"
	},
	"scripts": {
		"Adlm": "Adlm",
		"Afak": "아파카 문자",
		"Aghb": "코카시안 알바니아 문자",
		"Ahom": "Ahom",
		"Arab": "아랍 문자",
		"Arab-alt-variant": "페르소-아라비아 문자",
		"Armi": "아랍제국 문자",
		"Armn": "아르메니아 문자",
		"Avst": "아베스타 문자",
		"Bali": "발리 문자",
		"Bamu": "바뭄 문자",
		"Bass": "바사바흐 문자",
		"Batk": "바타크 문자",
		"Beng": "벵골 문자",
		"Bhks": "Bhks",
		"Blis": "블리스기호 문자",
		"Bopo": "주음부호",
		"Brah": "브라미",
		"Brai": "브라유 점자",
		"Bugi": "부기 문자",
		"Buhd": "부히드 문자",
		"Cakm": "차크마 문자",
		"Cans": "통합 캐나다 토착어",
		"Cari": "카리 문자",
		"Cham": "칸 고어",
		"Cher": "체로키 문자",
		"Cirt": "키르쓰",
		"Copt": "콥트 문자",
		"Cprt": "키프로스 문자",
		"Cyrl": "키릴 문자",
		"Cyrs": "고대교회슬라브어 키릴문자",
		"Deva": "데바나가리 문자",
		"Dogr": "Dogr",
		"Dsrt": "디저렛 문자",
		"Dupl": "듀플로이안 문자",
		"Egyd": "고대 이집트 민중문자",
		"Egyh": "고대 이집트 신관문자",
		"Egyp": "고대 이집트 신성문자",
		"Elba": "엘바산 문자",
		"Ethi": "에티오피아 문자",
		"Geok": "그루지야 쿠츠리 문자",
		"Geor": "조지아 문자",
		"Glag": "글라골 문자",
		"Gong": "Gong",
		"Gonm": "Gonm",
		"Goth": "고트 문자",
		"Gran": "그란타 문자",
		"Grek": "그리스 문자",
		"Gujr": "구자라트 문자",
		"Guru": "구르무키 문자",
		"Hanb": "주음 자모",
		"Hang": "한글",
		"Hani": "한자",
		"Hano": "하누누 문자",
		"Hans": "간체",
		"Hans-alt-stand-alone": "한자 간체",
		"Hant": "번체",
		"Hant-alt-stand-alone": "한자 번체",
		"Hatr": "Hatr",
		"Hebr": "히브리 문자",
		"Hira": "히라가나",
		"Hluw": "아나톨리아 상형문자",
		"Hmng": "파하우 몽 문자",
		"Hrkt": "가나",
		"Hung": "고대 헝가리 문자",
		"Inds": "인더스 문자",
		"Ital": "고대 이탈리아 문자",
		"Jamo": "자모",
		"Java": "자바 문자",
		"Jpan": "일본 문자",
		"Jurc": "줄첸 문자",
		"Kali": "카야 리 문자",
		"Kana": "가타카나",
		"Khar": "카로슈티 문자",
		"Khmr": "크메르 문자",
		"Khoj": "코즈키 문자",
		"Knda": "칸나다 문자",
		"Kore": "한국어",
		"Kpel": "크펠레 문자",
		"Kthi": "카이시 문자",
		"Lana": "란나 문자",
		"Laoo": "라오 문자",
		"Latf": "독일식 로마자",
		"Latg": "아일랜드식 로마자",
		"Latn": "로마자",
		"Lepc": "렙차 문자",
		"Limb": "림부 문자",
		"Lina": "선형 문자(A)",
		"Linb": "선형 문자(B)",
		"Lisu": "프레이저 문자",
		"Loma": "로마 문자",
		"Lyci": "리키아 문자",
		"Lydi": "리디아 문자",
		"Mahj": "마하자니 문자",
		"Maka": "Maka",
		"Mand": "만다이아 문자",
		"Mani": "마니교 문자",
		"Marc": "Marc",
		"Maya": "마야 상형 문자",
		"Medf": "Medf",
		"Mend": "멘데 문자",
		"Merc": "메로에 필기체",
		"Mero": "메로에 문자",
		"Mlym": "말라얄람 문자",
		"Modi": "Modi",
		"Mong": "몽골 문자",
		"Moon": "문 문자",
		"Mroo": "므로 문자",
		"Mtei": "메이테이 마옉 문자",
		"Mult": "Mult",
		"Mymr": "미얀마 문자",
		"Narb": "옛 북부 아라비아 문자",
		"Nbat": "나바테아 문자",
		"Newa": "Newa",
		"Nkgb": "나시 게바 문자",
		"Nkoo": "응코 문자",
		"Nshu": "누슈 문자",
		"Ogam": "오검 문자",
		"Olck": "올 치키 문자",
		"Orkh": "오르혼어",
		"Orya": "오리야 문자",
		"Osge": "Osge",
		"Osma": "오스마니아 문자",
		"Palm": "팔미라 문자",
		"Pauc": "Pauc",
		"Perm": "고대 페름 문자",
		"Phag": "파스파 문자",
		"Phli": "명문 팔라비 문자",
		"Phlp": "솔터 팔라비 문자",
		"Phlv": "북 팔라비 문자",
		"Phnx": "페니키아 문자",
		"Plrd": "폴라드 표음 문자",
		"Prti": "명문 파라티아 문자",
		"Qaag": "Qaag",
		"Rjng": "레장 문자",
		"Rohg": "Rohg",
		"Roro": "롱고롱고",
		"Runr": "룬 문자",
		"Samr": "사마리아 문자",
		"Sara": "사라티",
		"Sarb": "옛 남부 아라비아 문자",
		"Saur": "사우라슈트라 문자",
		"Sgnw": "수화 문자",
		"Shaw": "샤비안 문자",
		"Shrd": "사라다 문자",
		"Sidd": "실담자",
		"Sind": "쿠다와디 문자",
		"Sinh": "신할라 문자",
		"Sogd": "Sogd",
		"Sogo": "Sogo",
		"Sora": "소라 솜펭 문자",
		"Soyo": "Soyo",
		"Sund": "순다 문자",
		"Sylo": "실헤티 나가리",
		"Syrc": "시리아 문자",
		"Syre": "에스트랑겔로식 시리아 문자",
		"Syrj": "서부 시리아 문자",
		"Syrn": "동부 시리아 문자",
		"Tagb": "타그반와 문자",
		"Takr": "타크리 문자",
		"Tale": "타이 레 문자",
		"Talu": "신 타이 루에",
		"Taml": "타밀 문자",
		"Tang": "탕구트 문자",
		"Tavt": "태국 베트남 문자",
		"Telu": "텔루구 문자",
		"Teng": "텡과르 문자",
		"Tfng": "티피나그 문자",
		"Tglg": "타갈로그 문자",
		"Thaa": "타나 문자",
		"Thai": "타이 문자",
		"Tibt": "티베트 문자",
		"Tirh": "티르후타 문자",
		"Ugar": "우가리트 문자",
		"Vaii": "바이 문자",
		"Visp": "시화법",
		"Wara": "바랑 크시티 문자",
		"Wole": "울레아이",
		"Xpeo": "고대 페르시아 문자",
		"Xsux": "수메르-아카드어 설형문자",
		"Yiii": "이 문자",
		"Zanb": "Zanb",
		"Zinh": "구전 문자",
		"Zmth": "수학 기호",
		"Zsye": "이모티콘",
		"Zsym": "기호",
		"Zxxx": "구전",
		"Zyyy": "일반 문자",
		"Zzzz": "알 수 없는 문자"
	},
	"territories": {
		"142": "아시아",
		"143": "중앙 아시아",
		"145": "서아시아",
		"150": "유럽",
		"151": "동유럽",
		"154": "북유럽",
		"155": "서유럽",
		"202": "사하라 사막 이남 아프리카",
		"419": "라틴 아메리카",
		"001": "세계",
		"002": "아프리카",
		"003": "북아메리카",
		"005": "남아메리카(남미)",
		"009": "오세아니아",
		"011": "서부 아프리카",
		"013": "중앙 아메리카",
		"014": "동부 아프리카",
		"015": "북부 아프리카",
		"017": "중부 아프리카",
		"018": "남부 아프리카",
		"019": "아메리카 대륙",
		"021": "북부 아메리카",
		"029": "카리브 제도",
		"030": "동아시아",
		"034": "남아시아",
		"035": "동남아시아",
		"039": "남유럽",
		"053": "오스트랄라시아",
		"054": "멜라네시아",
		"057": "미크로네시아 지역",
		"061": "폴리네시아",
		"AC": "어센션 섬",
		"AD": "안도라",
		"AE": "아랍에미리트",
		"AF": "아프가니스탄",
		"AG": "앤티가 바부다",
		"AI": "앵귈라",
		"AL": "알바니아",
		"AM": "아르메니아",
		"AO": "앙골라",
		"AQ": "남극 대륙",
		"AR": "아르헨티나",
		"AS": "아메리칸 사모아",
		"AT": "오스트리아",
		"AU": "오스트레일리아",
		"AW": "아루바",
		"AX": "올란드 제도",
		"AZ": "아제르바이잔",
		"BA": "보스니아 헤르체고비나",
		"BB": "바베이도스",
		"BD": "방글라데시",
		"BE": "벨기에",
		"BF": "부르키나파소",
		"BG": "불가리아",
		"BH": "바레인",
		"BI": "부룬디",
		"BJ": "베냉",
		"BL": "생바르텔레미",
		"BM": "버뮤다",
		"BN": "브루나이",
		"BO": "볼리비아",
		"BQ": "네덜란드령 카리브",
		"BR": "브라질",
		"BS": "바하마",
		"BT": "부탄",
		"BV": "부베섬",
		"BW": "보츠와나",
		"BY": "벨라루스",
		"BZ": "벨리즈",
		"CA": "캐나다",
		"CC": "코코스 제도",
		"CD": "콩고-킨샤사",
		"CD-alt-variant": "콩고민주공화국",
		"CF": "중앙 아프리카 공화국",
		"CG": "콩고-브라자빌",
		"CG-alt-variant": "콩고 공화국",
		"CH": "스위스",
		"CI": "코트디부아르",
		"CI-alt-variant": "아이보리 코스트",
		"CK": "쿡 제도",
		"CL": "칠레",
		"CM": "카메룬",
		"CN": "중국",
		"CO": "콜롬비아",
		"CP": "클립퍼튼 섬",
		"CR": "코스타리카",
		"CU": "쿠바",
		"CV": "카보베르데",
		"CW": "퀴라소",
		"CX": "크리스마스섬",
		"CY": "키프로스",
		"CZ": "체코",
		"CZ-alt-variant": "체코 공화국",
		"DE": "독일",
		"DG": "디에고 가르시아",
		"DJ": "지부티",
		"DK": "덴마크",
		"DM": "도미니카",
		"DO": "도미니카 공화국",
		"DZ": "알제리",
		"EA": "세우타 및 멜리야",
		"EC": "에콰도르",
		"EE": "에스토니아",
		"EG": "이집트",
		"EH": "서사하라",
		"ER": "에리트리아",
		"ES": "스페인",
		"ET": "에티오피아",
		"EU": "유럽 연합",
		"EZ": "유로존",
		"FI": "핀란드",
		"FJ": "피지",
		"FK": "포클랜드 제도",
		"FK-alt-variant": "포클랜드 제도(말비나스 군도)",
		"FM": "미크로네시아",
		"FO": "페로 제도",
		"FR": "프랑스",
		"GA": "가봉",
		"GB": "영국",
		"GB-alt-short": "영국",
		"GD": "그레나다",
		"GE": "조지아",
		"GF": "프랑스령 기아나",
		"GG": "건지",
		"GH": "가나",
		"GI": "지브롤터",
		"GL": "그린란드",
		"GM": "감비아",
		"GN": "기니",
		"GP": "과들루프",
		"GQ": "적도 기니",
		"GR": "그리스",
		"GS": "사우스조지아 사우스샌드위치 제도",
		"GT": "과테말라",
		"GU": "괌",
		"GW": "기니비사우",
		"GY": "가이아나",
		"HK": "홍콩(중국 특별행정구)",
		"HK-alt-short": "홍콩",
		"HM": "허드 맥도널드 제도",
		"HN": "온두라스",
		"HR": "크로아티아",
		"HT": "아이티",
		"HU": "헝가리",
		"IC": "카나리아 제도",
		"ID": "인도네시아",
		"IE": "아일랜드",
		"IL": "이스라엘",
		"IM": "맨 섬",
		"IN": "인도",
		"IO": "영국령 인도양 식민지",
		"IQ": "이라크",
		"IR": "이란",
		"IS": "아이슬란드",
		"IT": "이탈리아",
		"JE": "저지",
		"JM": "자메이카",
		"JO": "요르단",
		"JP": "일본",
		"KE": "케냐",
		"KG": "키르기스스탄",
		"KH": "캄보디아",
		"KI": "키리바시",
		"KM": "코모로",
		"KN": "세인트키츠 네비스",
		"KP": "북한",
		"KR": "대한민국",
		"KW": "쿠웨이트",
		"KY": "케이맨 제도",
		"KZ": "카자흐스탄",
		"LA": "라오스",
		"LB": "레바논",
		"LC": "세인트루시아",
		"LI": "리히텐슈타인",
		"LK": "스리랑카",
		"LR": "라이베리아",
		"LS": "레소토",
		"LT": "리투아니아",
		"LU": "룩셈부르크",
		"LV": "라트비아",
		"LY": "리비아",
		"MA": "모로코",
		"MC": "모나코",
		"MD": "몰도바",
		"ME": "몬테네그로",
		"MF": "생마르탱",
		"MG": "마다가스카르",
		"MH": "마셜 제도",
		"MK": "마케도니아",
		"MK-alt-variant": "마케도니아(FYROM)",
		"ML": "말리",
		"MM": "미얀마",
		"MN": "몽골",
		"MO": "마카오(중국 특별행정구)",
		"MO-alt-short": "마카오",
		"MP": "북마리아나제도",
		"MQ": "마르티니크",
		"MR": "모리타니",
		"MS": "몬트세라트",
		"MT": "몰타",
		"MU": "모리셔스",
		"MV": "몰디브",
		"MW": "말라위",
		"MX": "멕시코",
		"MY": "말레이시아",
		"MZ": "모잠비크",
		"NA": "나미비아",
		"NC": "뉴칼레도니아",
		"NE": "니제르",
		"NF": "노퍽섬",
		"NG": "나이지리아",
		"NI": "니카라과",
		"NL": "네덜란드",
		"NO": "노르웨이",
		"NP": "네팔",
		"NR": "나우루",
		"NU": "니우에",
		"NZ": "뉴질랜드",
		"OM": "오만",
		"PA": "파나마",
		"PE": "페루",
		"PF": "프랑스령 폴리네시아",
		"PG": "파푸아뉴기니",
		"PH": "필리핀",
		"PK": "파키스탄",
		"PL": "폴란드",
		"PM": "생피에르 미클롱",
		"PN": "핏케언 섬",
		"PR": "푸에르토리코",
		"PS": "팔레스타인 지구",
		"PS-alt-short": "팔레스타인",
		"PT": "포르투갈",
		"PW": "팔라우",
		"PY": "파라과이",
		"QA": "카타르",
		"QO": "오세아니아 외곽",
		"RE": "리유니온",
		"RO": "루마니아",
		"RS": "세르비아",
		"RU": "러시아",
		"RW": "르완다",
		"SA": "사우디아라비아",
		"SB": "솔로몬 제도",
		"SC": "세이셸",
		"SD": "수단",
		"SE": "스웨덴",
		"SG": "싱가포르",
		"SH": "세인트헬레나",
		"SI": "슬로베니아",
		"SJ": "스발바르제도-얀마웬섬",
		"SK": "슬로바키아",
		"SL": "시에라리온",
		"SM": "산마리노",
		"SN": "세네갈",
		"SO": "소말리아",
		"SR": "수리남",
		"SS": "남수단",
		"ST": "상투메 프린시페",
		"SV": "엘살바도르",
		"SX": "신트마르턴",
		"SY": "시리아",
		"SZ": "스와질란드",
		"TA": "트리스탄다쿠나",
		"TC": "터크스 케이커스 제도",
		"TD": "차드",
		"TF": "프랑스 남부 지방",
		"TG": "토고",
		"TH": "태국",
		"TJ": "타지키스탄",
		"TK": "토켈라우",
		"TL": "동티모르",
		"TL-alt-variant": "티모르레스테",
		"TM": "투르크메니스탄",
		"TN": "튀니지",
		"TO": "통가",
		"TR": "터키",
		"TT": "트리니다드 토바고",
		"TV": "투발루",
		"TW": "대만",
		"TZ": "탄자니아",
		"UA": "우크라이나",
		"UG": "우간다",
		"UM": "미국령 해외 제도",
		"UN": "유엔",
		"UN-alt-short": "유엔",
		"US": "미국",
		"US-alt-short": "미국",
		"UY": "우루과이",
		"UZ": "우즈베키스탄",
		"VA": "바티칸 시국",
		"VC": "세인트빈센트그레나딘",
		"VE": "베네수엘라",
		"VG": "영국령 버진아일랜드",
		"VI": "미국령 버진아일랜드",
		"VN": "베트남",
		"VU": "바누아투",
		"WF": "왈리스-푸투나 제도",
		"WS": "사모아",
		"XA": "XA",
		"XB": "XB",
		"XK": "코소보",
		"YE": "예멘",
		"YT": "마요트",
		"ZA": "남아프리카",
		"ZM": "잠비아",
		"ZW": "짐바브웨",
		"ZZ": "알려지지 않은 지역"
	},
	"orientation": "left-to-right",
	"ca-gregorian": {
		"dateFormats": {
			"full": "y년 M월 d일 EEEE",
			"long": "y년 M월 d일",
			"medium": "y. M. d.",
			"short": "yy. M. d."
		},
		"timeFormats": {
			"full": "a h시 m분 s초 zzzz",
			"long": "a h시 m분 s초 z",
			"medium": "a h:mm:ss",
			"short": "a h:mm"
		},
		"dateTimeFormats": {
			"full": "{1} {0}",
			"long": "{1} {0}",
			"medium": "{1} {0}",
			"short": "{1} {0}",
			"availableFormats": {
				"Bh": "B h시",
				"Bhm": "B h:mm",
				"Bhms": "B h:mm:ss",
				"d": "d일",
				"E": "ccc",
				"EBhm": "(E) B h:mm",
				"EBhms": "(E) B h:mm:ss",
				"Ed": "d일 (E)",
				"EEEEd": "d일 EEEE",
				"Ehm": "(E) a h:mm",
				"EHm": "(E) HH:mm",
				"Ehms": "(E) a h:mm:ss",
				"EHms": "(E) HH:mm:ss",
				"Gy": "G y년",
				"GyMMM": "G y년 MMM",
				"GyMMMd": "G y년 MMM d일",
				"GyMMMEd": "G y년 MMM d일 (E)",
				"GyMMMEEEEd": "G y년 MMM d일 EEEE",
				"h": "a h시",
				"H": "H시",
				"HHmmss": "HH:mm:ss",
				"hm": "a h:mm",
				"Hm": "HH:mm",
				"hms": "a h:mm:ss",
				"Hms": "H시 m분 s초",
				"hmsv": "a h:mm:ss v",
				"Hmsv": "H시 m분 s초 v",
				"hmv": "a h:mm v",
				"Hmv": "HH:mm v",
				"M": "M월",
				"Md": "M. d.",
				"MEd": "M. d. (E)",
				"MEEEEd": "M. d. EEEE",
				"MMM": "LLL",
				"MMMd": "MMM d일",
				"MMMEd": "MMM d일 (E)",
				"MMMEEEEd": "MMM d일 EEEE",
				"MMMMd": "MMMM d일",
				"mmss": "mm:ss",
				"ms": "mm:ss",
				"y": "y년",
				"yM": "y. M.",
				"yMd": "y. M. d.",
				"yMEd": "y. M. d. (E)",
				"yMEEEEd": "y. M. d. EEEE",
				"yMM": "y. M.",
				"yMMM": "y년 MMM",
				"yMMMd": "y년 MMM d일",
				"yMMMEd": "y년 MMM d일 (E)",
				"yMMMEEEEd": "y년 MMM d일 EEEE",
				"yMMMM": "y년 MMMM",
				"yQQQ": "y년 QQQ",
				"yQQQQ": "y년 QQQQ",
				"MMMMW": "MMM W번째 주",
				"yw": "Y년 w번째 주"
			},
			"appendItems": {
				"Day": "{0} ({2}: {1})",
				"Day-Of-Week": "{0} {1}",
				"Era": "{1} {0}",
				"Hour": "{0} ({2}: {1})",
				"Minute": "{0} ({2}: {1})",
				"Month": "{0} ({2}: {1})",
				"Quarter": "{0} ({2}: {1})",
				"Second": "{0} ({2}: {1})",
				"Timezone": "{0} {1}",
				"Week": "{0} ({2}: {1})",
				"Year": "{1} {0}"
			},
			"intervalFormats": {
				"intervalFormatFallback": "{0} ~ {1}",
				"d": {
					"d": "d일~d일"
				},
				"Gy": {
					"G": "G y – G y",
					"y": "G y–y"
				},
				"GyM": {
					"G": "GGGGG y-MM – GGGGG y-MM",
					"M": "GGGGG y-MM – y-MM",
					"y": "GGGGG y-MM – y-MM"
				},
				"GyMd": {
					"d": "GGGGG y-MM-dd – y-MM-dd",
					"G": "GGGGG y-MM-dd – GGGGG y-MM-dd",
					"M": "GGGGG y-MM-dd – y-MM-dd",
					"y": "GGGGG y-MM-dd – y-MM-dd"
				},
				"GyMEd": {
					"d": "GGGGG y-MM-dd, E – y-MM-dd, E",
					"G": "GGGGG y-MM-dd, E – GGGGG y-MM-dd, E",
					"M": "GGGGG y-MM-dd, E – y-MM-dd, E",
					"y": "GGGGG y-MM-dd, E – y-MM-dd, E"
				},
				"GyMMM": {
					"G": "G y MMM – G y MMM",
					"M": "G y MMM–MMM",
					"y": "G y MMM – y MMM"
				},
				"GyMMMd": {
					"d": "G y MMM d–d",
					"G": "G y MMM d – G y MMM d",
					"M": "G y MMM d – MMM d",
					"y": "G y MMM d – y MMM d"
				},
				"GyMMMEd": {
					"d": "G y MMM d, E – MMM d, E",
					"G": "G y MMM d, E – G y MMM d, E",
					"M": "G y MMM d, E – MMM d, E",
					"y": "G y MMM d, E – y MMM d, E"
				},
				"h": {
					"a": "a h시 ~ a h시",
					"h": "a h시 ~ h시"
				},
				"H": {
					"H": "H ~ H시"
				},
				"hm": {
					"a": "a h:mm ~ a h:mm",
					"h": "a h:mm~h:mm",
					"m": "a h:mm~h:mm"
				},
				"Hm": {
					"H": "HH:mm ~ HH:mm",
					"m": "HH:mm ~ HH:mm"
				},
				"hmv": {
					"a": "a h:mm ~ a h:mm v",
					"h": "a h:mm~h:mm v",
					"m": "a h:mm~h:mm v"
				},
				"Hmv": {
					"H": "HH:mm ~ HH:mm v",
					"m": "HH:mm ~ HH:mm v"
				},
				"hv": {
					"a": "a h시 ~ a h시(v)",
					"h": "a h시 ~ h시(v)"
				},
				"Hv": {
					"H": "HH ~ HH시 v"
				},
				"M": {
					"M": "M월~M월"
				},
				"Md": {
					"d": "M. d ~ M. d",
					"M": "M. d ~ M. d"
				},
				"MEd": {
					"d": "M. d (E) ~ M. d (E)",
					"M": "M. d (E) ~ M. d (E)"
				},
				"MMM": {
					"M": "MMM~MMM"
				},
				"MMMd": {
					"d": "MMM d일~d일",
					"M": "M월 d일 ~ M월 d일"
				},
				"MMMEd": {
					"d": "M월 d일 (E) ~ d일 (E)",
					"M": "M월 d일 (E) ~ M월 d일 (E)"
				},
				"MMMM": {
					"M": "LLLL–LLLL"
				},
				"y": {
					"y": "y년 ~ y년"
				},
				"yM": {
					"M": "y. M ~ y. M",
					"y": "y. M ~ y. M"
				},
				"yMd": {
					"d": "y. M. d. ~ y. M. d.",
					"M": "y. M. d. ~ y. M. d.",
					"y": "y. M. d. ~ y. M. d."
				},
				"yMEd": {
					"d": "y. M. d. (E) ~ y. M. d. (E)",
					"M": "y. M. d. (E) ~ y. M. d. (E)",
					"y": "y. M. d. (E) ~ y. M. d. (E)"
				},
				"yMMM": {
					"M": "y년 M월~M월",
					"y": "y년 M월 ~ y년 M월"
				},
				"yMMMd": {
					"d": "y년 M월 d일~d일",
					"M": "y년 M월 d일 ~ M월 d일",
					"y": "y년 M월 d일 ~ y년 M월 d일"
				},
				"yMMMEd": {
					"d": "y년 M월 d일 (E) ~ d일 (E)",
					"M": "y년 M월 d일 (E) ~ M월 d일 (E)",
					"y": "y년 M월 d일 (E) ~ y년 M월 d일 (E)"
				},
				"yMMMEEEEd": {
					"d": "y년 M월 d일 EEEE ~ d일 EEEE",
					"M": "y년 M월 d일 EEEE ~ M월 d일 EEEE",
					"y": "y년 M월 d일 EEEE ~ y년 M월 d일 EEEE"
				},
				"yMMMM": {
					"M": "y년 MMMM ~ MMMM",
					"y": "y년 MMMM ~ y년 MMMM"
				}
			}
		},
		"months": {
			"format": {
				"abbreviated": [
					"1월",
					"2월",
					"3월",
					"4월",
					"5월",
					"6월",
					"7월",
					"8월",
					"9월",
					"10월",
					"11월",
					"12월"
				],
				"narrow": [
					"1월",
					"2월",
					"3월",
					"4월",
					"5월",
					"6월",
					"7월",
					"8월",
					"9월",
					"10월",
					"11월",
					"12월"
				],
				"wide": [
					"1월",
					"2월",
					"3월",
					"4월",
					"5월",
					"6월",
					"7월",
					"8월",
					"9월",
					"10월",
					"11월",
					"12월"
				]
			},
			"stand-alone": {
				"abbreviated": [
					"1월",
					"2월",
					"3월",
					"4월",
					"5월",
					"6월",
					"7월",
					"8월",
					"9월",
					"10월",
					"11월",
					"12월"
				],
				"narrow": [
					"1월",
					"2월",
					"3월",
					"4월",
					"5월",
					"6월",
					"7월",
					"8월",
					"9월",
					"10월",
					"11월",
					"12월"
				],
				"wide": [
					"1월",
					"2월",
					"3월",
					"4월",
					"5월",
					"6월",
					"7월",
					"8월",
					"9월",
					"10월",
					"11월",
					"12월"
				]
			}
		},
		"days": {
			"format": {
				"abbreviated": [
					"일",
					"월",
					"화",
					"수",
					"목",
					"금",
					"토"
				],
				"narrow": [
					"일",
					"월",
					"화",
					"수",
					"목",
					"금",
					"토"
				],
				"short": [
					"일",
					"월",
					"화",
					"수",
					"목",
					"금",
					"토"
				],
				"wide": [
					"일요일",
					"월요일",
					"화요일",
					"수요일",
					"목요일",
					"금요일",
					"토요일"
				]
			},
			"stand-alone": {
				"abbreviated": [
					"일",
					"월",
					"화",
					"수",
					"목",
					"금",
					"토"
				],
				"narrow": [
					"일",
					"월",
					"화",
					"수",
					"목",
					"금",
					"토"
				],
				"short": [
					"일",
					"월",
					"화",
					"수",
					"목",
					"금",
					"토"
				],
				"wide": [
					"일요일",
					"월요일",
					"화요일",
					"수요일",
					"목요일",
					"금요일",
					"토요일"
				]
			}
		},
		"quarters": {
			"format": {
				"abbreviated": [
					"1분기",
					"2분기",
					"3분기",
					"4분기"
				],
				"narrow": [
					"1",
					"2",
					"3",
					"4"
				],
				"wide": [
					"제 1/4분기",
					"제 2/4분기",
					"제 3/4분기",
					"제 4/4분기"
				]
			},
			"stand-alone": {
				"abbreviated": [
					"1분기",
					"2분기",
					"3분기",
					"4분기"
				],
				"narrow": [
					"1",
					"2",
					"3",
					"4"
				],
				"wide": [
					"제 1/4분기",
					"제 2/4분기",
					"제 3/4분기",
					"제 4/4분기"
				]
			}
		},
		"dayPeriods": {
			"format": {
				"abbreviated": [
					"AM",
					"PM"
				],
				"narrow": [
					"AM",
					"PM"
				],
				"wide": [
					"오전",
					"오후"
				]
			},
			"stand-alone": {
				"abbreviated": [
					"AM",
					"PM"
				],
				"narrow": [
					"AM",
					"PM"
				],
				"wide": [
					"오전",
					"오후"
				]
			}
		},
		"era-wide": {
			"0": "기원전",
			"1": "서기"
		},
		"era-abbreviated": {
			"0": "BC",
			"1": "AD"
		},
		"era-narrow": {
			"0": "BC",
			"1": "AD"
		}
	},
	"ca-islamic": {
		"dateFormats": {
			"full": "G y년 M월 d일 EEEE",
			"long": "G y년 M월 d일",
			"medium": "G y. M. d.",
			"short": "G y. M. d."
		},
		"timeFormats": {
			"full": "a h시 m분 s초 zzzz",
			"long": "a h시 m분 s초 z",
			"medium": "a h:mm:ss",
			"short": "a h:mm"
		},
		"dateTimeFormats": {
			"full": "{1} {0}",
			"long": "{1} {0}",
			"medium": "{1} {0}",
			"short": "{1} {0}",
			"availableFormats": {
				"Bh": "B h시",
				"Bhm": "B h:mm",
				"Bhms": "B h:mm:ss",
				"d": "d일",
				"E": "ccc",
				"EBhm": "E B h:mm",
				"EBhms": "E B h:mm:ss",
				"Ed": "d일 (E)",
				"EEEEd": "d일 EEEE",
				"Ehm": "E a h:mm",
				"EHm": "E HH:mm",
				"Ehms": "E a h:mm:ss",
				"EHms": "E HH:mm:ss",
				"Gy": "G y년",
				"GyMMM": "G y년 MMM월",
				"GyMMMd": "G y년 MMM월 d일",
				"GyMMMEd": "G y년 MMM월 d일 (E)",
				"GyMMMEEEEd": "G y년 MMM월 d일 EEEE",
				"h": "a h시",
				"H": "H시",
				"HHmmss": "HH:mm:ss",
				"hm": "a h:mm",
				"Hm": "HH:mm",
				"hms": "a h:mm:ss",
				"Hms": "HH:mm:ss",
				"M": "M월",
				"Md": "M. d.",
				"MEd": "M. d. (E)",
				"MEEEEd": "M. d. EEEE",
				"MMM": "LLL",
				"MMMd": "MMM월 d일",
				"MMMEd": "MMM월 d일 (E)",
				"MMMEEEEd": "MMM월 d일 EEEE",
				"MMMMd": "MMMM d일",
				"ms": "mm:ss",
				"y": "G y년",
				"yyyy": "G y년",
				"yyyyM": "G y. M.",
				"yyyyMd": "G y. M. d.",
				"yyyyMEd": "G y. M. d. (E)",
				"yyyyMEEEEd": "G y. M. d. EEEE",
				"yyyyMMM": "G y년 MMM월",
				"yyyyMMMd": "G y년 MMM월 d일",
				"yyyyMMMEd": "G y년 MMM월 d일 (E)",
				"yyyyMMMEEEEd": "G y년 MMM월 d일 EEEE",
				"yyyyMMMM": "G y년 MMMM",
				"yyyyQQQ": "G y년 QQQ",
				"yyyyQQQQ": "G y년 QQQQ"
			},
			"appendItems": {
				"Day": "{0} ({2}: {1})",
				"Day-Of-Week": "{0} {1}",
				"Era": "{1} {0}",
				"Hour": "{0} ({2}: {1})",
				"Minute": "{0} ({2}: {1})",
				"Month": "{0} ({2}: {1})",
				"Quarter": "{0} ({2}: {1})",
				"Second": "{0} ({2}: {1})",
				"Timezone": "{0} {1}",
				"Week": "{0} ({2}: {1})",
				"Year": "{1} {0}"
			},
			"intervalFormats": {
				"intervalFormatFallback": "{0} ~ {1}",
				"d": {
					"d": "d일 ~ d일"
				},
				"Gy": {
					"G": "G y – G y",
					"y": "G y–y"
				},
				"GyM": {
					"G": "GGGGG y-MM – GGGGG y-MM",
					"M": "GGGGG y-MM – y-MM",
					"y": "GGGGG y-MM – y-MM"
				},
				"GyMd": {
					"d": "GGGGG y-MM-dd – y-MM-dd",
					"G": "GGGGG y-MM-dd – GGGGG y-MM-dd",
					"M": "GGGGG y-MM-dd – y-MM-dd",
					"y": "GGGGG y-MM-dd – y-MM-dd"
				},
				"GyMEd": {
					"d": "GGGGG y-MM-dd, E – y-MM-dd, E",
					"G": "GGGGG y-MM-dd, E – GGGGG y-MM-dd, E",
					"M": "GGGGG y-MM-dd, E – y-MM-dd, E",
					"y": "GGGGG y-MM-dd, E – y-MM-dd, E"
				},
				"GyMMM": {
					"G": "G y MMM – G y MMM",
					"M": "G y MMM–MMM",
					"y": "G y MMM – y MMM"
				},
				"GyMMMd": {
					"d": "G y MMM d–d",
					"G": "G y MMM d – G y MMM d",
					"M": "G y MMM d – MMM d",
					"y": "G y MMM d – y MMM d"
				},
				"GyMMMEd": {
					"d": "G y MMM d, E – MMM d, E",
					"G": "G y MMM d, E – G y MMM d, E",
					"M": "G y MMM d, E – MMM d, E",
					"y": "G y MMM d, E – y MMM d, E"
				},
				"h": {
					"a": "a h시 ~ a h시",
					"h": "a h시 ~ h시"
				},
				"H": {
					"H": "HH ~ HH시"
				},
				"hm": {
					"a": "a h:mm ~ a h:mm",
					"h": "a h:mm~h:mm",
					"m": "a h:mm~h:mm"
				},
				"Hm": {
					"H": "HH:mm ~ HH:mm",
					"m": "HH:mm ~ HH:mm"
				},
				"hmv": {
					"a": "a h:mm ~ a h:mm v",
					"h": "a h:mm~h:mm v",
					"m": "a h:mm~h:mm v"
				},
				"Hmv": {
					"H": "HH:mm ~ HH:mm v",
					"m": "HH:mm ~ HH:mm v"
				},
				"hv": {
					"a": "a h시 ~ a h시(v)",
					"h": "a h시 ~ h시(v)"
				},
				"Hv": {
					"H": "HH ~ HH시 v"
				},
				"M": {
					"M": "M월 ~ M월"
				},
				"Md": {
					"d": "M. d ~ M. d",
					"M": "M. d ~ M. d"
				},
				"MEd": {
					"d": "M. d (E) ~ M. d (E)",
					"M": "M. d (E) ~ M. d (E)"
				},
				"MMM": {
					"M": "MMM ~ MMM"
				},
				"MMMd": {
					"d": "M월 d일 ~ d일",
					"M": "M월 d일 ~ M월 d일"
				},
				"MMMEd": {
					"d": "M월 d일 (E) ~ d일 (E)",
					"M": "M월 d일 (E) ~ M월 d일 (E)"
				},
				"MMMEEEEd": {
					"d": "M월 d일 EEEE ~ d일 EEEE",
					"M": "M월 d일 EEEE ~ M월 d일 EEEE"
				},
				"MMMM": {
					"M": "LLLL ~ LLLL"
				},
				"y": {
					"y": "G y년 ~ y년"
				},
				"yM": {
					"M": "G y. M ~ y. M",
					"y": "G y. M ~ y. M"
				},
				"yMd": {
					"d": "G y. M. d. ~ y. M. d.",
					"M": "G y. M. d. ~ y. M. d.",
					"y": "G y. M. d. ~ y. M. d."
				},
				"yMEd": {
					"d": "G y. M. d. (E) ~ y. M. d. (E)",
					"M": "G y. M. d. (E) ~ y. M. d. (E)",
					"y": "G y. M. d. (E) ~ y. M. d. (E)"
				},
				"yMMM": {
					"M": "G y년 M월~M월",
					"y": "G y년 M월 ~ y년 M월"
				},
				"yMMMd": {
					"d": "G y년 M월 d일~d일",
					"M": "G y년 M월 d일 ~ M월 d일",
					"y": "G y년 M월 d일 ~ y년 M월 d일"
				},
				"yMMMEd": {
					"d": "G y년 M월 d일 (E) ~ d일 (E)",
					"M": "G y년 M월 d일 (E) ~ M월 d일 (E)",
					"y": "G y년 M월 d일 (E) ~ y년 M월 d일 (E)"
				},
				"yMMMEEEEd": {
					"d": "G y년 M월 d일 EEEE ~ d일 EEEE",
					"M": "G y년 M월 d일 EEEE ~ M월 d일 EEEE",
					"y": "G y년 M월 d일 EEEE ~ y년 M월 d일 EEEE"
				},
				"yMMMM": {
					"M": "G y년 MM월 ~ MM월",
					"y": "G y년 MM월 ~ y년 MM월"
				}
			}
		},
		"months": {
			"format": {
				"abbreviated": [
					"Muh.",
					"Saf.",
					"Rab. I",
					"Rab. II",
					"Jum. I",
					"Jum. II",
					"Raj.",
					"Sha.",
					"Ram.",
					"Shaw.",
					"Dhuʻl-Q.",
					"Dhuʻl-H."
				],
				"narrow": [
					"1",
					"2",
					"3",
					"4",
					"5",
					"6",
					"7",
					"8",
					"9",
					"10",
					"11",
					"12"
				],
				"wide": [
					"무하람",
					"사파르",
					"라비 알 아왈",
					"라비 알 쎄니",
					"주마다 알 아왈",
					"주마다 알 쎄니",
					"라잡",
					"쉐아반",
					"라마단",
					"쉐왈",
					"듀 알 까다",
					"듀 알 히자"
				]
			},
			"stand-alone": {
				"abbreviated": [
					"Muh.",
					"Saf.",
					"Rab. I",
					"Rab. II",
					"Jum. I",
					"Jum. II",
					"Raj.",
					"Sha.",
					"Ram.",
					"Shaw.",
					"Dhuʻl-Q.",
					"Dhuʻl-H."
				],
				"narrow": [
					"1",
					"2",
					"3",
					"4",
					"5",
					"6",
					"7",
					"8",
					"9",
					"10",
					"11",
					"12"
				],
				"wide": [
					"무하람",
					"사파르",
					"라비 알 아왈",
					"라비 알 쎄니",
					"주마다 알 아왈",
					"주마다 알 쎄니",
					"라잡",
					"쉐아반",
					"라마단",
					"쉐왈",
					"듀 알 까다",
					"듀 알 히자"
				]
			}
		},
		"days": {
			"format": {
				"abbreviated": [
					"일",
					"월",
					"화",
					"수",
					"목",
					"금",
					"토"
				],
				"narrow": [
					"일",
					"월",
					"화",
					"수",
					"목",
					"금",
					"토"
				],
				"short": [
					"일",
					"월",
					"화",
					"수",
					"목",
					"금",
					"토"
				],
				"wide": [
					"일요일",
					"월요일",
					"화요일",
					"수요일",
					"목요일",
					"금요일",
					"토요일"
				]
			},
			"stand-alone": {
				"abbreviated": [
					"일",
					"월",
					"화",
					"수",
					"목",
					"금",
					"토"
				],
				"narrow": [
					"일",
					"월",
					"화",
					"수",
					"목",
					"금",
					"토"
				],
				"short": [
					"일",
					"월",
					"화",
					"수",
					"목",
					"금",
					"토"
				],
				"wide": [
					"일요일",
					"월요일",
					"화요일",
					"수요일",
					"목요일",
					"금요일",
					"토요일"
				]
			}
		},
		"quarters": {
			"format": {
				"abbreviated": [
					"1분기",
					"2분기",
					"3분기",
					"4분기"
				],
				"narrow": [
					"1",
					"2",
					"3",
					"4"
				],
				"wide": [
					"제 1/4분기",
					"제 2/4분기",
					"제 3/4분기",
					"제 4/4분기"
				]
			},
			"stand-alone": {
				"abbreviated": [
					"1분기",
					"2분기",
					"3분기",
					"4분기"
				],
				"narrow": [
					"1",
					"2",
					"3",
					"4"
				],
				"wide": [
					"제 1/4분기",
					"제 2/4분기",
					"제 3/4분기",
					"제 4/4분기"
				]
			}
		},
		"dayPeriods": {
			"format": {
				"abbreviated": [
					"AM",
					"PM"
				],
				"narrow": [
					"AM",
					"PM"
				],
				"wide": [
					"오전",
					"오후"
				]
			},
			"stand-alone": {
				"abbreviated": [
					"AM",
					"PM"
				],
				"narrow": [
					"AM",
					"PM"
				],
				"wide": [
					"오전",
					"오후"
				]
			}
		},
		"era-wide": {
			"0": "히즈라력"
		},
		"era-abbreviated": {
			"0": "AH"
		},
		"era-narrow": {
			"0": "AH"
		}
	},
	"ca-japanese": {
		"dateFormats": {
			"full": "G y년 M월 d일 EEEE",
			"long": "G y년 M월 d일",
			"medium": "G y. M. d.",
			"short": "G y. M. d."
		},
		"timeFormats": {
			"full": "a h시 m분 s초 zzzz",
			"long": "a h시 m분 s초 z",
			"medium": "a h:mm:ss",
			"short": "a h:mm"
		},
		"dateTimeFormats": {
			"full": "{1} {0}",
			"long": "{1} {0}",
			"medium": "{1} {0}",
			"short": "{1} {0}",
			"availableFormats": {
				"Bh": "B h시",
				"Bhm": "B h:mm",
				"Bhms": "B h:mm:ss",
				"d": "d일",
				"E": "ccc",
				"EBhm": "E B h:mm",
				"EBhms": "E B h:mm:ss",
				"Ed": "d일 (E)",
				"EEEEd": "d일 EEEE",
				"Ehm": "E a h:mm",
				"EHm": "E HH:mm",
				"Ehms": "E a h:mm:ss",
				"EHms": "E HH:mm:ss",
				"Gy": "G y년",
				"GyMMM": "G y년 MMM",
				"GyMMMd": "G y년 MMM d일",
				"GyMMMEd": "G y년 MMM d일 (E)",
				"GyMMMEEEEd": "G y년 MMM d일 EEEE",
				"h": "a h시",
				"H": "H시",
				"HHmmss": "HH:mm:ss",
				"hm": "a h:mm",
				"Hm": "HH:mm",
				"hms": "a h:mm:ss",
				"Hms": "HH:mm:ss",
				"M": "M월",
				"Md": "M. d.",
				"MEd": "M. d. (E)",
				"MEEEEd": "M. d. EEEE",
				"MMM": "LLL",
				"MMMd": "MMM d일",
				"MMMEd": "MMM d일 (E)",
				"MMMEEEEd": "MMM d일 EEEE",
				"MMMMd": "MMMM d일",
				"ms": "mm:ss",
				"y": "G y년",
				"yyyy": "G y년",
				"yyyyM": "G y. M.",
				"yyyyMd": "G y. M. d.",
				"yyyyMEd": "G y. M. d. (E)",
				"yyyyMEEEEd": "G y. M. d. EEEE",
				"yyyyMMM": "G y년 MMM",
				"yyyyMMMd": "G y년 MMM d일",
				"yyyyMMMEd": "G y년 MMM d일 (E)",
				"yyyyMMMEEEEd": "G y년 MMM d일 EEEE",
				"yyyyMMMM": "G y년 MMMM",
				"yyyyQQQ": "G y년 QQQ",
				"yyyyQQQQ": "G y년 QQQQ"
			},
			"appendItems": {
				"Day": "{0} ({2}: {1})",
				"Day-Of-Week": "{0} {1}",
				"Era": "{1} {0}",
				"Hour": "{0} ({2}: {1})",
				"Minute": "{0} ({2}: {1})",
				"Month": "{0} ({2}: {1})",
				"Quarter": "{0} ({2}: {1})",
				"Second": "{0} ({2}: {1})",
				"Timezone": "{0} {1}",
				"Week": "{0} ({2}: {1})",
				"Year": "{1} {0}"
			},
			"intervalFormats": {
				"intervalFormatFallback": "{0} ~ {1}",
				"d": {
					"d": "d일 ~ d일"
				},
				"Gy": {
					"G": "G y – G y",
					"y": "G y–y"
				},
				"GyM": {
					"G": "GGGGG y-MM – GGGGG y-MM",
					"M": "GGGGG y-MM – y-MM",
					"y": "GGGGG y-MM – y-MM"
				},
				"GyMd": {
					"d": "GGGGG y-MM-dd – y-MM-dd",
					"G": "GGGGG y-MM-dd – GGGGG y-MM-dd",
					"M": "GGGGG y-MM-dd – y-MM-dd",
					"y": "GGGGG y-MM-dd – y-MM-dd"
				},
				"GyMEd": {
					"d": "GGGGG y-MM-dd, E – y-MM-dd, E",
					"G": "GGGGG y-MM-dd, E – GGGGG y-MM-dd, E",
					"M": "GGGGG y-MM-dd, E – y-MM-dd, E",
					"y": "GGGGG y-MM-dd, E – y-MM-dd, E"
				},
				"GyMMM": {
					"G": "G y MMM – G y MMM",
					"M": "G y MMM–MMM",
					"y": "G y MMM – y MMM"
				},
				"GyMMMd": {
					"d": "G y MMM d–d",
					"G": "G y MMM d – G y MMM d",
					"M": "G y MMM d – MMM d",
					"y": "G y MMM d – y MMM d"
				},
				"GyMMMEd": {
					"d": "G y MMM d, E – MMM d, E",
					"G": "G y MMM d, E – G y MMM d, E",
					"M": "G y MMM d, E – MMM d, E",
					"y": "G y MMM d, E – y MMM d, E"
				},
				"h": {
					"a": "a h시 ~ a h시",
					"h": "a h시 ~ h시"
				},
				"H": {
					"H": "HH ~ HH시"
				},
				"hm": {
					"a": "a h:mm ~ a h:mm",
					"h": "a h:mm~h:mm",
					"m": "a h:mm~h:mm"
				},
				"Hm": {
					"H": "HH:mm ~ HH:mm",
					"m": "HH:mm ~ HH:mm"
				},
				"hmv": {
					"a": "a h:mm ~ a h:mm v",
					"h": "a h:mm~h:mm v",
					"m": "a h:mm~h:mm v"
				},
				"Hmv": {
					"H": "HH:mm ~ HH:mm v",
					"m": "HH:mm ~ HH:mm v"
				},
				"hv": {
					"a": "a h시 ~ a h시(v)",
					"h": "a h시 ~ h시(v)"
				},
				"Hv": {
					"H": "HH ~ HH시 v"
				},
				"M": {
					"M": "M월 ~ M월"
				},
				"Md": {
					"d": "M. d ~ M. d",
					"M": "M. d ~ M. d"
				},
				"MEd": {
					"d": "M. d (E) ~ M. d (E)",
					"M": "M. d (E) ~ M. d (E)"
				},
				"MMM": {
					"M": "MMM ~ MMM"
				},
				"MMMd": {
					"d": "M월 d일 ~ d일",
					"M": "M월 d일 ~ M월 d일"
				},
				"MMMEd": {
					"d": "M월 d일 (E) ~ d일 (E)",
					"M": "M월 d일 (E) ~ M월 d일 (E)"
				},
				"MMMEEEEd": {
					"d": "M월 d일 EEEE ~ d일 EEEE",
					"M": "M월 d일 EEEE ~ M월 d일 EEEE"
				},
				"MMMM": {
					"M": "LLLL ~ LLLL"
				},
				"y": {
					"y": "G y년 ~ y년"
				},
				"yM": {
					"M": "G y. M ~ y. M",
					"y": "G y. M ~ y. M"
				},
				"yMd": {
					"d": "G y. M. d. ~ y. M. d.",
					"M": "G y. M. d. ~ y. M. d.",
					"y": "G y. M. d. ~ y. M. d."
				},
				"yMEd": {
					"d": "G y. M. d. (E) ~ y. M. d. (E)",
					"M": "G y. M. d. (E) ~ y. M. d. (E)",
					"y": "G y. M. d. (E) ~ y. M. d. (E)"
				},
				"yMMM": {
					"M": "G y년 M월~M월",
					"y": "G y년 M월 ~ y년 M월"
				},
				"yMMMd": {
					"d": "G y년 M월 d일~d일",
					"M": "G y년 M월 d일 ~ M월 d일",
					"y": "G y년 M월 d일 ~ y년 M월 d일"
				},
				"yMMMEd": {
					"d": "G y년 M월 d일 (E) ~ d일 (E)",
					"M": "G y년 M월 d일 (E) ~ M월 d일 (E)",
					"y": "G y년 M월 d일 (E) ~ y년 M월 d일 (E)"
				},
				"yMMMEEEEd": {
					"d": "G y년 M월 d일 EEEE ~ d일 EEEE",
					"M": "G y년 M월 d일 EEEE ~ M월 d일 EEEE",
					"y": "G y년 M월 d일 EEEE ~ y년 M월 d일 EEEE"
				},
				"yMMMM": {
					"M": "G y년 MM월 ~ MM월",
					"y": "G y년 MM월 ~ y년 MM월"
				}
			}
		},
		"months": {
			"format": {
				"abbreviated": [
					"1월",
					"2월",
					"3월",
					"4월",
					"5월",
					"6월",
					"7월",
					"8월",
					"9월",
					"10월",
					"11월",
					"12월"
				],
				"narrow": [
					"1월",
					"2월",
					"3월",
					"4월",
					"5월",
					"6월",
					"7월",
					"8월",
					"9월",
					"10월",
					"11월",
					"12월"
				],
				"wide": [
					"1월",
					"2월",
					"3월",
					"4월",
					"5월",
					"6월",
					"7월",
					"8월",
					"9월",
					"10월",
					"11월",
					"12월"
				]
			},
			"stand-alone": {
				"abbreviated": [
					"1월",
					"2월",
					"3월",
					"4월",
					"5월",
					"6월",
					"7월",
					"8월",
					"9월",
					"10월",
					"11월",
					"12월"
				],
				"narrow": [
					"1월",
					"2월",
					"3월",
					"4월",
					"5월",
					"6월",
					"7월",
					"8월",
					"9월",
					"10월",
					"11월",
					"12월"
				],
				"wide": [
					"1월",
					"2월",
					"3월",
					"4월",
					"5월",
					"6월",
					"7월",
					"8월",
					"9월",
					"10월",
					"11월",
					"12월"
				]
			}
		},
		"days": {
			"format": {
				"abbreviated": [
					"일",
					"월",
					"화",
					"수",
					"목",
					"금",
					"토"
				],
				"narrow": [
					"일",
					"월",
					"화",
					"수",
					"목",
					"금",
					"토"
				],
				"short": [
					"일",
					"월",
					"화",
					"수",
					"목",
					"금",
					"토"
				],
				"wide": [
					"일요일",
					"월요일",
					"화요일",
					"수요일",
					"목요일",
					"금요일",
					"토요일"
				]
			},
			"stand-alone": {
				"abbreviated": [
					"일",
					"월",
					"화",
					"수",
					"목",
					"금",
					"토"
				],
				"narrow": [
					"일",
					"월",
					"화",
					"수",
					"목",
					"금",
					"토"
				],
				"short": [
					"일",
					"월",
					"화",
					"수",
					"목",
					"금",
					"토"
				],
				"wide": [
					"일요일",
					"월요일",
					"화요일",
					"수요일",
					"목요일",
					"금요일",
					"토요일"
				]
			}
		},
		"quarters": {
			"format": {
				"abbreviated": [
					"1분기",
					"2분기",
					"3분기",
					"4분기"
				],
				"narrow": [
					"1",
					"2",
					"3",
					"4"
				],
				"wide": [
					"제 1/4분기",
					"제 2/4분기",
					"제 3/4분기",
					"제 4/4분기"
				]
			},
			"stand-alone": {
				"abbreviated": [
					"1분기",
					"2분기",
					"3분기",
					"4분기"
				],
				"narrow": [
					"1",
					"2",
					"3",
					"4"
				],
				"wide": [
					"제 1/4분기",
					"제 2/4분기",
					"제 3/4분기",
					"제 4/4분기"
				]
			}
		},
		"dayPeriods": {
			"format": {
				"abbreviated": [
					"AM",
					"PM"
				],
				"narrow": [
					"AM",
					"PM"
				],
				"wide": [
					"오전",
					"오후"
				]
			},
			"stand-alone": {
				"abbreviated": [
					"AM",
					"PM"
				],
				"narrow": [
					"AM",
					"PM"
				],
				"wide": [
					"오전",
					"오후"
				]
			}
		},
		"era-wide": {
			"232": "메이지",
			"233": "다이쇼",
			"234": "쇼와",
			"235": "헤이세이",
			"236": "레이와"
		},
		"era-abbreviated": {
			"232": "메이지",
			"233": "다이쇼",
			"234": "쇼와",
			"235": "헤이세이",
			"236": "레이와"
		},
		"era-narrow": {
			"232": "M",
			"233": "T",
			"234": "S",
			"235": "H",
			"236": "R"
		}
	},
	"ca-persian": {
		"dateFormats": {
			"full": "G y년 M월 d일 EEEE",
			"long": "G y년 M월 d일",
			"medium": "G y. M. d.",
			"short": "G y. M. d."
		},
		"timeFormats": {
			"full": "a h시 m분 s초 zzzz",
			"long": "a h시 m분 s초 z",
			"medium": "a h:mm:ss",
			"short": "a h:mm"
		},
		"dateTimeFormats": {
			"full": "{1} {0}",
			"long": "{1} {0}",
			"medium": "{1} {0}",
			"short": "{1} {0}",
			"availableFormats": {
				"Bh": "B h시",
				"Bhm": "B h:mm",
				"Bhms": "B h:mm:ss",
				"d": "d일",
				"E": "ccc",
				"EBhm": "E B h:mm",
				"EBhms": "E B h:mm:ss",
				"Ed": "d일 (E)",
				"EEEEd": "d일 EEEE",
				"Ehm": "E a h:mm",
				"EHm": "E HH:mm",
				"Ehms": "E a h:mm:ss",
				"EHms": "E HH:mm:ss",
				"Gy": "G y년",
				"GyMMM": "G y년 MMM월",
				"GyMMMd": "G y년 MMM월 d일",
				"GyMMMEd": "G y년 MMM월 d일 (E)",
				"GyMMMEEEEd": "G y년 MMM월 d일 EEEE",
				"h": "a h시",
				"H": "H시",
				"HHmmss": "HH:mm:ss",
				"hm": "a h:mm",
				"Hm": "HH:mm",
				"hms": "a h:mm:ss",
				"Hms": "HH:mm:ss",
				"M": "M월",
				"Md": "M. d.",
				"MEd": "M. d. (E)",
				"MEEEEd": "M. d. EEEE",
				"MMM": "LLL",
				"MMMd": "MMM월 d일",
				"MMMEd": "MMM월 d일 (E)",
				"MMMEEEEd": "MMM월 d일 EEEE",
				"MMMMd": "MMMM월 d일",
				"ms": "mm:ss",
				"y": "G y년",
				"yyyy": "G y년",
				"yyyyM": "G y. M.",
				"yyyyMd": "G y. M. d.",
				"yyyyMEd": "G y. M. d. (E)",
				"yyyyMEEEEd": "G y. M. d. EEEE",
				"yyyyMMM": "G y년 MMM월",
				"yyyyMMMd": "G y년 MMM월 d일",
				"yyyyMMMEd": "G y년 MMM월 d일 (E)",
				"yyyyMMMEEEEd": "G y년 MMM월 d일 EEEE",
				"yyyyMMMM": "G y년 MMMM월",
				"yyyyQQQ": "G y년 QQQ",
				"yyyyQQQQ": "G y년 QQQQ"
			},
			"appendItems": {
				"Day": "{0} ({2}: {1})",
				"Day-Of-Week": "{0} {1}",
				"Era": "{1} {0}",
				"Hour": "{0} ({2}: {1})",
				"Minute": "{0} ({2}: {1})",
				"Month": "{0} ({2}: {1})",
				"Quarter": "{0} ({2}: {1})",
				"Second": "{0} ({2}: {1})",
				"Timezone": "{0} {1}",
				"Week": "{0} ({2}: {1})",
				"Year": "{1} {0}"
			},
			"intervalFormats": {
				"intervalFormatFallback": "{0} ~ {1}",
				"d": {
					"d": "d일 ~ d일"
				},
				"Gy": {
					"G": "G y – G y",
					"y": "G y–y"
				},
				"GyM": {
					"G": "GGGGG y-MM – GGGGG y-MM",
					"M": "GGGGG y-MM – y-MM",
					"y": "GGGGG y-MM – y-MM"
				},
				"GyMd": {
					"d": "GGGGG y-MM-dd – y-MM-dd",
					"G": "GGGGG y-MM-dd – GGGGG y-MM-dd",
					"M": "GGGGG y-MM-dd – y-MM-dd",
					"y": "GGGGG y-MM-dd – y-MM-dd"
				},
				"GyMEd": {
					"d": "GGGGG y-MM-dd, E – y-MM-dd, E",
					"G": "GGGGG y-MM-dd, E – GGGGG y-MM-dd, E",
					"M": "GGGGG y-MM-dd, E – y-MM-dd, E",
					"y": "GGGGG y-MM-dd, E – y-MM-dd, E"
				},
				"GyMMM": {
					"G": "G y MMM – G y MMM",
					"M": "G y MMM–MMM",
					"y": "G y MMM – y MMM"
				},
				"GyMMMd": {
					"d": "G y MMM d–d",
					"G": "G y MMM d – G y MMM d",
					"M": "G y MMM d – MMM d",
					"y": "G y MMM d – y MMM d"
				},
				"GyMMMEd": {
					"d": "G y MMM d, E – MMM d, E",
					"G": "G y MMM d, E – G y MMM d, E",
					"M": "G y MMM d, E – MMM d, E",
					"y": "G y MMM d, E – y MMM d, E"
				},
				"h": {
					"a": "a h시 ~ a h시",
					"h": "a h시 ~ h시"
				},
				"H": {
					"H": "HH ~ HH시"
				},
				"hm": {
					"a": "a h:mm ~ a h:mm",
					"h": "a h:mm~h:mm",
					"m": "a h:mm~h:mm"
				},
				"Hm": {
					"H": "HH:mm ~ HH:mm",
					"m": "HH:mm ~ HH:mm"
				},
				"hmv": {
					"a": "a h:mm ~ a h:mm v",
					"h": "a h:mm~h:mm v",
					"m": "a h:mm~h:mm v"
				},
				"Hmv": {
					"H": "HH:mm ~ HH:mm v",
					"m": "HH:mm ~ HH:mm v"
				},
				"hv": {
					"a": "a h시 ~ a h시(v)",
					"h": "a h시 ~ h시(v)"
				},
				"Hv": {
					"H": "HH ~ HH시 v"
				},
				"M": {
					"M": "M월 ~ M월"
				},
				"Md": {
					"d": "M. d ~ M. d",
					"M": "M. d ~ M. d"
				},
				"MEd": {
					"d": "M. d (E) ~ M. d (E)",
					"M": "M. d (E) ~ M. d (E)"
				},
				"MMM": {
					"M": "MMM ~ MMM"
				},
				"MMMd": {
					"d": "M월 d일 ~ d일",
					"M": "M월 d일 ~ M월 d일"
				},
				"MMMEd": {
					"d": "M월 d일 (E) ~ d일 (E)",
					"M": "M월 d일 (E) ~ M월 d일 (E)"
				},
				"MMMEEEEd": {
					"d": "M월 d일 EEEE ~ d일 EEEE",
					"M": "M월 d일 EEEE ~ M월 d일 EEEE"
				},
				"MMMM": {
					"M": "LLLL ~ LLLL"
				},
				"y": {
					"y": "G y년 ~ y년"
				},
				"yM": {
					"M": "G y. M ~ y. M",
					"y": "G y. M ~ y. M"
				},
				"yMd": {
					"d": "G y. M. d. ~ y. M. d.",
					"M": "G y. M. d. ~ y. M. d.",
					"y": "G y. M. d. ~ y. M. d."
				},
				"yMEd": {
					"d": "G y. M. d. (E) ~ y. M. d. (E)",
					"M": "G y. M. d. (E) ~ y. M. d. (E)",
					"y": "G y. M. d. (E) ~ y. M. d. (E)"
				},
				"yMMM": {
					"M": "G y년 M월~M월",
					"y": "G y년 M월 ~ y년 M월"
				},
				"yMMMd": {
					"d": "G y년 M월 d일~d일",
					"M": "G y년 M월 d일 ~ M월 d일",
					"y": "G y년 M월 d일 ~ y년 M월 d일"
				},
				"yMMMEd": {
					"d": "G y년 M월 d일 (E) ~ d일 (E)",
					"M": "G y년 M월 d일 (E) ~ M월 d일 (E)",
					"y": "G y년 M월 d일 (E) ~ y년 M월 d일 (E)"
				},
				"yMMMEEEEd": {
					"d": "G y년 M월 d일 EEEE ~ d일 EEEE",
					"M": "G y년 M월 d일 EEEE ~ M월 d일 EEEE",
					"y": "G y년 M월 d일 EEEE ~ y년 M월 d일 EEEE"
				},
				"yMMMM": {
					"M": "G y년 MM월 ~ MM월",
					"y": "G y년 MM월 ~ y년 MM월"
				}
			}
		},
		"months": {
			"format": {
				"abbreviated": [
					"화르바딘",
					"오르디베헤쉬트",
					"호르다드",
					"티르",
					"모르다드",
					"샤흐리바르",
					"메흐르",
					"아반",
					"아자르",
					"다이",
					"바흐만",
					"에스판드"
				],
				"narrow": [
					"1",
					"2",
					"3",
					"4",
					"5",
					"6",
					"7",
					"8",
					"9",
					"10",
					"11",
					"12"
				],
				"wide": [
					"화르바딘",
					"오르디베헤쉬트",
					"호르다드",
					"티르",
					"모르다드",
					"샤흐리바르",
					"메흐르",
					"아반",
					"아자르",
					"다이",
					"바흐만",
					"에스판드"
				]
			},
			"stand-alone": {
				"abbreviated": [
					"화르바딘",
					"오르디베헤쉬트",
					"호르다드",
					"티르",
					"모르다드",
					"샤흐리바르",
					"메흐르",
					"아반",
					"아자르",
					"다이",
					"바흐만",
					"에스판드"
				],
				"narrow": [
					"1",
					"2",
					"3",
					"4",
					"5",
					"6",
					"7",
					"8",
					"9",
					"10",
					"11",
					"12"
				],
				"wide": [
					"화르바딘",
					"오르디베헤쉬트",
					"호르다드",
					"티르",
					"모르다드",
					"샤흐리바르",
					"메흐르",
					"아반",
					"아자르",
					"다이",
					"바흐만",
					"에스판드"
				]
			}
		},
		"days": {
			"format": {
				"abbreviated": [
					"일",
					"월",
					"화",
					"수",
					"목",
					"금",
					"토"
				],
				"narrow": [
					"일",
					"월",
					"화",
					"수",
					"목",
					"금",
					"토"
				],
				"short": [
					"일",
					"월",
					"화",
					"수",
					"목",
					"금",
					"토"
				],
				"wide": [
					"일요일",
					"월요일",
					"화요일",
					"수요일",
					"목요일",
					"금요일",
					"토요일"
				]
			},
			"stand-alone": {
				"abbreviated": [
					"일",
					"월",
					"화",
					"수",
					"목",
					"금",
					"토"
				],
				"narrow": [
					"일",
					"월",
					"화",
					"수",
					"목",
					"금",
					"토"
				],
				"short": [
					"일",
					"월",
					"화",
					"수",
					"목",
					"금",
					"토"
				],
				"wide": [
					"일요일",
					"월요일",
					"화요일",
					"수요일",
					"목요일",
					"금요일",
					"토요일"
				]
			}
		},
		"quarters": {
			"format": {
				"abbreviated": [
					"1분기",
					"2분기",
					"3분기",
					"4분기"
				],
				"narrow": [
					"1",
					"2",
					"3",
					"4"
				],
				"wide": [
					"제 1/4분기",
					"제 2/4분기",
					"제 3/4분기",
					"제 4/4분기"
				]
			},
			"stand-alone": {
				"abbreviated": [
					"1분기",
					"2분기",
					"3분기",
					"4분기"
				],
				"narrow": [
					"1",
					"2",
					"3",
					"4"
				],
				"wide": [
					"제 1/4분기",
					"제 2/4분기",
					"제 3/4분기",
					"제 4/4분기"
				]
			}
		},
		"dayPeriods": {
			"format": {
				"abbreviated": [
					"AM",
					"PM"
				],
				"narrow": [
					"AM",
					"PM"
				],
				"wide": [
					"오전",
					"오후"
				]
			},
			"stand-alone": {
				"abbreviated": [
					"AM",
					"PM"
				],
				"narrow": [
					"AM",
					"PM"
				],
				"wide": [
					"오전",
					"오후"
				]
			}
		},
		"era-wide": {
			"0": "AP"
		},
		"era-abbreviated": {
			"0": "AP"
		},
		"era-narrow": {
			"0": "AP"
		}
	},
	"ca-buddhist": {
		"dateFormats": {
			"full": "G y년 M월 d일 EEEE",
			"long": "G y년 M월 d일",
			"medium": "G y. M. d.",
			"short": "G y. M. d."
		},
		"timeFormats": {
			"full": "a h시 m분 s초 zzzz",
			"long": "a h시 m분 s초 z",
			"medium": "a h:mm:ss",
			"short": "a h:mm"
		},
		"dateTimeFormats": {
			"full": "{1} {0}",
			"long": "{1} {0}",
			"medium": "{1} {0}",
			"short": "{1} {0}",
			"availableFormats": {
				"Bh": "B h시",
				"Bhm": "B h:mm",
				"Bhms": "B h:mm:ss",
				"d": "d일",
				"E": "ccc",
				"EBhm": "E B h:mm",
				"EBhms": "E B h:mm:ss",
				"Ed": "d일 (E)",
				"EEEEd": "d일 EEEE",
				"Ehm": "E a h:mm",
				"EHm": "E HH:mm",
				"Ehms": "E a h:mm:ss",
				"EHms": "E HH:mm:ss",
				"Gy": "G y년",
				"GyMMM": "G y년 MMM",
				"GyMMMd": "G y년 MMM d일",
				"GyMMMEd": "G y년 MMM d일 (E)",
				"GyMMMEEEEd": "G y년 MMM d일 EEEE",
				"h": "a h시",
				"H": "H시",
				"HHmmss": "HH:mm:ss",
				"hm": "a h:mm",
				"Hm": "HH:mm",
				"hms": "a h:mm:ss",
				"Hms": "HH:mm:ss",
				"M": "M월",
				"Md": "M. d.",
				"MEd": "M. d. (E)",
				"MEEEEd": "M. d. EEEE",
				"MMM": "LLL",
				"MMMd": "MMM d일",
				"MMMEd": "MMM d일 (E)",
				"MMMEEEEd": "MMM d일 EEEE",
				"MMMMd": "MMMM d일",
				"ms": "mm:ss",
				"y": "G y년",
				"yyyy": "G y년",
				"yyyyM": "G y. M.",
				"yyyyMd": "G y. M. d.",
				"yyyyMEd": "G y. M. d. (E)",
				"yyyyMEEEEd": "G y. M. d. EEEE",
				"yyyyMMM": "G y년 MMM",
				"yyyyMMMd": "G y년 MMM d일",
				"yyyyMMMEd": "G y년 MMM d일 (E)",
				"yyyyMMMEEEEd": "G y년 MMM d일 EEEE",
				"yyyyMMMM": "G y년 MMMM",
				"yyyyQQQ": "G y년 QQQ",
				"yyyyQQQQ": "G y년 QQQQ"
			},
			"appendItems": {
				"Day": "{0} ({2}: {1})",
				"Day-Of-Week": "{0} {1}",
				"Era": "{1} {0}",
				"Hour": "{0} ({2}: {1})",
				"Minute": "{0} ({2}: {1})",
				"Month": "{0} ({2}: {1})",
				"Quarter": "{0} ({2}: {1})",
				"Second": "{0} ({2}: {1})",
				"Timezone": "{0} {1}",
				"Week": "{0} ({2}: {1})",
				"Year": "{1} {0}"
			},
			"intervalFormats": {
				"intervalFormatFallback": "{0} ~ {1}",
				"d": {
					"d": "d일 ~ d일"
				},
				"Gy": {
					"G": "G y – G y",
					"y": "G y–y"
				},
				"GyM": {
					"G": "GGGGG y-MM – GGGGG y-MM",
					"M": "GGGGG y-MM – y-MM",
					"y": "GGGGG y-MM – y-MM"
				},
				"GyMd": {
					"d": "GGGGG y-MM-dd – y-MM-dd",
					"G": "GGGGG y-MM-dd – GGGGG y-MM-dd",
					"M": "GGGGG y-MM-dd – y-MM-dd",
					"y": "GGGGG y-MM-dd – y-MM-dd"
				},
				"GyMEd": {
					"d": "GGGGG y-MM-dd, E – y-MM-dd, E",
					"G": "GGGGG y-MM-dd, E – GGGGG y-MM-dd, E",
					"M": "GGGGG y-MM-dd, E – y-MM-dd, E",
					"y": "GGGGG y-MM-dd, E – y-MM-dd, E"
				},
				"GyMMM": {
					"G": "G y MMM – G y MMM",
					"M": "G y MMM–MMM",
					"y": "G y MMM – y MMM"
				},
				"GyMMMd": {
					"d": "G y MMM d–d",
					"G": "G y MMM d – G y MMM d",
					"M": "G y MMM d – MMM d",
					"y": "G y MMM d – y MMM d"
				},
				"GyMMMEd": {
					"d": "G y MMM d, E – MMM d, E",
					"G": "G y MMM d, E – G y MMM d, E",
					"M": "G y MMM d, E – MMM d, E",
					"y": "G y MMM d, E – y MMM d, E"
				},
				"h": {
					"a": "a h시 ~ a h시",
					"h": "a h시 ~ h시"
				},
				"H": {
					"H": "HH ~ HH시"
				},
				"hm": {
					"a": "a h:mm ~ a h:mm",
					"h": "a h:mm~h:mm",
					"m": "a h:mm~h:mm"
				},
				"Hm": {
					"H": "HH:mm ~ HH:mm",
					"m": "HH:mm ~ HH:mm"
				},
				"hmv": {
					"a": "a h:mm ~ a h:mm v",
					"h": "a h:mm~h:mm v",
					"m": "a h:mm~h:mm v"
				},
				"Hmv": {
					"H": "HH:mm ~ HH:mm v",
					"m": "HH:mm ~ HH:mm v"
				},
				"hv": {
					"a": "a h시 ~ a h시(v)",
					"h": "a h시 ~ h시(v)"
				},
				"Hv": {
					"H": "HH ~ HH시 v"
				},
				"M": {
					"M": "M월 ~ M월"
				},
				"Md": {
					"d": "M. d ~ M. d",
					"M": "M. d ~ M. d"
				},
				"MEd": {
					"d": "M. d (E) ~ M. d (E)",
					"M": "M. d (E) ~ M. d (E)"
				},
				"MMM": {
					"M": "MMM ~ MMM"
				},
				"MMMd": {
					"d": "M월 d일 ~ d일",
					"M": "M월 d일 ~ M월 d일"
				},
				"MMMEd": {
					"d": "M월 d일 (E) ~ d일 (E)",
					"M": "M월 d일 (E) ~ M월 d일 (E)"
				},
				"MMMEEEEd": {
					"d": "M월 d일 EEEE ~ d일 EEEE",
					"M": "M월 d일 EEEE ~ M월 d일 EEEE"
				},
				"MMMM": {
					"M": "LLLL ~ LLLL"
				},
				"y": {
					"y": "G y년 ~ y년"
				},
				"yM": {
					"M": "G y. M ~ y. M",
					"y": "G y. M ~ y. M"
				},
				"yMd": {
					"d": "G y. M. d. ~ y. M. d.",
					"M": "G y. M. d. ~ y. M. d.",
					"y": "G y. M. d. ~ y. M. d."
				},
				"yMEd": {
					"d": "G y. M. d. (E) ~ y. M. d. (E)",
					"M": "G y. M. d. (E) ~ y. M. d. (E)",
					"y": "G y. M. d. (E) ~ y. M. d. (E)"
				},
				"yMMM": {
					"M": "G y년 M월~M월",
					"y": "G y년 M월 ~ y년 M월"
				},
				"yMMMd": {
					"d": "G y년 M월 d일~d일",
					"M": "G y년 M월 d일 ~ M월 d일",
					"y": "G y년 M월 d일 ~ y년 M월 d일"
				},
				"yMMMEd": {
					"d": "G y년 M월 d일 (E) ~ d일 (E)",
					"M": "G y년 M월 d일 (E) ~ M월 d일 (E)",
					"y": "G y년 M월 d일 (E) ~ y년 M월 d일 (E)"
				},
				"yMMMEEEEd": {
					"d": "G y년 M월 d일 EEEE ~ d일 EEEE",
					"M": "G y년 M월 d일 EEEE ~ M월 d일 EEEE",
					"y": "G y년 M월 d일 EEEE ~ y년 M월 d일 EEEE"
				},
				"yMMMM": {
					"M": "G y년 MM월 ~ MM월",
					"y": "G y년 MM월 ~ y년 MM월"
				}
			}
		},
		"months": {
			"format": {
				"abbreviated": [
					"1월",
					"2월",
					"3월",
					"4월",
					"5월",
					"6월",
					"7월",
					"8월",
					"9월",
					"10월",
					"11월",
					"12월"
				],
				"narrow": [
					"1월",
					"2월",
					"3월",
					"4월",
					"5월",
					"6월",
					"7월",
					"8월",
					"9월",
					"10월",
					"11월",
					"12월"
				],
				"wide": [
					"1월",
					"2월",
					"3월",
					"4월",
					"5월",
					"6월",
					"7월",
					"8월",
					"9월",
					"10월",
					"11월",
					"12월"
				]
			},
			"stand-alone": {
				"abbreviated": [
					"1월",
					"2월",
					"3월",
					"4월",
					"5월",
					"6월",
					"7월",
					"8월",
					"9월",
					"10월",
					"11월",
					"12월"
				],
				"narrow": [
					"1월",
					"2월",
					"3월",
					"4월",
					"5월",
					"6월",
					"7월",
					"8월",
					"9월",
					"10월",
					"11월",
					"12월"
				],
				"wide": [
					"1월",
					"2월",
					"3월",
					"4월",
					"5월",
					"6월",
					"7월",
					"8월",
					"9월",
					"10월",
					"11월",
					"12월"
				]
			}
		},
		"days": {
			"format": {
				"abbreviated": [
					"일",
					"월",
					"화",
					"수",
					"목",
					"금",
					"토"
				],
				"narrow": [
					"일",
					"월",
					"화",
					"수",
					"목",
					"금",
					"토"
				],
				"short": [
					"일",
					"월",
					"화",
					"수",
					"목",
					"금",
					"토"
				],
				"wide": [
					"일요일",
					"월요일",
					"화요일",
					"수요일",
					"목요일",
					"금요일",
					"토요일"
				]
			},
			"stand-alone": {
				"abbreviated": [
					"일",
					"월",
					"화",
					"수",
					"목",
					"금",
					"토"
				],
				"narrow": [
					"일",
					"월",
					"화",
					"수",
					"목",
					"금",
					"토"
				],
				"short": [
					"일",
					"월",
					"화",
					"수",
					"목",
					"금",
					"토"
				],
				"wide": [
					"일요일",
					"월요일",
					"화요일",
					"수요일",
					"목요일",
					"금요일",
					"토요일"
				]
			}
		},
		"quarters": {
			"format": {
				"abbreviated": [
					"1분기",
					"2분기",
					"3분기",
					"4분기"
				],
				"narrow": [
					"1",
					"2",
					"3",
					"4"
				],
				"wide": [
					"제 1/4분기",
					"제 2/4분기",
					"제 3/4분기",
					"제 4/4분기"
				]
			},
			"stand-alone": {
				"abbreviated": [
					"1분기",
					"2분기",
					"3분기",
					"4분기"
				],
				"narrow": [
					"1",
					"2",
					"3",
					"4"
				],
				"wide": [
					"제 1/4분기",
					"제 2/4분기",
					"제 3/4분기",
					"제 4/4분기"
				]
			}
		},
		"dayPeriods": {
			"format": {
				"abbreviated": [
					"AM",
					"PM"
				],
				"narrow": [
					"AM",
					"PM"
				],
				"wide": [
					"오전",
					"오후"
				]
			},
			"stand-alone": {
				"abbreviated": [
					"AM",
					"PM"
				],
				"narrow": [
					"AM",
					"PM"
				],
				"wide": [
					"오전",
					"오후"
				]
			}
		},
		"era-wide": {
			"0": "불기"
		},
		"era-abbreviated": {
			"0": "불기"
		},
		"era-narrow": {
			"0": "BE"
		}
	},
	"dateFields": {
		"era": {
			"displayName": "연호"
		},
		"year-wide": {
			"displayName": "년",
			"relative-type--1": "작년",
			"relative-type-0": "올해",
			"relative-type-1": "내년",
			"relativeTime-type-future": {
				"relativeTimePattern-count-other": "{0}년 후"
			},
			"relativeTime-type-past": {
				"relativeTimePattern-count-other": "{0}년 전"
			}
		},
		"year-short": {
			"displayName": "년",
			"relative-type--1": "작년",
			"relative-type-0": "올해",
			"relative-type-1": "내년",
			"relativeTime-type-future": {
				"relativeTimePattern-count-other": "{0}년 후"
			},
			"relativeTime-type-past": {
				"relativeTimePattern-count-other": "{0}년 전"
			}
		},
		"year-narrow": {
			"displayName": "년",
			"relative-type--1": "작년",
			"relative-type-0": "올해",
			"relative-type-1": "내년",
			"relativeTime-type-future": {
				"relativeTimePattern-count-other": "{0}년 후"
			},
			"relativeTime-type-past": {
				"relativeTimePattern-count-other": "{0}년 전"
			}
		},
		"quarter-wide": {
			"displayName": "분기",
			"relative-type--1": "지난 분기",
			"relative-type-0": "이번 분기",
			"relative-type-1": "다음 분기",
			"relativeTime-type-future": {
				"relativeTimePattern-count-other": "{0}분기 후"
			},
			"relativeTime-type-past": {
				"relativeTimePattern-count-other": "{0}분기 전"
			}
		},
		"quarter-short": {
			"displayName": "분기",
			"relative-type--1": "지난 분기",
			"relative-type-0": "이번 분기",
			"relative-type-1": "다음 분기",
			"relativeTime-type-future": {
				"relativeTimePattern-count-other": "{0}분기 후"
			},
			"relativeTime-type-past": {
				"relativeTimePattern-count-other": "{0}분기 전"
			}
		},
		"quarter-narrow": {
			"displayName": "분기",
			"relative-type--1": "지난 분기",
			"relative-type-0": "이번 분기",
			"relative-type-1": "다음 분기",
			"relativeTime-type-future": {
				"relativeTimePattern-count-other": "{0}분기 후"
			},
			"relativeTime-type-past": {
				"relativeTimePattern-count-other": "{0}분기 전"
			}
		},
		"month-wide": {
			"displayName": "월",
			"relative-type--1": "지난달",
			"relative-type-0": "이번 달",
			"relative-type-1": "다음 달",
			"relativeTime-type-future": {
				"relativeTimePattern-count-other": "{0}개월 후"
			},
			"relativeTime-type-past": {
				"relativeTimePattern-count-other": "{0}개월 전"
			}
		},
		"month-short": {
			"displayName": "월",
			"relative-type--1": "지난달",
			"relative-type-0": "이번 달",
			"relative-type-1": "다음 달",
			"relativeTime-type-future": {
				"relativeTimePattern-count-other": "{0}개월 후"
			},
			"relativeTime-type-past": {
				"relativeTimePattern-count-other": "{0}개월 전"
			}
		},
		"month-narrow": {
			"displayName": "월",
			"relative-type--1": "지난달",
			"relative-type-0": "이번 달",
			"relative-type-1": "다음 달",
			"relativeTime-type-future": {
				"relativeTimePattern-count-other": "{0}개월 후"
			},
			"relativeTime-type-past": {
				"relativeTimePattern-count-other": "{0}개월 전"
			}
		},
		"week-wide": {
			"displayName": "주",
			"relative-type--1": "지난주",
			"relative-type-0": "이번 주",
			"relative-type-1": "다음 주",
			"relativeTime-type-future": {
				"relativeTimePattern-count-other": "{0}주 후"
			},
			"relativeTime-type-past": {
				"relativeTimePattern-count-other": "{0}주 전"
			},
			"relativePeriod": "{0}번째 주"
		},
		"week-short": {
			"displayName": "주",
			"relative-type--1": "지난주",
			"relative-type-0": "이번 주",
			"relative-type-1": "다음 주",
			"relativeTime-type-future": {
				"relativeTimePattern-count-other": "{0}주 후"
			},
			"relativeTime-type-past": {
				"relativeTimePattern-count-other": "{0}주 전"
			},
			"relativePeriod": "{0}번째 주"
		},
		"week-narrow": {
			"displayName": "주",
			"relative-type--1": "지난주",
			"relative-type-0": "이번 주",
			"relative-type-1": "다음 주",
			"relativeTime-type-future": {
				"relativeTimePattern-count-other": "{0}주 후"
			},
			"relativeTime-type-past": {
				"relativeTimePattern-count-other": "{0}주 전"
			},
			"relativePeriod": "{0}번째 주"
		},
		"day-wide": {
			"displayName": "일",
			"relative-type--2": "그저께",
			"relative-type--1": "어제",
			"relative-type-0": "오늘",
			"relative-type-1": "내일",
			"relative-type-2": "모레",
			"relativeTime-type-future": {
				"relativeTimePattern-count-other": "{0}일 후"
			},
			"relativeTime-type-past": {
				"relativeTimePattern-count-other": "{0}일 전"
			}
		},
		"day-short": {
			"displayName": "일",
			"relative-type--2": "그저께",
			"relative-type--1": "어제",
			"relative-type-0": "오늘",
			"relative-type-1": "내일",
			"relative-type-2": "모레",
			"relativeTime-type-future": {
				"relativeTimePattern-count-other": "{0}일 후"
			},
			"relativeTime-type-past": {
				"relativeTimePattern-count-other": "{0}일 전"
			}
		},
		"day-narrow": {
			"displayName": "일",
			"relative-type--2": "그저께",
			"relative-type--1": "어제",
			"relative-type-0": "오늘",
			"relative-type-1": "내일",
			"relative-type-2": "모레",
			"relativeTime-type-future": {
				"relativeTimePattern-count-other": "{0}일 후"
			},
			"relativeTime-type-past": {
				"relativeTimePattern-count-other": "{0}일 전"
			}
		},
		"weekday": {
			"displayName": "요일"
		},
		"hour-wide": {
			"displayName": "시",
			"relative-type-0": "현재 시간",
			"relativeTime-type-future": {
				"relativeTimePattern-count-other": "{0}시간 후"
			},
			"relativeTime-type-past": {
				"relativeTimePattern-count-other": "{0}시간 전"
			}
		},
		"hour-short": {
			"displayName": "시",
			"relative-type-0": "현재 시간",
			"relativeTime-type-future": {
				"relativeTimePattern-count-other": "{0}시간 후"
			},
			"relativeTime-type-past": {
				"relativeTimePattern-count-other": "{0}시간 전"
			}
		},
		"hour-narrow": {
			"displayName": "시",
			"relative-type-0": "현재 시간",
			"relativeTime-type-future": {
				"relativeTimePattern-count-other": "{0}시간 후"
			},
			"relativeTime-type-past": {
				"relativeTimePattern-count-other": "{0}시간 전"
			}
		},
		"minute-wide": {
			"displayName": "분",
			"relative-type-0": "현재 분",
			"relativeTime-type-future": {
				"relativeTimePattern-count-other": "{0}분 후"
			},
			"relativeTime-type-past": {
				"relativeTimePattern-count-other": "{0}분 전"
			}
		},
		"minute-short": {
			"displayName": "분",
			"relative-type-0": "현재 분",
			"relativeTime-type-future": {
				"relativeTimePattern-count-other": "{0}분 후"
			},
			"relativeTime-type-past": {
				"relativeTimePattern-count-other": "{0}분 전"
			}
		},
		"minute-narrow": {
			"displayName": "분",
			"relative-type-0": "현재 분",
			"relativeTime-type-future": {
				"relativeTimePattern-count-other": "{0}분 후"
			},
			"relativeTime-type-past": {
				"relativeTimePattern-count-other": "{0}분 전"
			}
		},
		"second-wide": {
			"displayName": "초",
			"relative-type-0": "지금",
			"relativeTime-type-future": {
				"relativeTimePattern-count-other": "{0}초 후"
			},
			"relativeTime-type-past": {
				"relativeTimePattern-count-other": "{0}초 전"
			}
		},
		"second-short": {
			"displayName": "초",
			"relative-type-0": "지금",
			"relativeTime-type-future": {
				"relativeTimePattern-count-other": "{0}초 후"
			},
			"relativeTime-type-past": {
				"relativeTimePattern-count-other": "{0}초 전"
			}
		},
		"second-narrow": {
			"displayName": "초",
			"relative-type-0": "지금",
			"relativeTime-type-future": {
				"relativeTimePattern-count-other": "{0}초 후"
			},
			"relativeTime-type-past": {
				"relativeTimePattern-count-other": "{0}초 전"
			}
		},
		"zone": {
			"displayName": "시간대"
		}
	},
	"decimalFormat": {
		"standard": "#,##0.###"
	},
	"decimalFormat-long": {
		"1000-other": "0천",
		"10000-other": "0만",
		"100000-other": "00만",
		"1000000-other": "000만",
		"10000000-other": "0000만",
		"100000000-other": "0억",
		"1000000000-other": "00억",
		"10000000000-other": "000억",
		"100000000000-other": "0000억",
		"1000000000000-other": "0조",
		"10000000000000-other": "00조",
		"100000000000000-other": "000조"
	},
	"decimalFormat-short": {
		"1000-other": "0천",
		"10000-other": "0만",
		"100000-other": "00만",
		"1000000-other": "000만",
		"10000000-other": "0000만",
		"100000000-other": "0억",
		"1000000000-other": "00억",
		"10000000000-other": "000억",
		"100000000000-other": "0000억",
		"1000000000000-other": "0조",
		"10000000000000-other": "00조",
		"100000000000000-other": "000조"
	},
	"scientificFormat": {
		"standard": "#E0"
	},
	"percentFormat": {
		"standard": "#,##0%"
	},
	"currencyFormat": {
		"standard": "¤#,##0.00",
		"accounting": "¤#,##0.00;(¤#,##0.00)",
		"currencySpacing": {
			"beforeCurrency": {
				"currencyMatch": "[:^S:]",
				"surroundingMatch": "[:digit:]",
				"insertBetween": " "
			},
			"afterCurrency": {
				"currencyMatch": "[:^S:]",
				"surroundingMatch": "[:digit:]",
				"insertBetween": " "
			}
		}
	},
	"currencyFormat-short": {
		"1000-other": "¤0천",
		"10000-other": "¤0만",
		"100000-other": "¤00만",
		"1000000-other": "¤000만",
		"10000000-other": "¤0000만",
		"100000000-other": "¤0억",
		"1000000000-other": "¤00억",
		"10000000000-other": "¤000억",
		"100000000000-other": "¤0000억",
		"1000000000000-other": "¤0조",
		"10000000000000-other": "¤00조",
		"100000000000000-other": "¤000조"
	},
	"symbols-latn-decimal": ".",
	"symbols-latn-group": ",",
	"symbols-latn-list": ";",
	"symbols-latn-percentSign": "%",
	"symbols-latn-plusSign": "+",
	"symbols-latn-minusSign": "-",
	"symbols-latn-exponential": "E",
	"symbols-latn-superscriptingExponent": "×",
	"symbols-latn-perMille": "‰",
	"symbols-latn-infinity": "∞",
	"symbols-latn-nan": "NaN",
	"symbols-latn-timeSeparator": ":",
	"currencySymbols": {
		"AUD": "AU$",
		"BRL": "R$",
		"CAD": "CA$",
		"CNY": "CN¥",
		"EUR": "€",
		"GBP": "£",
		"HKD": "HK$",
		"ILS": "₪",
		"INR": "₹",
		"JPY": "JP¥",
		"KRW": "₩",
		"MXN": "MX$",
		"NZD": "NZ$",
		"TWD": "NT$",
		"USD": "US$",
		"VND": "₫",
		"XAF": "FCFA",
		"XCD": "EC$",
		"XOF": "CFA",
		"XPF": "CFPF",
		"XXX": "¤"
	},
	"rtl": false,
	"listPattern-standard-wide": {
		"2": "{0} 및 {1}",
		"start": "{0}, {1}",
		"middle": "{0}, {1}",
		"end": "{0} 및 {1}"
	},
	"listPattern-or-wide": {
		"2": "{0} 또는 {1}",
		"start": "{0}, {1}",
		"middle": "{0}, {1}",
		"end": "{0} 또는 {1}"
	},
	"listPattern-or-short": {
		"2": "{0} 또는 {1}",
		"start": "{0}, {1}",
		"middle": "{0}, {1}",
		"end": "{0} 또는 {1}"
	},
	"listPattern-standard-short": {
		"2": "{0} 및 {1}",
		"start": "{0}, {1}",
		"middle": "{0}, {1}",
		"end": "{0} 및 {1}"
	},
	"units": {
		"short": {
			"per": {
				"compoundUnitPattern": "{0}/{1}"
			},
			"acceleration-g-force": {
				"displayName": "g-force",
				"unitPattern-count-other": "{0}G"
			},
			"acceleration-meter-per-second-squared": {
				"displayName": "m/s²",
				"unitPattern-count-other": "{0}m/s²"
			},
			"angle-revolution": {
				"displayName": "rev",
				"unitPattern-count-other": "{0}rev"
			},
			"angle-radian": {
				"displayName": "rad",
				"unitPattern-count-other": "{0}rad"
			},
			"angle-degree": {
				"displayName": "°",
				"unitPattern-count-other": "{0}°"
			},
			"angle-arc-minute": {
				"displayName": "′",
				"unitPattern-count-other": "{0}′"
			},
			"angle-arc-second": {
				"displayName": "″",
				"unitPattern-count-other": "{0}″"
			},
			"area-square-kilometer": {
				"displayName": "km²",
				"unitPattern-count-other": "{0}km²",
				"perUnitPattern": "{0}/km²"
			},
			"area-hectare": {
				"displayName": "ha",
				"unitPattern-count-other": "{0}ha"
			},
			"area-square-meter": {
				"displayName": "m²",
				"unitPattern-count-other": "{0}m²",
				"perUnitPattern": "{0}/m²"
			},
			"area-square-centimeter": {
				"displayName": "cm²",
				"unitPattern-count-other": "{0}cm²",
				"perUnitPattern": "{0}/cm²"
			},
			"area-square-mile": {
				"displayName": "mi²",
				"unitPattern-count-other": "{0}mi²",
				"perUnitPattern": "{0}/mi²"
			},
			"area-acre": {
				"displayName": "ac",
				"unitPattern-count-other": "{0}ac"
			},
			"area-square-yard": {
				"displayName": "yd²",
				"unitPattern-count-other": "{0}yd²"
			},
			"area-square-foot": {
				"displayName": "ft²",
				"unitPattern-count-other": "{0}ft²"
			},
			"area-square-inch": {
				"displayName": "in²",
				"unitPattern-count-other": "{0}in²",
				"perUnitPattern": "{0}/in²"
			},
			"concentr-karat": {
				"displayName": "kt",
				"unitPattern-count-other": "{0}kt"
			},
			"concentr-milligram-per-deciliter": {
				"displayName": "mg/dL",
				"unitPattern-count-other": "{0}mg/dL"
			},
			"concentr-millimole-per-liter": {
				"displayName": "mmol/L",
				"unitPattern-count-other": "{0}mmol/L"
			},
			"concentr-part-per-million": {
				"displayName": "ppm",
				"unitPattern-count-other": "{0}ppm"
			},
			"concentr-percent": {
				"displayName": "%",
				"unitPattern-count-other": "{0}%"
			},
			"concentr-permille": {
				"displayName": "‰",
				"unitPattern-count-other": "{0}‰"
			},
			"consumption-liter-per-kilometer": {
				"displayName": "L/km",
				"unitPattern-count-other": "{0}L/km"
			},
			"consumption-liter-per-100kilometers": {
				"displayName": "L/100km",
				"unitPattern-count-other": "{0}L/100km"
			},
			"consumption-mile-per-gallon": {
				"displayName": "mpg",
				"unitPattern-count-other": "{0}mpg"
			},
			"consumption-mile-per-gallon-imperial": {
				"displayName": "mpg Imp.",
				"unitPattern-count-other": "{0}mpg Imp."
			},
			"digital-petabyte": {
				"displayName": "PB",
				"unitPattern-count-other": "{0}PB"
			},
			"digital-terabyte": {
				"displayName": "TB",
				"unitPattern-count-other": "{0}TB"
			},
			"digital-terabit": {
				"displayName": "Tb",
				"unitPattern-count-other": "{0}Tb"
			},
			"digital-gigabyte": {
				"displayName": "GB",
				"unitPattern-count-other": "{0}GB"
			},
			"digital-gigabit": {
				"displayName": "Gb",
				"unitPattern-count-other": "{0}Gb"
			},
			"digital-megabyte": {
				"displayName": "MB",
				"unitPattern-count-other": "{0}MB"
			},
			"digital-megabit": {
				"displayName": "Mb",
				"unitPattern-count-other": "{0}Mb"
			},
			"digital-kilobyte": {
				"displayName": "kB",
				"unitPattern-count-other": "{0}kB"
			},
			"digital-kilobit": {
				"displayName": "kb",
				"unitPattern-count-other": "{0}kb"
			},
			"digital-byte": {
				"displayName": "byte",
				"unitPattern-count-other": "{0}byte"
			},
			"digital-bit": {
				"displayName": "bit",
				"unitPattern-count-other": "{0}bit"
			},
			"duration-century": {
				"displayName": "C",
				"unitPattern-count-other": "{0}C"
			},
			"duration-year": {
				"displayName": "년",
				"unitPattern-count-other": "{0}년",
				"perUnitPattern": "{0}/년"
			},
			"duration-month": {
				"displayName": "개월",
				"unitPattern-count-other": "{0}개월",
				"perUnitPattern": "{0}/월"
			},
			"duration-week": {
				"displayName": "주",
				"unitPattern-count-other": "{0}주",
				"perUnitPattern": "{0}/주"
			},
			"duration-day": {
				"displayName": "일",
				"unitPattern-count-other": "{0}일",
				"perUnitPattern": "{0}/일"
			},
			"duration-hour": {
				"displayName": "시간",
				"unitPattern-count-other": "{0}시간",
				"perUnitPattern": "{0}/h"
			},
			"duration-minute": {
				"displayName": "분",
				"unitPattern-count-other": "{0}분",
				"perUnitPattern": "{0}/min"
			},
			"duration-second": {
				"displayName": "초",
				"unitPattern-count-other": "{0}초",
				"perUnitPattern": "{0}/s"
			},
			"duration-millisecond": {
				"displayName": "밀리초",
				"unitPattern-count-other": "{0}ms"
			},
			"duration-microsecond": {
				"displayName": "μs",
				"unitPattern-count-other": "{0}μs"
			},
			"duration-nanosecond": {
				"displayName": "ns",
				"unitPattern-count-other": "{0}ns"
			},
			"electric-ampere": {
				"displayName": "amp",
				"unitPattern-count-other": "{0}A"
			},
			"electric-milliampere": {
				"displayName": "mA",
				"unitPattern-count-other": "{0}mA"
			},
			"electric-ohm": {
				"displayName": "ohm",
				"unitPattern-count-other": "{0}Ω"
			},
			"electric-volt": {
				"displayName": "V",
				"unitPattern-count-other": "{0}V"
			},
			"energy-kilocalorie": {
				"displayName": "kcal",
				"unitPattern-count-other": "{0}kcal"
			},
			"energy-calorie": {
				"displayName": "cal",
				"unitPattern-count-other": "{0}cal"
			},
			"energy-foodcalorie": {
				"displayName": "Cal",
				"unitPattern-count-other": "{0}Cal"
			},
			"energy-kilojoule": {
				"displayName": "kJ",
				"unitPattern-count-other": "{0}kJ"
			},
			"energy-joule": {
				"displayName": "줄",
				"unitPattern-count-other": "{0}줄"
			},
			"energy-kilowatt-hour": {
				"displayName": "kWh",
				"unitPattern-count-other": "{0}kWh"
			},
			"frequency-gigahertz": {
				"displayName": "GHz",
				"unitPattern-count-other": "{0}GHz"
			},
			"frequency-megahertz": {
				"displayName": "MHz",
				"unitPattern-count-other": "{0}MHz"
			},
			"frequency-kilohertz": {
				"displayName": "kHz",
				"unitPattern-count-other": "{0}kHz"
			},
			"frequency-hertz": {
				"displayName": "Hz",
				"unitPattern-count-other": "{0}Hz"
			},
			"length-kilometer": {
				"displayName": "km",
				"unitPattern-count-other": "{0}km",
				"perUnitPattern": "{0}/km"
			},
			"length-meter": {
				"displayName": "m",
				"unitPattern-count-other": "{0}m",
				"perUnitPattern": "{0}/m"
			},
			"length-decimeter": {
				"displayName": "dm",
				"unitPattern-count-other": "{0}dm"
			},
			"length-centimeter": {
				"displayName": "cm",
				"unitPattern-count-other": "{0}cm",
				"perUnitPattern": "{0}/cm"
			},
			"length-millimeter": {
				"displayName": "mm",
				"unitPattern-count-other": "{0}mm"
			},
			"length-micrometer": {
				"displayName": "µm",
				"unitPattern-count-other": "{0}µm"
			},
			"length-nanometer": {
				"displayName": "nm",
				"unitPattern-count-other": "{0}nm"
			},
			"length-picometer": {
				"displayName": "pm",
				"unitPattern-count-other": "{0}pm"
			},
			"length-mile": {
				"displayName": "mi",
				"unitPattern-count-other": "{0}mi"
			},
			"length-yard": {
				"displayName": "yd",
				"unitPattern-count-other": "{0}야드"
			},
			"length-foot": {
				"displayName": "ft",
				"unitPattern-count-other": "{0}ft",
				"perUnitPattern": "{0}/ft"
			},
			"length-inch": {
				"displayName": "in",
				"unitPattern-count-other": "{0}in",
				"perUnitPattern": "{0}/in"
			},
			"length-parsec": {
				"displayName": "pc",
				"unitPattern-count-other": "{0}pc"
			},
			"length-light-year": {
				"displayName": "ly",
				"unitPattern-count-other": "{0}ly"
			},
			"length-astronomical-unit": {
				"displayName": "au",
				"unitPattern-count-other": "{0}au"
			},
			"length-furlong": {
				"displayName": "fur",
				"unitPattern-count-other": "{0}fur"
			},
			"length-fathom": {
				"displayName": "fm",
				"unitPattern-count-other": "{0}fth"
			},
			"length-nautical-mile": {
				"displayName": "nmi",
				"unitPattern-count-other": "{0}nmi"
			},
			"length-mile-scandinavian": {
				"displayName": "smi",
				"unitPattern-count-other": "{0}smi"
			},
			"length-point": {
				"displayName": "pt",
				"unitPattern-count-other": "{0}pt"
			},
			"light-lux": {
				"displayName": "lx",
				"unitPattern-count-other": "{0}lx"
			},
			"mass-metric-ton": {
				"displayName": "t",
				"unitPattern-count-other": "{0}t"
			},
			"mass-kilogram": {
				"displayName": "kg",
				"unitPattern-count-other": "{0}kg",
				"perUnitPattern": "{0}/kg"
			},
			"mass-gram": {
				"displayName": "그램",
				"unitPattern-count-other": "{0}g",
				"perUnitPattern": "{0}/g"
			},
			"mass-milligram": {
				"displayName": "mg",
				"unitPattern-count-other": "{0}mg"
			},
			"mass-microgram": {
				"displayName": "µg",
				"unitPattern-count-other": "{0}µg"
			},
			"mass-ton": {
				"displayName": "tn",
				"unitPattern-count-other": "{0}tn"
			},
			"mass-stone": {
				"displayName": "st",
				"unitPattern-count-other": "{0}st"
			},
			"mass-pound": {
				"displayName": "lb",
				"unitPattern-count-other": "{0}lb",
				"perUnitPattern": "{0}/lb"
			},
			"mass-ounce": {
				"displayName": "oz",
				"unitPattern-count-other": "{0}oz",
				"perUnitPattern": "{0}/oz"
			},
			"mass-ounce-troy": {
				"displayName": "oz t",
				"unitPattern-count-other": "{0}oz t"
			},
			"mass-carat": {
				"displayName": "CD",
				"unitPattern-count-other": "{0}CD"
			},
			"power-gigawatt": {
				"displayName": "GW",
				"unitPattern-count-other": "{0}GW"
			},
			"power-megawatt": {
				"displayName": "MW",
				"unitPattern-count-other": "{0}MW"
			},
			"power-kilowatt": {
				"displayName": "kW",
				"unitPattern-count-other": "{0}kW"
			},
			"power-watt": {
				"displayName": "w",
				"unitPattern-count-other": "{0}W"
			},
			"power-milliwatt": {
				"displayName": "mW",
				"unitPattern-count-other": "{0}mW"
			},
			"power-horsepower": {
				"displayName": "hp",
				"unitPattern-count-other": "{0}hp"
			},
			"pressure-hectopascal": {
				"displayName": "hPa",
				"unitPattern-count-other": "{0}hPa"
			},
			"pressure-millimeter-of-mercury": {
				"displayName": "mmHg",
				"unitPattern-count-other": "{0}mmHg"
			},
			"pressure-pound-per-square-inch": {
				"displayName": "psi",
				"unitPattern-count-other": "{0}psi"
			},
			"pressure-inch-hg": {
				"displayName": "inHg",
				"unitPattern-count-other": "{0}inHg"
			},
			"pressure-millibar": {
				"displayName": "mbar",
				"unitPattern-count-other": "{0}mb"
			},
			"pressure-atmosphere": {
				"displayName": "atm",
				"unitPattern-count-other": "{0}atm"
			},
			"speed-kilometer-per-hour": {
				"displayName": "km/h",
				"unitPattern-count-other": "{0}km/h"
			},
			"speed-meter-per-second": {
				"displayName": "m/s",
				"unitPattern-count-other": "{0}m/s"
			},
			"speed-mile-per-hour": {
				"displayName": "mi/h",
				"unitPattern-count-other": "{0}mi/h"
			},
			"speed-knot": {
				"displayName": "kn",
				"unitPattern-count-other": "{0}kn"
			},
			"temperature-generic": {
				"displayName": "°",
				"unitPattern-count-other": "{0}°"
			},
			"temperature-celsius": {
				"displayName": "°C",
				"unitPattern-count-other": "{0}°C"
			},
			"temperature-fahrenheit": {
				"displayName": "°F",
				"unitPattern-count-other": "{0}°F"
			},
			"temperature-kelvin": {
				"displayName": "K",
				"unitPattern-count-other": "{0}K"
			},
			"volume-cubic-kilometer": {
				"displayName": "km³",
				"unitPattern-count-other": "{0}km³"
			},
			"volume-cubic-meter": {
				"displayName": "m³",
				"unitPattern-count-other": "{0}m³",
				"perUnitPattern": "{0}/m³"
			},
			"volume-cubic-centimeter": {
				"displayName": "cm³",
				"unitPattern-count-other": "{0}cm³",
				"perUnitPattern": "{0}/cm³"
			},
			"volume-cubic-mile": {
				"displayName": "mi³",
				"unitPattern-count-other": "{0}mi³"
			},
			"volume-cubic-yard": {
				"displayName": "yd³",
				"unitPattern-count-other": "{0}yd³"
			},
			"volume-cubic-foot": {
				"displayName": "ft³",
				"unitPattern-count-other": "{0}ft³"
			},
			"volume-cubic-inch": {
				"displayName": "in³",
				"unitPattern-count-other": "{0}in³"
			},
			"volume-megaliter": {
				"displayName": "ML",
				"unitPattern-count-other": "{0}ML"
			},
			"volume-hectoliter": {
				"displayName": "hL",
				"unitPattern-count-other": "{0}hL"
			},
			"volume-liter": {
				"displayName": "리터",
				"unitPattern-count-other": "{0}L",
				"perUnitPattern": "{0}/L"
			},
			"volume-deciliter": {
				"displayName": "dL",
				"unitPattern-count-other": "{0}dL"
			},
			"volume-centiliter": {
				"displayName": "cL",
				"unitPattern-count-other": "{0}cL"
			},
			"volume-milliliter": {
				"displayName": "mL",
				"unitPattern-count-other": "{0}mL"
			},
			"volume-pint-metric": {
				"displayName": "mpt",
				"unitPattern-count-other": "{0}mpt"
			},
			"volume-cup-metric": {
				"displayName": "mcup",
				"unitPattern-count-other": "{0}mc"
			},
			"volume-acre-foot": {
				"displayName": "ac ft",
				"unitPattern-count-other": "{0}ac ft"
			},
			"volume-bushel": {
				"displayName": "bu",
				"unitPattern-count-other": "{0} bu"
			},
			"volume-gallon": {
				"displayName": "gal",
				"unitPattern-count-other": "{0}gal",
				"perUnitPattern": "{0}/gal"
			},
			"volume-gallon-imperial": {
				"displayName": "Imp. gal",
				"unitPattern-count-other": "{0}gal Imp.",
				"perUnitPattern": "{0}/gal Imp."
			},
			"volume-quart": {
				"displayName": "qt",
				"unitPattern-count-other": "{0}qt"
			},
			"volume-pint": {
				"displayName": "pt",
				"unitPattern-count-other": "{0}pt"
			},
			"volume-cup": {
				"displayName": "컵",
				"unitPattern-count-other": "{0}컵"
			},
			"volume-fluid-ounce": {
				"displayName": "fl oz",
				"unitPattern-count-other": "{0}fl oz"
			},
			"volume-tablespoon": {
				"displayName": "tbsp",
				"unitPattern-count-other": "{0}tbsp"
			},
			"volume-teaspoon": {
				"displayName": "tsp",
				"unitPattern-count-other": "{0}tsp"
			},
			"coordinateUnit": {
				"displayName": "쪽",
				"east": "{0}E",
				"north": "{0}N",
				"south": "{0}S",
				"west": "{0}W"
			}
		}
	},
	"currencyDigits": {
		"ADP": 0,
		"AFN": 0,
		"ALL": 0,
		"BHD": 3,
		"BIF": 0,
		"BYR": 0,
		"CLF": 4,
		"CLP": 0,
		"DEFAULT": 2,
		"DJF": 0,
		"ESP": 0,
		"GNF": 0,
		"HUF": 0,
		"IQD": 0,
		"IRR": 0,
		"ISK": 0,
		"ITL": 0,
		"JOD": 3,
		"JPY": 0,
		"KMF": 0,
		"KPW": 0,
		"KRW": 0,
		"KWD": 3,
		"LAK": 0,
		"LBP": 0,
		"LUF": 0,
		"LYD": 3,
		"MGA": 0,
		"MGF": 0,
		"MMK": 0,
		"MRO": 0,
		"OMR": 3,
		"PYG": 0,
		"RSD": 0,
		"RWF": 0,
		"SLL": 0,
		"SOS": 0,
		"STD": 0,
		"SYP": 0,
		"TMM": 0,
		"TND": 3,
		"TRL": 0,
		"TWD": 0,
		"UGX": 0,
		"UYI": 0,
		"UYW": 4,
		"VND": 0,
		"VUV": 0,
		"XAF": 0,
		"XOF": 0,
		"XPF": 0,
		"YER": 0,
		"ZMK": 0,
		"ZWD": 0
	},
	"plurals": {},
	"weekData-minDays": 1,
	"weekData-firstDay": 0,
	"weekData-weekendStart": 6,
	"weekData-weekendEnd": 0,
	"timeData": {
		"_allowed": "h H hB hb",
		"_preferred": "h"
	},
	"eras-gregorian": {
		"0": {
			"_end": "0-12-31"
		},
		"1": {
			"_start": "1-01-01"
		}
	},
	"eras-islamic": {
		"0": {
			"_start": "622-7-15"
		}
	},
	"eras-persian": {
		"0": {
			"_start": "622-01-01"
		}
	},
	"eras-buddhist": {
		"0": {
			"_start": "-542-01-01"
		}
	},
	"eras-japanese": {
		"232": {
			"_start": "1868-9-8"
		},
		"233": {
			"_start": "1912-7-30"
		},
		"234": {
			"_start": "1926-12-25"
		},
		"235": {
			"_start": "1989-1-8"
		},
		"236": {
			"_start": "2019-5-1"
		}
	},
	"calendarPreference": "gregorian dangi"
}