{
	"__license": "This file has been derived from Unicode Common Locale Data Repository (CLDR) files (http://cldr.unicode.org). See the copyright and permission notice in the Unicode-Data-Files-LICENSE.txt available at the same location as this file or visit http://www.unicode.org/copyright.html",
	"languages": {
		"aa": "อะฟาร์",
		"ab": "อับฮาเซีย",
		"ace": "อาเจะห์",
		"ach": "อาโคลิ",
		"ada": "อาแดงมี",
		"ady": "อะดืยเก",
		"ae": "อเวสตะ",
		"aeb": "อาหรับตูนิเซีย",
		"af": "แอฟริกานส์",
		"afh": "แอฟริฮีลี",
		"agq": "อักเฮม",
		"ain": "ไอนุ",
		"ak": "อาคาน",
		"akk": "อักกาด",
		"akz": "แอละแบมา",
		"ale": "อาลิวต์",
		"aln": "เกกแอลเบเนีย",
		"alt": "อัลไตใต้",
		"am": "อัมฮารา",
		"an": "อารากอน",
		"ang": "อังกฤษโบราณ",
		"anp": "อังคิกา",
		"ar": "อาหรับ",
		"ar_001": "อาหรับมาตรฐานสมัยใหม่",
		"arc": "อราเมอิก",
		"arn": "มาปูเช",
		"aro": "อาเรานา",
		"arp": "อาราปาโฮ",
		"arq": "อาหรับแอลจีเรีย",
		"ars": "อาหรับนัจญ์ดี",
		"arw": "อาราวัก",
		"ary": "อาหรับโมร็อกโก",
		"arz": "อาหรับพื้นเมืองอียิปต์",
		"as": "อัสสัม",
		"asa": "อาซู",
		"ase": "ภาษามืออเมริกัน",
		"ast": "อัสตูเรียส",
		"av": "อาวาร์",
		"avk": "โคตาวา",
		"awa": "อวธี",
		"ay": "ไอย์มารา",
		"az": "อาเซอร์ไบจาน",
		"az_alt-short": "อะเซอรี",
		"ba": "บัชคีร์",
		"bal": "บาลูชิ",
		"ban": "บาหลี",
		"bar": "บาวาเรีย",
		"bas": "บาสา",
		"bax": "บามัน",
		"bbc": "บาตักโทบา",
		"bbj": "โคมาลา",
		"be": "เบลารุส",
		"bej": "เบจา",
		"bem": "เบมบา",
		"bew": "เบตาวี",
		"bez": "เบนา",
		"bfd": "บาฟัต",
		"bfq": "พทคะ",
		"bg": "บัลแกเรีย",
		"bgn": "บาลูจิตะวันตก",
		"bho": "โภชปุรี",
		"bi": "บิสลามา",
		"bik": "บิกอล",
		"bin": "บินี",
		"bjn": "บันจาร์",
		"bkm": "กม",
		"bla": "สิกสิกา",
		"bm": "บัมบารา",
		"bn": "บังกลา",
		"bo": "ทิเบต",
		"bpy": "พิศนุปริยะ",
		"bqi": "บักติยารี",
		"br": "เบรตัน",
		"bra": "พัรช",
		"brh": "บราฮุย",
		"brx": "โพโฑ",
		"bs": "บอสเนีย",
		"bss": "อาโคซี",
		"bua": "บูเรียต",
		"bug": "บูกิส",
		"bum": "บูลู",
		"byn": "บลิน",
		"byv": "เมดุมบา",
		"ca": "คาตาลัน",
		"cad": "คัดโด",
		"car": "คาริบ",
		"cay": "คายูกา",
		"cch": "แอตแซม",
		"ccp": "ccp",
		"ce": "เชเชน",
		"ceb": "เซบู",
		"cgg": "คีกา",
		"ch": "ชามอร์โร",
		"chb": "ชิบชา",
		"chg": "ชะกะไต",
		"chk": "ชูก",
		"chm": "มารี",
		"chn": "ชินุกจาร์กอน",
		"cho": "ช็อกทอว์",
		"chp": "ชิพิวยัน",
		"chr": "เชอโรกี",
		"chy": "เชเยนเน",
		"ckb": "เคิร์ดตอนกลาง",
		"co": "คอร์ซิกา",
		"cop": "คอปติก",
		"cps": "กาปิซนอน",
		"cr": "ครี",
		"crh": "ตุรกีไครเมีย",
		"crs": "ครีโอลเซเซลส์ฝรั่งเศส",
		"cs": "เช็ก",
		"csb": "คาซูเบียน",
		"cu": "เชอร์ชสลาวิก",
		"cv": "ชูวัช",
		"cy": "เวลส์",
		"da": "เดนมาร์ก",
		"dak": "ดาโกทา",
		"dar": "ดาร์กิน",
		"dav": "ไททา",
		"de": "เยอรมัน",
		"de_AT": "เยอรมัน - ออสเตรีย",
		"de_CH": "เยอรมันสูง (สวิส)",
		"del": "เดลาแวร์",
		"den": "สเลวี",
		"dgr": "โดกริบ",
		"din": "ดิงกา",
		"dje": "ซาร์มา",
		"doi": "โฑครี",
		"dsb": "ซอร์เบียตอนล่าง",
		"dtp": "ดูซุนกลาง",
		"dua": "ดัวลา",
		"dum": "ดัตช์กลาง",
		"dv": "ธิเวหิ",
		"dyo": "โจลา-ฟอนยี",
		"dyu": "ดิวลา",
		"dz": "ซองคา",
		"dzg": "ดาซากา",
		"ebu": "เอ็มบู",
		"ee": "เอเว",
		"efi": "อีฟิก",
		"egl": "เอมีเลีย",
		"egy": "อียิปต์โบราณ",
		"eka": "อีกาจุก",
		"el": "กรีก",
		"elx": "อีลาไมต์",
		"en": "อังกฤษ",
		"en_AU": "อังกฤษ - ออสเตรเลีย",
		"en_CA": "อังกฤษ - แคนาดา",
		"en_GB": "อังกฤษ - สหราชอาณาจักร",
		"en_GB-alt-short": "อังกฤษ - อังกฤษ",
		"en_US": "อังกฤษ - อเมริกัน",
		"en_US-alt-short": "อังกฤษ - อเมริกัน",
		"enm": "อังกฤษกลาง",
		"eo": "เอสเปรันโต",
		"es": "สเปน",
		"es_419": "สเปน - ละตินอเมริกา",
		"es_ES": "สเปน - ยุโรป",
		"es_MX": "สเปน - เม็กซิโก",
		"esu": "ยูพิกกลาง",
		"et": "เอสโตเนีย",
		"eu": "บาสก์",
		"ewo": "อีวันโด",
		"ext": "เอกซ์เตรมาดูรา",
		"fa": "เปอร์เซีย",
		"fan": "ฟอง",
		"fat": "ฟันติ",
		"ff": "ฟูลาห์",
		"fi": "ฟินแลนด์",
		"fil": "ฟิลิปปินส์",
		"fit": "ฟินแลนด์ทอร์เนดาเล็น",
		"fj": "ฟิจิ",
		"fo": "แฟโร",
		"fon": "ฟอน",
		"fr": "ฝรั่งเศส",
		"fr_CA": "ฝรั่งเศส - แคนาดา",
		"fr_CH": "ฝรั่งเศส (สวิส)",
		"frc": "ฝรั่งเศสกาฌ็อง",
		"frm": "ฝรั่งเศสกลาง",
		"fro": "ฝรั่งเศสโบราณ",
		"frp": "อาร์พิตา",
		"frr": "ฟริเซียนเหนือ",
		"frs": "ฟริเซียนตะวันออก",
		"fur": "ฟรูลี",
		"fy": "ฟริเซียนตะวันตก",
		"ga": "ไอริช",
		"gaa": "กา",
		"gag": "กากาอุซ",
		"gan": "จีนกั้น",
		"gay": "กาโย",
		"gba": "กบายา",
		"gbz": "ดารีโซโรอัสเตอร์",
		"gd": "เกลิกสกอต",
		"gez": "กีซ",
		"gil": "กิลเบอร์ต",
		"gl": "กาลิเซีย",
		"glk": "กิลากี",
		"gmh": "เยอรมันสูงกลาง",
		"gn": "กัวรานี",
		"goh": "เยอรมันสูงโบราณ",
		"gom": "กอนกานีของกัว",
		"gon": "กอนดิ",
		"gor": "กอรอนทาโล",
		"got": "โกธิก",
		"grb": "เกรโบ",
		"grc": "กรีกโบราณ",
		"gsw": "เยอรมันสวิส",
		"gu": "คุชราต",
		"guc": "วายู",
		"gur": "ฟราฟรา",
		"guz": "กุซซี",
		"gv": "มานซ์",
		"gwi": "กวิชอิน",
		"ha": "เฮาซา",
		"hai": "ไฮดา",
		"hak": "จีนแคะ",
		"haw": "ฮาวาย",
		"he": "ฮิบรู",
		"hi": "ฮินดี",
		"hif": "ฮินดีฟิจิ",
		"hil": "ฮีลีกัยนน",
		"hit": "ฮิตไตต์",
		"hmn": "ม้ง",
		"ho": "ฮีรีโมตู",
		"hr": "โครเอเชีย",
		"hsb": "ซอร์เบียตอนบน",
		"hsn": "จีนเซียง",
		"ht": "เฮติครีโอล",
		"hu": "ฮังการี",
		"hup": "ฮูปา",
		"hy": "อาร์เมเนีย",
		"hz": "เฮเรโร",
		"ia": "อินเตอร์ลิงกัว",
		"iba": "อิบาน",
		"ibb": "อิบิบิโอ",
		"id": "อินโดนีเซีย",
		"ie": "อินเตอร์ลิงกิว",
		"ig": "อิกโบ",
		"ii": "เสฉวนยิ",
		"ik": "อีนูเปียก",
		"ilo": "อีโลโก",
		"inh": "อินกุช",
		"io": "อีโด",
		"is": "ไอซ์แลนด์",
		"it": "อิตาลี",
		"iu": "อินุกติตุต",
		"izh": "อินเกรียน",
		"ja": "ญี่ปุ่น",
		"jam": "อังกฤษคลีโอลจาเมกา",
		"jbo": "โลชบัน",
		"jgo": "อึนกอมบา",
		"jmc": "มาชาเม",
		"jpr": "ยิว-เปอร์เซีย",
		"jrb": "ยิว-อาหรับ",
		"jut": "จัท",
		"jv": "ชวา",
		"ka": "จอร์เจีย",
		"kaa": "การา-กาลพาก",
		"kab": "กาไบล",
		"kac": "กะฉิ่น",
		"kaj": "คจู",
		"kam": "คัมบา",
		"kaw": "กวี",
		"kbd": "คาร์บาเดีย",
		"kbl": "คาเนมบู",
		"kcg": "ทีแยป",
		"kde": "มาคอนเด",
		"kea": "คาบูเวอร์เดียนู",
		"ken": "เกินยาง",
		"kfo": "โคโร",
		"kg": "คองโก",
		"kgp": "เคนก่าง",
		"kha": "กาสี",
		"kho": "โคตัน",
		"khq": "โคย์ราชีนี",
		"khw": "โควาร์",
		"ki": "กีกูยู",
		"kiu": "เคอร์มานิกิ",
		"kj": "กวนยามา",
		"kk": "คาซัค",
		"kkj": "คาโก",
		"kl": "กรีนแลนด์",
		"kln": "คาเลนจิน",
		"km": "เขมร",
		"kmb": "คิมบุนดู",
		"kn": "กันนาดา",
		"ko": "เกาหลี",
		"koi": "โคมิ-เปียร์เมียค",
		"kok": "กอนกานี",
		"kos": "คูสไร",
		"kpe": "กาแปล",
		"kr": "คานูรี",
		"krc": "คาราไช-บัลคาร์",
		"kri": "คริโอ",
		"krj": "กินารายอา",
		"krl": "แกรเลียน",
		"kru": "กุรุข",
		"ks": "แคชเมียร์",
		"ksb": "ชัมบาลา",
		"ksf": "บาเฟีย",
		"ksh": "โคโลญ",
		"ku": "เคิร์ด",
		"kum": "คูมืยค์",
		"kut": "คูเทไน",
		"kv": "โกมิ",
		"kw": "คอร์นิช",
		"ky": "คีร์กีซ",
		"la": "ละติน",
		"lad": "ลาดิโน",
		"lag": "แลนจี",
		"lah": "ลาฮ์นดา",
		"lam": "แลมบา",
		"lb": "ลักเซมเบิร์ก",
		"lez": "เลซเกียน",
		"lfn": "ลิงกัวฟรังกาโนวา",
		"lg": "ยูกันดา",
		"li": "ลิมเบิร์ก",
		"lij": "ลิกูเรีย",
		"liv": "ลิโวเนีย",
		"lkt": "ลาโกตา",
		"lmo": "ลอมบาร์ด",
		"ln": "ลิงกาลา",
		"lo": "ลาว",
		"lol": "มองโก",
		"lou": "ภาษาครีโอลุยเซียนา",
		"loz": "โลซิ",
		"lrc": "ลูรีเหนือ",
		"lt": "ลิทัวเนีย",
		"ltg": "ลัตเกล",
		"lu": "ลูบา-กาตองกา",
		"lua": "ลูบา-ลูลัว",
		"lui": "ลุยเซโน",
		"lun": "ลันดา",
		"luo": "ลัว",
		"lus": "มิโซ",
		"luy": "ลูเยีย",
		"lv": "ลัตเวีย",
		"lzh": "จีนคลาสสิก",
		"lzz": "แลซ",
		"mad": "มาดูรา",
		"maf": "มาฟา",
		"mag": "มคหี",
		"mai": "ไมถิลี",
		"mak": "มากาซาร์",
		"man": "มันดิงกา",
		"mas": "มาไซ",
		"mde": "มาบา",
		"mdf": "มอคชา",
		"mdr": "มานดาร์",
		"men": "เมนเด",
		"mer": "เมรู",
		"mfe": "มอริสเยน",
		"mg": "มาลากาซี",
		"mga": "ไอริชกลาง",
		"mgh": "มากัววา-มีทโท",
		"mgo": "เมตา",
		"mh": "มาร์แชลลิส",
		"mi": "เมารี",
		"mic": "มิกแมก",
		"min": "มีนังกาเบา",
		"mk": "มาซิโดเนีย",
		"ml": "มาลายาลัม",
		"mn": "มองโกเลีย",
		"mnc": "แมนจู",
		"mni": "มณีปุระ",
		"moh": "โมฮอว์ก",
		"mos": "โมซี",
		"mr": "มราฐี",
		"mrj": "มารีตะวันตก",
		"ms": "มาเลย์",
		"mt": "มอลตา",
		"mua": "มันดัง",
		"mul": "หลายภาษา",
		"mus": "ครีก",
		"mwl": "มีรันดา",
		"mwr": "มารวาฑี",
		"mwv": "เม็นตาไว",
		"my": "พม่า",
		"mye": "มยีน",
		"myv": "เอียร์ซยา",
		"mzn": "มาซันดารานี",
		"na": "นาอูรู",
		"nan": "จีนมินหนาน",
		"nap": "นาโปลี",
		"naq": "นามา",
		"nb": "นอร์เวย์บุคมอล",
		"nd": "เอ็นเดเบเลเหนือ",
		"nds": "เยอรมันต่ำ",
		"nds_NL": "แซกซอนใต้",
		"ne": "เนปาล",
		"new": "เนวาร์",
		"ng": "ดองกา",
		"nia": "นีอัส",
		"niu": "นีวเว",
		"njo": "อ๋าวนากา",
		"nl": "ดัตช์",
		"nl_BE": "เฟลมิช",
		"nmg": "กวาซิโอ",
		"nn": "นอร์เวย์นีนอสก์",
		"nnh": "จีมบูน",
		"no": "นอร์เวย์",
		"nog": "โนไก",
		"non": "นอร์สโบราณ",
		"nov": "โนเวียล",
		"nqo": "เอ็นโก",
		"nr": "เอ็นเดเบเลใต้",
		"nso": "โซโทเหนือ",
		"nus": "เนือร์",
		"nv": "นาวาโฮ",
		"nwc": "เนวาร์ดั้งเดิม",
		"ny": "เนียนจา",
		"nym": "เนียมเวซี",
		"nyn": "เนียนโกเล",
		"nyo": "นิโอโร",
		"nzi": "นซิมา",
		"oc": "อ็อกซิตัน",
		"oj": "โอจิบวา",
		"om": "โอโรโม",
		"or": "โอดิยา",
		"os": "ออสเซเตีย",
		"osa": "โอซากี",
		"ota": "ตุรกีออตโตมัน",
		"pa": "ปัญจาบ",
		"pag": "ปางาซีนัน",
		"pal": "ปะห์ลาวี",
		"pam": "ปัมปางา",
		"pap": "ปาเปียเมนโต",
		"pau": "ปาเลา",
		"pcd": "ปิการ์",
		"pcm": "พิดจิน",
		"pdc": "เยอรมันเพนซิลเวเนีย",
		"pdt": "เพลาท์ดิช",
		"peo": "เปอร์เซียโบราณ",
		"pfl": "เยอรมันพาลาทิเนต",
		"phn": "ฟินิเชีย",
		"pi": "บาลี",
		"pl": "โปแลนด์",
		"pms": "พีดมอนต์",
		"pnt": "พอนติก",
		"pon": "พอห์นเพ",
		"prg": "ปรัสเซีย",
		"pro": "โปรวองซาลโบราณ",
		"ps": "พัชโต",
		"ps_alt-variant": "พุชโต",
		"pt": "โปรตุเกส",
		"pt_BR": "โปรตุเกส - บราซิล",
		"pt_PT": "โปรตุเกส - ยุโรป",
		"qu": "เคชวา",
		"quc": "กีเช",
		"qug": "ควิชัวไฮแลนด์ชิมโบราโซ",
		"raj": "ราชสถาน",
		"rap": "ราปานู",
		"rar": "ราโรทองกา",
		"rgn": "โรมัณโญ",
		"rif": "ริฟฟิอัน",
		"rm": "โรแมนซ์",
		"rn": "บุรุนดี",
		"ro": "โรมาเนีย",
		"ro_MD": "มอลโดวา",
		"rof": "รอมโบ",
		"rom": "โรมานี",
		"root": "รูท",
		"rtm": "โรทูมัน",
		"ru": "รัสเซีย",
		"rue": "รูซิน",
		"rug": "โรเวียนา",
		"rup": "อาโรมาเนียน",
		"rw": "รวันดา",
		"rwk": "รวา",
		"sa": "สันสกฤต",
		"sad": "ซันดาเว",
		"sah": "ซาคา",
		"sam": "อราเมอิกซามาเรีย",
		"saq": "แซมบูรู",
		"sas": "ซาซัก",
		"sat": "สันตาลี",
		"saz": "เสาราษฏร์",
		"sba": "กัมเบ",
		"sbp": "แซงกู",
		"sc": "ซาร์เดญา",
		"scn": "ซิซิลี",
		"sco": "สกอตส์",
		"sd": "สินธิ",
		"sdc": "ซาร์ดิเนียซาสซารี",
		"sdh": "เคอร์ดิชใต้",
		"se": "ซามิเหนือ",
		"see": "เซนิกา",
		"seh": "เซนา",
		"sei": "เซรี",
		"sel": "เซลคุป",
		"ses": "โคย์ราโบโรเซนนี",
		"sg": "ซันโก",
		"sga": "ไอริชโบราณ",
		"sgs": "ซาโมจิเตียน",
		"sh": "เซอร์โบ-โครเอเชีย",
		"shi": "ทาเชลีห์ท",
		"shn": "ไทใหญ่",
		"shu": "อาหรับ-ชาด",
		"si": "สิงหล",
		"sid": "ซิดาโม",
		"sk": "สโลวัก",
		"sl": "สโลวีเนีย",
		"sli": "ไซลีเซียตอนล่าง",
		"sly": "เซลายาร์",
		"sm": "ซามัว",
		"sma": "ซามิใต้",
		"smj": "ซามิลูเล",
		"smn": "ซามิอีนารี",
		"sms": "ซามิสคอลต์",
		"sn": "โชนา",
		"snk": "โซนีนเก",
		"so": "โซมาลี",
		"sog": "ซอกดีน",
		"sq": "แอลเบเนีย",
		"sr": "เซอร์เบีย",
		"srn": "ซูรินาเม",
		"srr": "เซแรร์",
		"ss": "สวาติ",
		"ssy": "ซาโฮ",
		"st": "โซโทใต้",
		"stq": "ฟรีเซียนซัทเธอร์แลนด์",
		"su": "ซุนดา",
		"suk": "ซูคูมา",
		"sus": "ซูซู",
		"sux": "ซูเมอ",
		"sv": "สวีเดน",
		"sw": "สวาฮีลี",
		"sw_CD": "สวาฮีลี - คองโก",
		"swb": "โคเมอเรียน",
		"syc": "ซีเรียแบบดั้งเดิม",
		"syr": "ซีเรีย",
		"szl": "ไซลีเซีย",
		"ta": "ทมิฬ",
		"tcy": "ตูลู",
		"te": "เตลูกู",
		"tem": "ทิมเน",
		"teo": "เตโซ",
		"ter": "เทเรโน",
		"tet": "เตตุม",
		"tg": "ทาจิก",
		"th": "ไทย",
		"ti": "ติกริญญา",
		"tig": "ตีเกร",
		"tiv": "ทิฟ",
		"tk": "เติร์กเมน",
		"tkl": "โตเกเลา",
		"tkr": "แซคเซอร์",
		"tl": "ตากาล็อก",
		"tlh": "คลิงงอน",
		"tli": "ทลิงกิต",
		"tly": "ทาลิช",
		"tmh": "ทามาเชก",
		"tn": "บอตสวานา",
		"to": "ตองกา",
		"tog": "ไนอะซาตองกา",
		"tpi": "ท็อกพิซิน",
		"tr": "ตุรกี",
		"tru": "ตูโรโย",
		"trv": "ทาโรโก",
		"ts": "ซิตซองกา",
		"tsd": "ซาโคเนีย",
		"tsi": "ซิมชีแอน",
		"tt": "ตาตาร์",
		"ttt": "ตัตมุสลิม",
		"tum": "ทุมบูกา",
		"tvl": "ตูวาลู",
		"tw": "ทวิ",
		"twq": "ตัสซาวัค",
		"ty": "ตาฮิตี",
		"tyv": "ตูวา",
		"tzm": "ทามาไซต์แอตลาสกลาง",
		"udm": "อุดมูร์ต",
		"ug": "อุยกูร์",
		"uga": "ยูการิต",
		"uk": "ยูเครน",
		"umb": "อุมบุนดู",
		"und": "ภาษาที่ไม่รู้จัก",
		"ur": "อูรดู",
		"uz": "อุซเบก",
		"vai": "ไว",
		"ve": "เวนดา",
		"vec": "เวเนโต้",
		"vep": "เวปส์",
		"vi": "เวียดนาม",
		"vls": "เฟลมิชตะวันตก",
		"vmf": "เมน-ฟรานโกเนีย",
		"vo": "โวลาพึค",
		"vot": "โวทิก",
		"vro": "โวโร",
		"vun": "วุนจู",
		"wa": "วาโลนี",
		"wae": "วัลเซอร์",
		"wal": "วาลาโม",
		"war": "วาเรย์",
		"was": "วาโช",
		"wbp": "วอล์เพอร์รี",
		"wo": "โวลอฟ",
		"wuu": "จีนอู๋",
		"xal": "คัลมืยค์",
		"xh": "คะห์โอซา",
		"xmf": "เมเกรเลีย",
		"xog": "โซกา",
		"yao": "เย้า",
		"yap": "ยัป",
		"yav": "แยงเบน",
		"ybb": "เยมบา",
		"yi": "ยิดดิช",
		"yo": "โยรูบา",
		"yrl": "เหงงกาตุ",
		"yue": "กวางตุ้ง",
		"za": "จ้วง",
		"zap": "ซาโปเตก",
		"zbl": "บลิสซิมโบลส์",
		"zea": "เซแลนด์",
		"zen": "เซนากา",
		"zgh": "ทามาไซต์โมร็อกโกมาตรฐาน",
		"zh": "จีน",
		"zh_Hans": "จีนประยุกต์",
		"zh_Hant": "จีนดั้งเดิม",
		"zu": "ซูลู",
		"zun": "ซูนิ",
		"zxx": "ไม่มีข้อมูลภาษา",
		"zza": "ซาซา"
	},
	"scripts": {
		"Adlm": "Adlm",
		"Afak": "อะฟาคา",
		"Aghb": "แอลเบเนีย คอเคเซีย",
		"Ahom": "Ahom",
		"Arab": "อาหรับ",
		"Arab-alt-variant": "เปอร์เซีย-อาหรับ",
		"Armi": "อิมพีเรียล อราเมอิก",
		"Armn": "อาร์เมเนีย",
		"Avst": "อเวสตะ",
		"Bali": "บาหลี",
		"Bamu": "บามุม",
		"Bass": "บัสซา",
		"Batk": "บาตัก",
		"Beng": "เบงกาลี",
		"Bhks": "Bhks",
		"Blis": "บลิสซิมโบลส์",
		"Bopo": "ปอพอมอฟอ",
		"Brah": "พราหมี",
		"Brai": "เบรลล์",
		"Bugi": "บูกิส",
		"Buhd": "บูฮิด",
		"Cakm": "ชากมา",
		"Cans": "สัญลักษณ์ชนเผ่าพื้นเมืองแคนาดา",
		"Cari": "คาเรีย",
		"Cham": "จาม",
		"Cher": "เชอโรกี",
		"Cirt": "เซิร์ท",
		"Copt": "คอปติก",
		"Cprt": "ไซเปรียท",
		"Cyrl": "ซีริลลิก",
		"Cyrs": "เชอร์ชสลาโวนิกซีริลลิกโบราณ",
		"Deva": "เทวนาครี",
		"Dogr": "Dogr",
		"Dsrt": "เดเซเรท",
		"Dupl": "ชวเลขดัปโลยัน",
		"Egyd": "ดีโมติกอียิปต์",
		"Egyh": "เฮียราติกอียิปต์",
		"Egyp": "เฮียโรกลิฟส์อียิปต์",
		"Elba": "เอลบ์ซาน",
		"Ethi": "เอธิโอปิก",
		"Geok": "คัตซูรีจอร์เจีย",
		"Geor": "จอร์เจีย",
		"Glag": "กลาโกลิติก",
		"Gong": "Gong",
		"Gonm": "Gonm",
		"Goth": "โกธิก",
		"Gran": "คฤณห์",
		"Grek": "กรีก",
		"Gujr": "คุชราต",
		"Guru": "กูร์มูคี",
		"Hanb": "จีนกลาง",
		"Hang": "ฮันกึล",
		"Hani": "ฮั่น",
		"Hano": "ฮานูโนโอ",
		"Hans": "ตัวย่อ",
		"Hans-alt-stand-alone": "ฮั่นตัวย่อ",
		"Hant": "ตัวเต็ม",
		"Hant-alt-stand-alone": "ฮั่นตัวเต็ม",
		"Hatr": "Hatr",
		"Hebr": "ฮีบรู",
		"Hira": "ฮิระงะนะ",
		"Hluw": "อักขระอานาโตเลีย",
		"Hmng": "ปาเฮาห์ม้ง",
		"Hrkt": "คะตะกะนะหรือฮิระงะนะ",
		"Hung": "ฮังการีโบราณ",
		"Inds": "อินดัส",
		"Ital": "อิตาลีโบราณ",
		"Jamo": "จาโม",
		"Java": "ชวา",
		"Jpan": "ญี่ปุ่น",
		"Jurc": "จูร์เชน",
		"Kali": "คยาห์",
		"Kana": "คะตะกะนะ",
		"Khar": "ขโรษฐี",
		"Khmr": "เขมร",
		"Khoj": "คอจคี",
		"Knda": "กันนาดา",
		"Kore": "เกาหลี",
		"Kpel": "เปลเล",
		"Kthi": "กายติ",
		"Lana": "ล้านนา",
		"Laoo": "ลาว",
		"Latf": "ลาติน - ฟรังเตอร์",
		"Latg": "ลาติน - แกลิก",
		"Latn": "ละติน",
		"Lepc": "เลปชา",
		"Limb": "ลิมบู",
		"Lina": "ลีเนียร์เอ",
		"Linb": "ลีเนียร์บี",
		"Lisu": "เฟรเซอร์",
		"Loma": "โลมา",
		"Lyci": "ไลเซีย",
		"Lydi": "ลีเดีย",
		"Mahj": "มหาชนี",
		"Maka": "Maka",
		"Mand": "แมนเดียน",
		"Mani": "มานิแชน",
		"Marc": "Marc",
		"Maya": "มายาไฮโรกลิฟส์",
		"Medf": "Medf",
		"Mend": "เมนเด",
		"Merc": "เคอร์ซีฟ-เมโรอิติก",
		"Mero": "เมโรติก",
		"Mlym": "มาลายาลัม",
		"Modi": "โมฑี",
		"Mong": "มองโกเลีย",
		"Moon": "มูน",
		"Mroo": "มโร",
		"Mtei": "เมเทมาเยก",
		"Mult": "Mult",
		"Mymr": "พม่า",
		"Narb": "อาระเบียเหนือโบราณ",
		"Nbat": "นาบาทาเอียน",
		"Newa": "Newa",
		"Nkgb": "กีบา-นาซี",
		"Nkoo": "เอ็นโก",
		"Nshu": "นุซุ",
		"Ogam": "โอคัม",
		"Olck": "โอลชิกิ",
		"Orkh": "ออร์คอน",
		"Orya": "โอริยา",
		"Osge": "Osge",
		"Osma": "ออสมันยา",
		"Palm": "พาลไมรีน",
		"Pauc": "ป่อจิ้งฮอ",
		"Perm": "เปอร์มิกโบราณ",
		"Phag": "ฟากส์-ปา",
		"Phli": "ปะห์ลาวีอินสคริปชันแนล",
		"Phlp": "ปะห์ลาวีซอลเตอร์",
		"Phlv": "ปะห์ลาวีบุ๊ก",
		"Phnx": "ฟินิเชีย",
		"Plrd": "สัทศาสตร์พอลลาร์ด",
		"Prti": "พาร์เทียอินสคริปชันแนล",
		"Qaag": "Qaag",
		"Rjng": "เรจัง",
		"Rohg": "Rohg",
		"Roro": "รองโกรองโก",
		"Runr": "รูนิก",
		"Samr": "ซามาเรีย",
		"Sara": "ซาราติ",
		"Sarb": "อาระเบียใต้โบราณ",
		"Saur": "โสวรัสตระ",
		"Sgnw": "ไซน์ไรติ้ง",
		"Shaw": "ซอเวียน",
		"Shrd": "ชาราดา",
		"Sidd": "สิทธัม",
		"Sind": "คุดาวาดี",
		"Sinh": "สิงหล",
		"Sogd": "Sogd",
		"Sogo": "Sogo",
		"Sora": "โสราสมเป็ง",
		"Soyo": "Soyo",
		"Sund": "ซุนดา",
		"Sylo": "ซิโลตินากรี",
		"Syrc": "ซีเรีย",
		"Syre": "ซีเรียเอสทรานจีโล",
		"Syrj": "ซีเรียตะวันตก",
		"Syrn": "ซีเรียตะวันออก",
		"Tagb": "ตักบันวา",
		"Takr": "ทาครี",
		"Tale": "ไทเล",
		"Talu": "ไทลื้อใหม่",
		"Taml": "ทมิฬ",
		"Tang": "ตันกัท",
		"Tavt": "ไทเวียต",
		"Telu": "เตลูกู",
		"Teng": "เทงกวาร์",
		"Tfng": "ทิฟินาก",
		"Tglg": "ตากาล็อก",
		"Thaa": "ทานา",
		"Thai": "ไทย",
		"Tibt": "ทิเบต",
		"Tirh": "เทอฮุทา",
		"Ugar": "ยูการิต",
		"Vaii": "ไว",
		"Visp": "คำพูดที่มองเห็นได้",
		"Wara": "วารังกสิติ",
		"Wole": "โอลีเอ",
		"Xpeo": "เปอร์เซียโบราณ",
		"Xsux": "อักษรรูปลิ่มสุเมเรีย-อัคคาเดีย",
		"Yiii": "ยิ",
		"Zanb": "Zanb",
		"Zinh": "อินเฮอริต",
		"Zmth": "เครื่องหมายทางคณิตศาสตร์",
		"Zsye": "อีโมจิ",
		"Zsym": "สัญลักษณ์",
		"Zxxx": "ไม่มีภาษาเขียน",
		"Zyyy": "สามัญ",
		"Zzzz": "สคริปต์ที่ไม่รู้จัก"
	},
	"territories": {
		"142": "เอเชีย",
		"143": "เอเชียกลาง",
		"145": "เอเชียตะวันตก",
		"150": "ยุโรป",
		"151": "ยุโรปตะวันออก",
		"154": "ยุโรปเหนือ",
		"155": "ยุโรปตะวันตก",
		"202": "แอฟริกาใต้สะฮารา",
		"419": "ละตินอเมริกา",
		"001": "โลก",
		"002": "แอฟริกา",
		"003": "อเมริกาเหนือ",
		"005": "อเมริกาใต้",
		"009": "โอเชียเนีย",
		"011": "แอฟริกาตะวันตก",
		"013": "อเมริกากลาง",
		"014": "แอฟริกาตะวันออก",
		"015": "แอฟริกาเหนือ",
		"017": "แอฟริกากลาง",
		"018": "แอฟริกาตอนใต้",
		"019": "อเมริกา",
		"021": "อเมริกาตอนเหนือ",
		"029": "แคริบเบียน",
		"030": "เอเชียตะวันออก",
		"034": "เอเชียใต้",
		"035": "เอเชียตะวันออกเฉียงใต้",
		"039": "ยุโรปใต้",
		"053": "ออสตราเลเซีย",
		"054": "เมลานีเซีย",
		"057": "เขตไมโครนีเซีย",
		"061": "โปลินีเซีย",
		"AC": "เกาะแอสเซนชัน",
		"AD": "อันดอร์รา",
		"AE": "สหรัฐอาหรับเอมิเรตส์",
		"AF": "อัฟกานิสถาน",
		"AG": "แอนติกาและบาร์บูดา",
		"AI": "แองกวิลลา",
		"AL": "แอลเบเนีย",
		"AM": "อาร์เมเนีย",
		"AO": "แองโกลา",
		"AQ": "แอนตาร์กติกา",
		"AR": "อาร์เจนตินา",
		"AS": "อเมริกันซามัว",
		"AT": "ออสเตรีย",
		"AU": "ออสเตรเลีย",
		"AW": "อารูบา",
		"AX": "หมู่เกาะโอลันด์",
		"AZ": "อาเซอร์ไบจาน",
		"BA": "บอสเนียและเฮอร์เซโกวีนา",
		"BB": "บาร์เบโดส",
		"BD": "บังกลาเทศ",
		"BE": "เบลเยียม",
		"BF": "บูร์กินาฟาโซ",
		"BG": "บัลแกเรีย",
		"BH": "บาห์เรน",
		"BI": "บุรุนดี",
		"BJ": "เบนิน",
		"BL": "เซนต์บาร์เธเลมี",
		"BM": "เบอร์มิวดา",
		"BN": "บรูไน",
		"BO": "โบลิเวีย",
		"BQ": "เนเธอร์แลนด์แคริบเบียน",
		"BR": "บราซิล",
		"BS": "บาฮามาส",
		"BT": "ภูฏาน",
		"BV": "เกาะบูเวต",
		"BW": "บอตสวานา",
		"BY": "เบลารุส",
		"BZ": "เบลีซ",
		"CA": "แคนาดา",
		"CC": "หมู่เกาะโคโคส (คีลิง)",
		"CD": "คองโก - กินชาซา",
		"CD-alt-variant": "คองโก (สาธารณรัฐประชาธิปไตย)",
		"CF": "สาธารณรัฐแอฟริกากลาง",
		"CG": "คองโก - บราซซาวิล",
		"CG-alt-variant": "คองโก (สาธารณรัฐ)",
		"CH": "สวิตเซอร์แลนด์",
		"CI": "โกตดิวัวร์",
		"CI-alt-variant": "ไอวอรี่โคสต์",
		"CK": "หมู่เกาะคุก",
		"CL": "ชิลี",
		"CM": "แคเมอรูน",
		"CN": "จีน",
		"CO": "โคลอมเบีย",
		"CP": "เกาะคลิปเปอร์ตัน",
		"CR": "คอสตาริกา",
		"CU": "คิวบา",
		"CV": "เคปเวิร์ด",
		"CW": "คูราเซา",
		"CX": "เกาะคริสต์มาส",
		"CY": "ไซปรัส",
		"CZ": "เช็ก",
		"CZ-alt-variant": "สาธารณรัฐเช็ก",
		"DE": "เยอรมนี",
		"DG": "ดิเอโกการ์เซีย",
		"DJ": "จิบูตี",
		"DK": "เดนมาร์ก",
		"DM": "โดมินิกา",
		"DO": "สาธารณรัฐโดมินิกัน",
		"DZ": "แอลจีเรีย",
		"EA": "เซวตาและเมลียา",
		"EC": "เอกวาดอร์",
		"EE": "เอสโตเนีย",
		"EG": "อียิปต์",
		"EH": "ซาฮาราตะวันตก",
		"ER": "เอริเทรีย",
		"ES": "สเปน",
		"ET": "เอธิโอเปีย",
		"EU": "สหภาพยุโรป",
		"EZ": "ยูโรโซน",
		"FI": "ฟินแลนด์",
		"FJ": "ฟิจิ",
		"FK": "หมู่เกาะฟอล์กแลนด์",
		"FK-alt-variant": "หมู่เกาะฟอล์กแลนด์ (อิสลาส มาลวินาส)",
		"FM": "ไมโครนีเซีย",
		"FO": "หมู่เกาะแฟโร",
		"FR": "ฝรั่งเศส",
		"GA": "กาบอง",
		"GB": "สหราชอาณาจักร",
		"GB-alt-short": "สหราชอาณาจักร",
		"GD": "เกรเนดา",
		"GE": "จอร์เจีย",
		"GF": "เฟรนช์เกียนา",
		"GG": "เกิร์นซีย์",
		"GH": "กานา",
		"GI": "ยิบรอลตาร์",
		"GL": "กรีนแลนด์",
		"GM": "แกมเบีย",
		"GN": "กินี",
		"GP": "กวาเดอลูป",
		"GQ": "อิเควทอเรียลกินี",
		"GR": "กรีซ",
		"GS": "เกาะเซาท์จอร์เจียและหมู่เกาะเซาท์แซนด์วิช",
		"GT": "กัวเตมาลา",
		"GU": "กวม",
		"GW": "กินี-บิสเซา",
		"GY": "กายอานา",
		"HK": "เขตปกครองพิเศษฮ่องกงแห่งสาธารณรัฐประชาชนจีน",
		"HK-alt-short": "ฮ่องกง",
		"HM": "เกาะเฮิร์ดและหมู่เกาะแมกดอนัลด์",
		"HN": "ฮอนดูรัส",
		"HR": "โครเอเชีย",
		"HT": "เฮติ",
		"HU": "ฮังการี",
		"IC": "หมู่เกาะคานารี",
		"ID": "อินโดนีเซีย",
		"IE": "ไอร์แลนด์",
		"IL": "อิสราเอล",
		"IM": "เกาะแมน",
		"IN": "อินเดีย",
		"IO": "บริติชอินเดียนโอเชียนเทร์ริทอรี",
		"IQ": "อิรัก",
		"IR": "อิหร่าน",
		"IS": "ไอซ์แลนด์",
		"IT": "อิตาลี",
		"JE": "เจอร์ซีย์",
		"JM": "จาเมกา",
		"JO": "จอร์แดน",
		"JP": "ญี่ปุ่น",
		"KE": "เคนยา",
		"KG": "คีร์กีซสถาน",
		"KH": "กัมพูชา",
		"KI": "คิริบาส",
		"KM": "คอโมโรส",
		"KN": "เซนต์คิตส์และเนวิส",
		"KP": "เกาหลีเหนือ",
		"KR": "เกาหลีใต้",
		"KW": "คูเวต",
		"KY": "หมู่เกาะเคย์แมน",
		"KZ": "คาซัคสถาน",
		"LA": "ลาว",
		"LB": "เลบานอน",
		"LC": "เซนต์ลูเซีย",
		"LI": "ลิกเตนสไตน์",
		"LK": "ศรีลังกา",
		"LR": "ไลบีเรีย",
		"LS": "เลโซโท",
		"LT": "ลิทัวเนีย",
		"LU": "ลักเซมเบิร์ก",
		"LV": "ลัตเวีย",
		"LY": "ลิเบีย",
		"MA": "โมร็อกโก",
		"MC": "โมนาโก",
		"MD": "มอลโดวา",
		"ME": "มอนเตเนโกร",
		"MF": "เซนต์มาร์ติน",
		"MG": "มาดากัสการ์",
		"MH": "หมู่เกาะมาร์แชลล์",
		"MK": "มาซิโดเนีย",
		"MK-alt-variant": "มาซิโดเนีย (FYROM)",
		"ML": "มาลี",
		"MM": "เมียนมาร์ (พม่า)",
		"MN": "มองโกเลีย",
		"MO": "เขตปกครองพิเศษมาเก๊าแห่งสาธารณรัฐประชาชนจีน",
		"MO-alt-short": "มาเก๊า",
		"MP": "หมู่เกาะนอร์เทิร์นมาเรียนา",
		"MQ": "มาร์ตินีก",
		"MR": "มอริเตเนีย",
		"MS": "มอนต์เซอร์รัต",
		"MT": "มอลตา",
		"MU": "มอริเชียส",
		"MV": "มัลดีฟส์",
		"MW": "มาลาวี",
		"MX": "เม็กซิโก",
		"MY": "มาเลเซีย",
		"MZ": "โมซัมบิก",
		"NA": "นามิเบีย",
		"NC": "นิวแคลิโดเนีย",
		"NE": "ไนเจอร์",
		"NF": "เกาะนอร์ฟอล์ก",
		"NG": "ไนจีเรีย",
		"NI": "นิการากัว",
		"NL": "เนเธอร์แลนด์",
		"NO": "นอร์เวย์",
		"NP": "เนปาล",
		"NR": "นาอูรู",
		"NU": "นีอูเอ",
		"NZ": "นิวซีแลนด์",
		"OM": "โอมาน",
		"PA": "ปานามา",
		"PE": "เปรู",
		"PF": "เฟรนช์โปลินีเซีย",
		"PG": "ปาปัวนิวกินี",
		"PH": "ฟิลิปปินส์",
		"PK": "ปากีสถาน",
		"PL": "โปแลนด์",
		"PM": "แซงปีแยร์และมีเกอลง",
		"PN": "หมู่เกาะพิตแคร์น",
		"PR": "เปอร์โตริโก",
		"PS": "ดินแดนปาเลสไตน์",
		"PS-alt-short": "ปาเลสไตน์",
		"PT": "โปรตุเกส",
		"PW": "ปาเลา",
		"PY": "ปารากวัย",
		"QA": "กาตาร์",
		"QO": "เอาต์ไลอิงโอเชียเนีย",
		"RE": "เรอูนียง",
		"RO": "โรมาเนีย",
		"RS": "เซอร์เบีย",
		"RU": "รัสเซีย",
		"RW": "รวันดา",
		"SA": "ซาอุดีอาระเบีย",
		"SB": "หมู่เกาะโซโลมอน",
		"SC": "เซเชลส์",
		"SD": "ซูดาน",
		"SE": "สวีเดน",
		"SG": "สิงคโปร์",
		"SH": "เซนต์เฮเลนา",
		"SI": "สโลวีเนีย",
		"SJ": "สฟาลบาร์และยานไมเอน",
		"SK": "สโลวะเกีย",
		"SL": "เซียร์ราลีโอน",
		"SM": "ซานมาริโน",
		"SN": "เซเนกัล",
		"SO": "โซมาเลีย",
		"SR": "ซูรินาเม",
		"SS": "ซูดานใต้",
		"ST": "เซาตูเมและปรินซิปี",
		"SV": "เอลซัลวาดอร์",
		"SX": "ซินต์มาร์เทน",
		"SY": "ซีเรีย",
		"SZ": "สวาซิแลนด์",
		"TA": "ทริสตันดาคูนา",
		"TC": "หมู่เกาะเติกส์และหมู่เกาะเคคอส",
		"TD": "ชาด",
		"TF": "เฟรนช์เซาเทิร์นเทร์ริทอรีส์",
		"TG": "โตโก",
		"TH": "ไทย",
		"TJ": "ทาจิกิสถาน",
		"TK": "โตเกเลา",
		"TL": "ติมอร์-เลสเต",
		"TL-alt-variant": "ติมอร์ตะวันออก",
		"TM": "เติร์กเมนิสถาน",
		"TN": "ตูนิเซีย",
		"TO": "ตองกา",
		"TR": "ตุรกี",
		"TT": "ตรินิแดดและโตเบโก",
		"TV": "ตูวาลู",
		"TW": "ไต้หวัน",
		"TZ": "แทนซาเนีย",
		"UA": "ยูเครน",
		"UG": "ยูกันดา",
		"UM": "หมู่เกาะรอบนอกของสหรัฐอเมริกา",
		"UN": "สหประชาชาติ",
		"UN-alt-short": "สหประชาชาติ",
		"US": "สหรัฐอเมริกา",
		"US-alt-short": "สหรัฐฯ",
		"UY": "อุรุกวัย",
		"UZ": "อุซเบกิสถาน",
		"VA": "นครวาติกัน",
		"VC": "เซนต์วินเซนต์และเกรนาดีนส์",
		"VE": "เวเนซุเอลา",
		"VG": "หมู่เกาะบริติชเวอร์จิน",
		"VI": "หมู่เกาะเวอร์จินของสหรัฐอเมริกา",
		"VN": "เวียดนาม",
		"VU": "วานูอาตู",
		"WF": "วาลลิสและฟุตูนา",
		"WS": "ซามัว",
		"XA": "XA",
		"XB": "XB",
		"XK": "โคโซโว",
		"YE": "เยเมน",
		"YT": "มายอต",
		"ZA": "แอฟริกาใต้",
		"ZM": "แซมเบีย",
		"ZW": "ซิมบับเว",
		"ZZ": "ภูมิภาคที่ไม่รู้จัก"
	},
	"orientation": "left-to-right",
	"ca-gregorian": {
		"dateFormats": {
			"full": "EEEEที่ d MMMM G y",
			"long": "d MMMM G y",
			"medium": "d MMM y",
			"short": "d/M/yy"
		},
		"timeFormats": {
			"full": "H นาฬิกา mm นาที ss วินาที zzzz",
			"long": "H นาฬิกา mm นาที ss วินาที z",
			"medium": "HH:mm:ss",
			"short": "HH:mm"
		},
		"dateTimeFormats": {
			"full": "{1} {0}",
			"long": "{1} {0}",
			"medium": "{1} {0}",
			"short": "{1} {0}",
			"availableFormats": {
				"Bh": "h B",
				"Bhm": "h:mm B",
				"Bhms": "h:mm:ss B",
				"d": "d",
				"E": "ccc",
				"EBhm": "E h:mm B",
				"EBhms": "E h:mm:ss B",
				"Ed": "E d",
				"Ehm": "E h:mm a",
				"EHm": "E HH:mm น.",
				"Ehms": "E h:mm:ss a",
				"EHms": "E HH:mm:ss",
				"Gy": "G y",
				"GyMMM": "MMM G y",
				"GyMMMd": "d MMM G y",
				"GyMMMEd": "E d MMM G y",
				"GyMMMEEEEd": "EEEEที่ d MMM G y",
				"h": "h a",
				"H": "HH",
				"hm": "h:mm a",
				"Hm": "HH:mm น.",
				"hms": "h:mm:ss a",
				"Hms": "HH:mm:ss",
				"hmsv": "h:mm:ss a v",
				"Hmsv": "HH:mm:ss v",
				"hmv": "h:mm น. a v",
				"Hmv": "HH:mm v",
				"M": "L",
				"Md": "d/M",
				"MEd": "E d/M",
				"MMM": "LLL",
				"MMMd": "d MMM",
				"MMMEd": "E d MMM",
				"MMMEEEEd": "EEEEที่ d MMM",
				"MMMMd": "d MMMM",
				"MMMMEd": "E d MMMM",
				"MMMMEEEEd": "EEEEที่ d MMMM",
				"mmss": "mm:ss",
				"ms": "mm:ss",
				"y": "y",
				"yM": "M/y",
				"yMd": "d/M/y",
				"yMEd": "E d/M/y",
				"yMMM": "MMM y",
				"yMMMd": "d MMM y",
				"yMMMEd": "E d MMM y",
				"yMMMEEEEd": "EEEEที่ d MMM y",
				"yMMMM": "MMMM G y",
				"yMMMMd": "d MMMM G y",
				"yMMMMEd": "E d MMMM G y",
				"yMMMMEEEEd": "EEEEที่ d MMMM G y",
				"yQQQ": "QQQ y",
				"yQQQQ": "QQQQ G y",
				"MMMMW": "สัปดาห์ที่ W ของเดือนMMMM",
				"yw": "สัปดาห์ที่ w ของปี Y"
			},
			"appendItems": {
				"Day": "{0} ({2}: {1})",
				"Day-Of-Week": "{0} {1}",
				"Era": "{1} {0}",
				"Hour": "{0} ({2}: {1})",
				"Minute": "{0} ({2}: {1})",
				"Month": "{0} ({2}: {1})",
				"Quarter": "{0} ({2}: {1})",
				"Second": "{0} ({2}: {1})",
				"Timezone": "{0} {1}",
				"Week": "{0} ({2}: {1})",
				"Year": "{1} {0}"
			},
			"intervalFormats": {
				"intervalFormatFallback": "{0} – {1}",
				"d": {
					"d": "d–d"
				},
				"Gy": {
					"G": "G y – G y",
					"y": "G y–y"
				},
				"GyM": {
					"G": "GGGGG y-MM – GGGGG y-MM",
					"M": "GGGGG y-MM – y-MM",
					"y": "GGGGG y-MM – y-MM"
				},
				"GyMd": {
					"d": "GGGGG y-MM-dd – y-MM-dd",
					"G": "GGGGG y-MM-dd – GGGGG y-MM-dd",
					"M": "GGGGG y-MM-dd – y-MM-dd",
					"y": "GGGGG y-MM-dd – y-MM-dd"
				},
				"GyMEd": {
					"d": "GGGGG y-MM-dd, E – y-MM-dd, E",
					"G": "GGGGG y-MM-dd, E – GGGGG y-MM-dd, E",
					"M": "GGGGG y-MM-dd, E – y-MM-dd, E",
					"y": "GGGGG y-MM-dd, E – y-MM-dd, E"
				},
				"GyMMM": {
					"G": "G y MMM – G y MMM",
					"M": "G y MMM–MMM",
					"y": "G y MMM – y MMM"
				},
				"GyMMMd": {
					"d": "G y MMM d–d",
					"G": "G y MMM d – G y MMM d",
					"M": "G y MMM d – MMM d",
					"y": "G y MMM d – y MMM d"
				},
				"GyMMMEd": {
					"d": "G y MMM d, E – MMM d, E",
					"G": "G y MMM d, E – G y MMM d, E",
					"M": "G y MMM d, E – MMM d, E",
					"y": "G y MMM d, E – y MMM d, E"
				},
				"h": {
					"a": "h a – h a",
					"h": "h–h a"
				},
				"H": {
					"H": "HH–HH"
				},
				"hm": {
					"a": "h:mm a – h:mm a",
					"h": "h:mm–h:mm a",
					"m": "h:mm–h:mm a"
				},
				"Hm": {
					"H": "HH:mm น. – HH:mm น.",
					"m": "HH:mm น. – HH:mm น."
				},
				"hmv": {
					"a": "h:mm a – h:mm a v",
					"h": "h:mm–h:mm a v",
					"m": "h:mm–h:mm a v"
				},
				"Hmv": {
					"H": "H:mm น. – H:mm น. v",
					"m": "H:mm น. – H:mm น. v"
				},
				"hv": {
					"a": "h a – h a v",
					"h": "h–h a v"
				},
				"Hv": {
					"H": "HH–HH v"
				},
				"M": {
					"M": "M–M"
				},
				"Md": {
					"d": "d/M – d/M",
					"M": "d/M – d/M"
				},
				"MEd": {
					"d": "E d/M – E d/M/",
					"M": "E d/M – E d/M"
				},
				"MMM": {
					"M": "MMM – MMM"
				},
				"MMMd": {
					"d": "MMM d–d",
					"M": "d MMM – d MMM"
				},
				"MMMEd": {
					"d": "E d – E d MMM",
					"M": "E d MMM – E d MMM"
				},
				"MMMEEEEd": {
					"d": "EEEEที่ d – EEEEที่ d MMM",
					"M": "EEEEที่ d MMM – EEEEที่ d MMM"
				},
				"y": {
					"y": "y–y"
				},
				"yM": {
					"M": "M/y – M/y",
					"y": "M/y – M/y"
				},
				"yMd": {
					"d": "d/M/y – d/M/y",
					"M": "d/M/y – d/M/y",
					"y": "d/M/y – d/M/y"
				},
				"yMEd": {
					"d": "E d/M/y – E d/M/y",
					"M": "E d/M/y – E d/M/y",
					"y": "E d/M/y – E d/M/y"
				},
				"yMMM": {
					"M": "MMM–MMM y",
					"y": "MMM y – MMM y"
				},
				"yMMMd": {
					"d": "d–d MMM y",
					"M": "d MMM – d MMM y",
					"y": "d MMM y – d MMM y"
				},
				"yMMMEd": {
					"d": "E d MMM – E d MMM y",
					"M": "E d MMM – E d MMM y",
					"y": "E d MMM y – E d MMM y"
				},
				"yMMMEEEEd": {
					"d": "EEEEที่ d – EEEEที่ d MMM y",
					"M": "EEEEที่ d MMM – EEEEที่ d MMM y",
					"y": "EEEEที่ d MMM y – EEEEที่ d MMM y"
				},
				"yMMMM": {
					"M": "MMMM – MMMM y",
					"y": "MMMM y – MMMM y"
				},
				"yMMMMd": {
					"d": "d–d MMMM G y",
					"M": "d MMMM – d MMMM G y",
					"y": "d MMMM G y – d MMMM y"
				},
				"yMMMMEd": {
					"d": "E d – E d MMMM G y",
					"M": "E d MMMM – E d MMMM G y",
					"y": "E d MMMM G y – E d MMMM y"
				},
				"yMMMMEEEEd": {
					"d": "EEEEที่ d – EEEEที่ d MMMM G y",
					"M": "EEEEที่ d MMMM – EEEEที่ d MMMM G y",
					"y": "EEEEที่ d MMMM G y – EEEEที่ d MMMM y"
				}
			}
		},
		"months": {
			"format": {
				"abbreviated": [
					"ม.ค.",
					"ก.พ.",
					"มี.ค.",
					"เม.ย.",
					"พ.ค.",
					"มิ.ย.",
					"ก.ค.",
					"ส.ค.",
					"ก.ย.",
					"ต.ค.",
					"พ.ย.",
					"ธ.ค."
				],
				"narrow": [
					"ม.ค.",
					"ก.พ.",
					"มี.ค.",
					"เม.ย.",
					"พ.ค.",
					"มิ.ย.",
					"ก.ค.",
					"ส.ค.",
					"ก.ย.",
					"ต.ค.",
					"พ.ย.",
					"ธ.ค."
				],
				"wide": [
					"มกราคม",
					"กุมภาพันธ์",
					"มีนาคม",
					"เมษายน",
					"พฤษภาคม",
					"มิถุนายน",
					"กรกฎาคม",
					"สิงหาคม",
					"กันยายน",
					"ตุลาคม",
					"พฤศจิกายน",
					"ธันวาคม"
				]
			},
			"stand-alone": {
				"abbreviated": [
					"ม.ค.",
					"ก.พ.",
					"มี.ค.",
					"เม.ย.",
					"พ.ค.",
					"มิ.ย.",
					"ก.ค.",
					"ส.ค.",
					"ก.ย.",
					"ต.ค.",
					"พ.ย.",
					"ธ.ค."
				],
				"narrow": [
					"ม.ค.",
					"ก.พ.",
					"มี.ค.",
					"เม.ย.",
					"พ.ค.",
					"มิ.ย.",
					"ก.ค.",
					"ส.ค.",
					"ก.ย.",
					"ต.ค.",
					"พ.ย.",
					"ธ.ค."
				],
				"wide": [
					"มกราคม",
					"กุมภาพันธ์",
					"มีนาคม",
					"เมษายน",
					"พฤษภาคม",
					"มิถุนายน",
					"กรกฎาคม",
					"สิงหาคม",
					"กันยายน",
					"ตุลาคม",
					"พฤศจิกายน",
					"ธันวาคม"
				]
			}
		},
		"days": {
			"format": {
				"abbreviated": [
					"อา.",
					"จ.",
					"อ.",
					"พ.",
					"พฤ.",
					"ศ.",
					"ส."
				],
				"narrow": [
					"อา",
					"จ",
					"อ",
					"พ",
					"พฤ",
					"ศ",
					"ส"
				],
				"short": [
					"อา.",
					"จ.",
					"อ.",
					"พ.",
					"พฤ.",
					"ศ.",
					"ส."
				],
				"wide": [
					"วันอาทิตย์",
					"วันจันทร์",
					"วันอังคาร",
					"วันพุธ",
					"วันพฤหัสบดี",
					"วันศุกร์",
					"วันเสาร์"
				]
			},
			"stand-alone": {
				"abbreviated": [
					"อา.",
					"จ.",
					"อ.",
					"พ.",
					"พฤ.",
					"ศ.",
					"ส."
				],
				"narrow": [
					"อา",
					"จ",
					"อ",
					"พ",
					"พฤ",
					"ศ",
					"ส"
				],
				"short": [
					"อา.",
					"จ.",
					"อ.",
					"พ.",
					"พฤ.",
					"ศ.",
					"ส."
				],
				"wide": [
					"วันอาทิตย์",
					"วันจันทร์",
					"วันอังคาร",
					"วันพุธ",
					"วันพฤหัสบดี",
					"วันศุกร์",
					"วันเสาร์"
				]
			}
		},
		"quarters": {
			"format": {
				"abbreviated": [
					"ไตรมาส 1",
					"ไตรมาส 2",
					"ไตรมาส 3",
					"ไตรมาส 4"
				],
				"narrow": [
					"1",
					"2",
					"3",
					"4"
				],
				"wide": [
					"ไตรมาส 1",
					"ไตรมาส 2",
					"ไตรมาส 3",
					"ไตรมาส 4"
				]
			},
			"stand-alone": {
				"abbreviated": [
					"ไตรมาส 1",
					"ไตรมาส 2",
					"ไตรมาส 3",
					"ไตรมาส 4"
				],
				"narrow": [
					"1",
					"2",
					"3",
					"4"
				],
				"wide": [
					"ไตรมาส 1",
					"ไตรมาส 2",
					"ไตรมาส 3",
					"ไตรมาส 4"
				]
			}
		},
		"dayPeriods": {
			"format": {
				"abbreviated": [
					"ก่อนเที่ยง",
					"หลังเที่ยง"
				],
				"narrow": [
					"a",
					"p"
				],
				"wide": [
					"ก่อนเที่ยง",
					"หลังเที่ยง"
				]
			},
			"stand-alone": {
				"abbreviated": [
					"ก่อนเที่ยง",
					"หลังเที่ยง"
				],
				"narrow": [
					"ก่อนเที่ยง",
					"หลังเที่ยง"
				],
				"wide": [
					"ก่อนเที่ยง",
					"หลังเที่ยง"
				]
			}
		},
		"era-wide": {
			"0": "ปีก่อนคริสตกาล",
			"1": "คริสต์ศักราช"
		},
		"era-abbreviated": {
			"0": "ก่อน ค.ศ.",
			"1": "ค.ศ."
		},
		"era-narrow": {
			"0": "ก่อน ค.ศ.",
			"1": "ค.ศ."
		}
	},
	"ca-islamic": {
		"dateFormats": {
			"full": "EEEEที่ d MMMM G y",
			"long": "d MMMM G y",
			"medium": "d MMM G y",
			"short": "d/M/y G"
		},
		"timeFormats": {
			"full": "H นาฬิกา mm นาที ss วินาที zzzz",
			"long": "H นาฬิกา mm นาที ss วินาที z",
			"medium": "HH:mm:ss",
			"short": "HH:mm"
		},
		"dateTimeFormats": {
			"full": "{1} {0}",
			"long": "{1} {0}",
			"medium": "{1} {0}",
			"short": "{1} {0}",
			"availableFormats": {
				"Bh": "h B",
				"Bhm": "h:mm B",
				"Bhms": "h:mm:ss B",
				"d": "d",
				"E": "ccc",
				"EBhm": "E h:mm B",
				"EBhms": "E h:mm:ss B",
				"Ed": "E d",
				"Ehm": "E h:mm a",
				"EHm": "E HH:mm",
				"Ehms": "E h:mm:ss a",
				"EHms": "E HH:mm:ss",
				"Gy": "G y",
				"GyMMM": "MMM G y",
				"GyMMMd": "d MMM G y",
				"GyMMMEd": "E d MMM G y",
				"GyMMMEEEEd": "EEEEที่ d MMM G y",
				"h": "h a",
				"H": "HH",
				"hm": "h:mm a",
				"Hm": "HH:mm",
				"hms": "h:mm:ss a",
				"Hms": "HH:mm:ss",
				"M": "L",
				"Md": "d/M",
				"MEd": "E, d/M",
				"MMM": "LLL",
				"MMMd": "d MMM",
				"MMMEd": "E d MMM",
				"MMMEEEEd": "EEEEที่ d MMM",
				"MMMMd": "d MMMM",
				"ms": "mm:ss",
				"y": "G y",
				"yyyy": "G y",
				"yyyyM": "M/y G",
				"yyyyMd": "d/M/y GGGGG",
				"yyyyMEd": "E d/M/y GGGGG",
				"yyyyMMM": "MMM G y",
				"yyyyMMMd": "d MMM G y",
				"yyyyMMMEd": "E d MMM G y",
				"yyyyMMMEEEEd": "EEEEที่ d MMM G y",
				"yyyyMMMM": "MMMM G y",
				"yyyyQQQ": "QQQ G y",
				"yyyyQQQQ": "QQQQ G y"
			},
			"appendItems": {
				"Day": "{0} ({2}: {1})",
				"Day-Of-Week": "{0} {1}",
				"Era": "{1} {0}",
				"Hour": "{0} ({2}: {1})",
				"Minute": "{0} ({2}: {1})",
				"Month": "{0} ({2}: {1})",
				"Quarter": "{0} ({2}: {1})",
				"Second": "{0} ({2}: {1})",
				"Timezone": "{0} {1}",
				"Week": "{0} ({2}: {1})",
				"Year": "{1} {0}"
			},
			"intervalFormats": {
				"intervalFormatFallback": "{0} - {1}",
				"d": {
					"d": "d–d"
				},
				"Gy": {
					"G": "G y – G y",
					"y": "G y–y"
				},
				"GyM": {
					"G": "GGGGG y-MM – GGGGG y-MM",
					"M": "GGGGG y-MM – y-MM",
					"y": "GGGGG y-MM – y-MM"
				},
				"GyMd": {
					"d": "GGGGG y-MM-dd – y-MM-dd",
					"G": "GGGGG y-MM-dd – GGGGG y-MM-dd",
					"M": "GGGGG y-MM-dd – y-MM-dd",
					"y": "GGGGG y-MM-dd – y-MM-dd"
				},
				"GyMEd": {
					"d": "GGGGG y-MM-dd, E – y-MM-dd, E",
					"G": "GGGGG y-MM-dd, E – GGGGG y-MM-dd, E",
					"M": "GGGGG y-MM-dd, E – y-MM-dd, E",
					"y": "GGGGG y-MM-dd, E – y-MM-dd, E"
				},
				"GyMMM": {
					"G": "G y MMM – G y MMM",
					"M": "G y MMM–MMM",
					"y": "G y MMM – y MMM"
				},
				"GyMMMd": {
					"d": "G y MMM d–d",
					"G": "G y MMM d – G y MMM d",
					"M": "G y MMM d – MMM d",
					"y": "G y MMM d – y MMM d"
				},
				"GyMMMEd": {
					"d": "G y MMM d, E – MMM d, E",
					"G": "G y MMM d, E – G y MMM d, E",
					"M": "G y MMM d, E – MMM d, E",
					"y": "G y MMM d, E – y MMM d, E"
				},
				"h": {
					"a": "h a – h a",
					"h": "h–h a"
				},
				"H": {
					"H": "H–H"
				},
				"hm": {
					"a": "h:mm a – h:mm a",
					"h": "h:mm–h:mm a",
					"m": "h:mm–h:mm a"
				},
				"Hm": {
					"H": "HH:mm–HH:mm",
					"m": "HH:mm–HH:mm"
				},
				"hmv": {
					"a": "h:mm a – h:mm a v",
					"h": "h:mm–h:mm a v",
					"m": "h:mm–h:mm a v"
				},
				"Hmv": {
					"H": "H:mm–H:mm v",
					"m": "H:mm–H:mm v"
				},
				"hv": {
					"a": "h a – h a v",
					"h": "h–h a v"
				},
				"Hv": {
					"H": "H–H v"
				},
				"M": {
					"M": "M–M"
				},
				"Md": {
					"d": "d/M – d/M",
					"M": "d/M – d/M"
				},
				"MEd": {
					"d": "E d/M – E d/M",
					"M": "E d/M – E d/M"
				},
				"MMM": {
					"M": "LLL–LLL"
				},
				"MMMd": {
					"d": "d – d MMM",
					"M": "d MMM – d MMM"
				},
				"MMMEd": {
					"d": "E d MMM – E d MMM",
					"M": "E d MMM – E d MMM"
				},
				"MMMEEEEd": {
					"d": "EEEEที่ d – EEEEที่ d MMM",
					"M": "EEEEที่ d MMM – EEEEที่ d MMM"
				},
				"y": {
					"y": "G y–y"
				},
				"yM": {
					"M": "M/y – M/y G",
					"y": "M/y – M/y G"
				},
				"yMd": {
					"d": "d/M/y – d/M/y G",
					"M": "d/M/y – d/M/y G",
					"y": "d/M/y – d/M/y G"
				},
				"yMEd": {
					"d": "E d/M/y – E d/M/y G",
					"M": "E d/M/y – E d/M/y G",
					"y": "E d/M/y – E d/M/y G"
				},
				"yMMM": {
					"M": "MMM–MMM G y",
					"y": "MMM G y – MMM y"
				},
				"yMMMd": {
					"d": "d–d MMM G y",
					"M": "d MMM – d MMM G y",
					"y": "d MMM G y – d MMM y"
				},
				"yMMMEd": {
					"d": "E d MMM – E d MMM G y",
					"M": "E d MMM – E d MMM G y",
					"y": "E d MMM G y – E d MMM y"
				},
				"yMMMEEEEd": {
					"d": "EEEEที่ d – EEEEที่ d MMM G y",
					"M": "EEEEที่ d MMM – EEEEที่ d MMM G y",
					"y": "EEEEที่ d MMM G y – EEEEที่ d MMM y"
				},
				"yMMMM": {
					"M": "MMMM – MMMM G y",
					"y": "MMMM G y – MMMM y"
				}
			}
		},
		"months": {
			"format": {
				"abbreviated": [
					"มุฮัร.",
					"เศาะ.",
					"รอบี I",
					"รอบี II",
					"จุมาดา I",
					"จุมาดา II",
					"เราะ.",
					"ชะอ์.",
					"เราะมะ.",
					"เชาว.",
					"ซุลกิอฺ.",
					"ซุลหิจ."
				],
				"narrow": [
					"1",
					"2",
					"3",
					"4",
					"5",
					"6",
					"7",
					"8",
					"9",
					"10",
					"11",
					"12"
				],
				"wide": [
					"มุฮะร์รอม",
					"ซอฟาร์",
					"รอบี I",
					"รอบี II",
					"จุมาดา I",
					"จุมาดา II",
					"รอจับ",
					"ชะอะบาน",
					"รอมะดอน",
					"เชาวัล",
					"ซุลกิอฺดะฮฺ",
					"ซุลหิจญะฮฺ"
				]
			},
			"stand-alone": {
				"abbreviated": [
					"มุฮัร.",
					"เศาะ.",
					"รอบี I",
					"รอบี II",
					"จุมาดา I",
					"จุมาดา II",
					"เราะ.",
					"ชะอ์.",
					"เราะมะ.",
					"เชาว.",
					"ซุลกิอฺ.",
					"ซุลหิจ."
				],
				"narrow": [
					"1",
					"2",
					"3",
					"4",
					"5",
					"6",
					"7",
					"8",
					"9",
					"10",
					"11",
					"12"
				],
				"wide": [
					"มุฮะร์รอม",
					"ซอฟาร์",
					"รอบี I",
					"รอบี II",
					"จุมาดา I",
					"จุมาดา II",
					"รอจับ",
					"ชะอะบาน",
					"รอมะดอน",
					"เชาวัล",
					"ซุลกิอฺดะฮฺ",
					"ซุลหิจญะฮฺ"
				]
			}
		},
		"days": {
			"format": {
				"abbreviated": [
					"อา.",
					"จ.",
					"อ.",
					"พ.",
					"พฤ.",
					"ศ.",
					"ส."
				],
				"narrow": [
					"อา",
					"จ",
					"อ",
					"พ",
					"พฤ",
					"ศ",
					"ส"
				],
				"short": [
					"อา.",
					"จ.",
					"อ.",
					"พ.",
					"พฤ.",
					"ศ.",
					"ส."
				],
				"wide": [
					"วันอาทิตย์",
					"วันจันทร์",
					"วันอังคาร",
					"วันพุธ",
					"วันพฤหัสบดี",
					"วันศุกร์",
					"วันเสาร์"
				]
			},
			"stand-alone": {
				"abbreviated": [
					"อา.",
					"จ.",
					"อ.",
					"พ.",
					"พฤ.",
					"ศ.",
					"ส."
				],
				"narrow": [
					"อา",
					"จ",
					"อ",
					"พ",
					"พฤ",
					"ศ",
					"ส"
				],
				"short": [
					"อา.",
					"จ.",
					"อ.",
					"พ.",
					"พฤ.",
					"ศ.",
					"ส."
				],
				"wide": [
					"วันอาทิตย์",
					"วันจันทร์",
					"วันอังคาร",
					"วันพุธ",
					"วันพฤหัสบดี",
					"วันศุกร์",
					"วันเสาร์"
				]
			}
		},
		"quarters": {
			"format": {
				"abbreviated": [
					"ไตรมาส 1",
					"ไตรมาส 2",
					"ไตรมาส 3",
					"ไตรมาส 4"
				],
				"narrow": [
					"1",
					"2",
					"3",
					"4"
				],
				"wide": [
					"ไตรมาส 1",
					"ไตรมาส 2",
					"ไตรมาส 3",
					"ไตรมาส 4"
				]
			},
			"stand-alone": {
				"abbreviated": [
					"ไตรมาส 1",
					"ไตรมาส 2",
					"ไตรมาส 3",
					"ไตรมาส 4"
				],
				"narrow": [
					"1",
					"2",
					"3",
					"4"
				],
				"wide": [
					"ไตรมาส 1",
					"ไตรมาส 2",
					"ไตรมาส 3",
					"ไตรมาส 4"
				]
			}
		},
		"dayPeriods": {
			"format": {
				"abbreviated": [
					"ก่อนเที่ยง",
					"หลังเที่ยง"
				],
				"narrow": [
					"a",
					"p"
				],
				"wide": [
					"ก่อนเที่ยง",
					"หลังเที่ยง"
				]
			},
			"stand-alone": {
				"abbreviated": [
					"ก่อนเที่ยง",
					"หลังเที่ยง"
				],
				"narrow": [
					"ก่อนเที่ยง",
					"หลังเที่ยง"
				],
				"wide": [
					"ก่อนเที่ยง",
					"หลังเที่ยง"
				]
			}
		},
		"era-wide": {
			"0": "ฮิจเราะห์ศักราช"
		},
		"era-abbreviated": {
			"0": "ฮ.ศ."
		},
		"era-narrow": {
			"0": "ฮ.ศ."
		}
	},
	"ca-japanese": {
		"dateFormats": {
			"full": "EEEEที่ d MMMM ปีGที่ y",
			"long": "d MMMM ปีG y",
			"medium": "d MMM G y",
			"short": "d/M/yy G"
		},
		"timeFormats": {
			"full": "H นาฬิกา mm นาที ss วินาที zzzz",
			"long": "H นาฬิกา mm นาที ss วินาที z",
			"medium": "HH:mm:ss",
			"short": "HH:mm"
		},
		"dateTimeFormats": {
			"full": "{1} {0}",
			"long": "{1} {0}",
			"medium": "{1} {0}",
			"short": "{1} {0}",
			"availableFormats": {
				"Bh": "h B",
				"Bhm": "h:mm B",
				"Bhms": "h:mm:ss B",
				"d": "d",
				"E": "ccc",
				"EBhm": "E h:mm B",
				"EBhms": "E h:mm:ss B",
				"Ed": "E d",
				"Ehm": "E h:mm a",
				"EHm": "E HH:mm",
				"Ehms": "E h:mm:ss a",
				"EHms": "E HH:mm:ss",
				"Gy": "G y",
				"GyMMM": "MMM G y",
				"GyMMMd": "d MMM G y",
				"GyMMMEd": "E d MMM G y",
				"GyMMMEEEEd": "EEEEที่ d MMM G y",
				"h": "h a",
				"H": "HH",
				"hm": "h:mm a",
				"Hm": "HH:mm",
				"hms": "h:mm:ss a",
				"Hms": "HH:mm:ss",
				"M": "L",
				"Md": "d/M",
				"MEd": "E, d/M",
				"MMM": "LLL",
				"MMMd": "d MMM",
				"MMMEd": "E d MMM",
				"MMMEEEEd": "EEEEที่ d MMM",
				"MMMMd": "d MMMM",
				"ms": "mm:ss",
				"y": "G y",
				"yyyy": "G y",
				"yyyyM": "M/GGGGG y",
				"yyyyMd": "d/M/GGGGG y",
				"yyyyMEd": "E d/M/GGGGG y",
				"yyyyMMM": "MMM G y",
				"yyyyMMMd": "d MMM G y",
				"yyyyMMMEd": "E d MMM G y",
				"yyyyMMMEEEEd": "EEEEที่ d MMM G y",
				"yyyyMMMM": "MMMM G y",
				"yyyyQQQ": "QQQ G y",
				"yyyyQQQQ": "QQQQ G y"
			},
			"appendItems": {
				"Day": "{0} ({2}: {1})",
				"Day-Of-Week": "{0} {1}",
				"Era": "{1} {0}",
				"Hour": "{0} ({2}: {1})",
				"Minute": "{0} ({2}: {1})",
				"Month": "{0} ({2}: {1})",
				"Quarter": "{0} ({2}: {1})",
				"Second": "{0} ({2}: {1})",
				"Timezone": "{0} {1}",
				"Week": "{0} ({2}: {1})",
				"Year": "{1} {0}"
			},
			"intervalFormats": {
				"intervalFormatFallback": "{0} - {1}",
				"d": {
					"d": "d–d"
				},
				"Gy": {
					"G": "G y – G y",
					"y": "G y–y"
				},
				"GyM": {
					"G": "GGGGG y-MM – GGGGG y-MM",
					"M": "GGGGG y-MM – y-MM",
					"y": "GGGGG y-MM – y-MM"
				},
				"GyMd": {
					"d": "GGGGG y-MM-dd – y-MM-dd",
					"G": "GGGGG y-MM-dd – GGGGG y-MM-dd",
					"M": "GGGGG y-MM-dd – y-MM-dd",
					"y": "GGGGG y-MM-dd – y-MM-dd"
				},
				"GyMEd": {
					"d": "GGGGG y-MM-dd, E – y-MM-dd, E",
					"G": "GGGGG y-MM-dd, E – GGGGG y-MM-dd, E",
					"M": "GGGGG y-MM-dd, E – y-MM-dd, E",
					"y": "GGGGG y-MM-dd, E – y-MM-dd, E"
				},
				"GyMMM": {
					"G": "G y MMM – G y MMM",
					"M": "G y MMM–MMM",
					"y": "G y MMM – y MMM"
				},
				"GyMMMd": {
					"d": "G y MMM d–d",
					"G": "G y MMM d – G y MMM d",
					"M": "G y MMM d – MMM d",
					"y": "G y MMM d – y MMM d"
				},
				"GyMMMEd": {
					"d": "G y MMM d, E – MMM d, E",
					"G": "G y MMM d, E – G y MMM d, E",
					"M": "G y MMM d, E – MMM d, E",
					"y": "G y MMM d, E – y MMM d, E"
				},
				"h": {
					"a": "h a – h a",
					"h": "h–h a"
				},
				"H": {
					"H": "H–H"
				},
				"hm": {
					"a": "h:mm a – h:mm a",
					"h": "h:mm–h:mm a",
					"m": "h:mm–h:mm a"
				},
				"Hm": {
					"H": "HH:mm–HH:mm",
					"m": "HH:mm–HH:mm"
				},
				"hmv": {
					"a": "h:mm a – h:mm a v",
					"h": "h:mm–h:mm a v",
					"m": "h:mm–h:mm a v"
				},
				"Hmv": {
					"H": "H:mm–H:mm v",
					"m": "H:mm–H:mm v"
				},
				"hv": {
					"a": "h a – h a v",
					"h": "h–h a v"
				},
				"Hv": {
					"H": "H–H v"
				},
				"M": {
					"M": "M–M"
				},
				"Md": {
					"d": "d/M – d/M",
					"M": "d/M – d/M"
				},
				"MEd": {
					"d": "E d/M – E d/M",
					"M": "E d/M – E d/M"
				},
				"MMM": {
					"M": "LLL–LLL"
				},
				"MMMd": {
					"d": "d – d MMM",
					"M": "d MMM – d MMM"
				},
				"MMMEd": {
					"d": "E d MMM – E d MMM",
					"M": "E d MMM – E d MMM"
				},
				"MMMEEEEd": {
					"d": "EEEEที่ d – EEEEที่ d MMM",
					"M": "EEEEที่ d MMM – EEEEที่ d MMM"
				},
				"y": {
					"y": "G y–y"
				},
				"yM": {
					"M": "M/y – M/y G",
					"y": "M/y – M/y G"
				},
				"yMd": {
					"d": "d/M/y – d/M/y G",
					"M": "d/M/y – d/M/y G",
					"y": "d/M/y – d/M/y G"
				},
				"yMEd": {
					"d": "E d/M/y – E d/M/y G",
					"M": "E d/M/y – E d/M/y G",
					"y": "E d/M/y – E d/M/y G"
				},
				"yMMM": {
					"M": "MMM–MMM G y",
					"y": "MMM G y – MMM y"
				},
				"yMMMd": {
					"d": "d–d MMM G y",
					"M": "d MMM – d MMM G y",
					"y": "d MMM G y – d MMM y"
				},
				"yMMMEd": {
					"d": "E d MMM – E d MMM G y",
					"M": "E d MMM – E d MMM G y",
					"y": "E d MMM G y – E d MMM y"
				},
				"yMMMEEEEd": {
					"d": "EEEEที่ d – EEEEที่ d MMM G y",
					"M": "EEEEที่ d MMM – EEEEที่ d MMM G y",
					"y": "EEEEที่ d MMM G y – EEEEที่ d MMM y"
				},
				"yMMMM": {
					"M": "MMMM – MMMM G y",
					"y": "MMMM G y – MMMM y"
				}
			}
		},
		"months": {
			"format": {
				"abbreviated": [
					"ม.ค.",
					"ก.พ.",
					"มี.ค.",
					"เม.ย.",
					"พ.ค.",
					"มิ.ย.",
					"ก.ค.",
					"ส.ค.",
					"ก.ย.",
					"ต.ค.",
					"พ.ย.",
					"ธ.ค."
				],
				"narrow": [
					"ม.ค.",
					"ก.พ.",
					"มี.ค.",
					"เม.ย.",
					"พ.ค.",
					"มิ.ย.",
					"ก.ค.",
					"ส.ค.",
					"ก.ย.",
					"ต.ค.",
					"พ.ย.",
					"ธ.ค."
				],
				"wide": [
					"มกราคม",
					"กุมภาพันธ์",
					"มีนาคม",
					"เมษายน",
					"พฤษภาคม",
					"มิถุนายน",
					"กรกฎาคม",
					"สิงหาคม",
					"กันยายน",
					"ตุลาคม",
					"พฤศจิกายน",
					"ธันวาคม"
				]
			},
			"stand-alone": {
				"abbreviated": [
					"ม.ค.",
					"ก.พ.",
					"มี.ค.",
					"เม.ย.",
					"พ.ค.",
					"มิ.ย.",
					"ก.ค.",
					"ส.ค.",
					"ก.ย.",
					"ต.ค.",
					"พ.ย.",
					"ธ.ค."
				],
				"narrow": [
					"ม.ค.",
					"ก.พ.",
					"มี.ค.",
					"เม.ย.",
					"พ.ค.",
					"มิ.ย.",
					"ก.ค.",
					"ส.ค.",
					"ก.ย.",
					"ต.ค.",
					"พ.ย.",
					"ธ.ค."
				],
				"wide": [
					"มกราคม",
					"กุมภาพันธ์",
					"มีนาคม",
					"เมษายน",
					"พฤษภาคม",
					"มิถุนายน",
					"กรกฎาคม",
					"สิงหาคม",
					"กันยายน",
					"ตุลาคม",
					"พฤศจิกายน",
					"ธันวาคม"
				]
			}
		},
		"days": {
			"format": {
				"abbreviated": [
					"อา.",
					"จ.",
					"อ.",
					"พ.",
					"พฤ.",
					"ศ.",
					"ส."
				],
				"narrow": [
					"อา",
					"จ",
					"อ",
					"พ",
					"พฤ",
					"ศ",
					"ส"
				],
				"short": [
					"อา.",
					"จ.",
					"อ.",
					"พ.",
					"พฤ.",
					"ศ.",
					"ส."
				],
				"wide": [
					"วันอาทิตย์",
					"วันจันทร์",
					"วันอังคาร",
					"วันพุธ",
					"วันพฤหัสบดี",
					"วันศุกร์",
					"วันเสาร์"
				]
			},
			"stand-alone": {
				"abbreviated": [
					"อา.",
					"จ.",
					"อ.",
					"พ.",
					"พฤ.",
					"ศ.",
					"ส."
				],
				"narrow": [
					"อา",
					"จ",
					"อ",
					"พ",
					"พฤ",
					"ศ",
					"ส"
				],
				"short": [
					"อา.",
					"จ.",
					"อ.",
					"พ.",
					"พฤ.",
					"ศ.",
					"ส."
				],
				"wide": [
					"วันอาทิตย์",
					"วันจันทร์",
					"วันอังคาร",
					"วันพุธ",
					"วันพฤหัสบดี",
					"วันศุกร์",
					"วันเสาร์"
				]
			}
		},
		"quarters": {
			"format": {
				"abbreviated": [
					"ไตรมาส 1",
					"ไตรมาส 2",
					"ไตรมาส 3",
					"ไตรมาส 4"
				],
				"narrow": [
					"1",
					"2",
					"3",
					"4"
				],
				"wide": [
					"ไตรมาส 1",
					"ไตรมาส 2",
					"ไตรมาส 3",
					"ไตรมาส 4"
				]
			},
			"stand-alone": {
				"abbreviated": [
					"ไตรมาส 1",
					"ไตรมาส 2",
					"ไตรมาส 3",
					"ไตรมาส 4"
				],
				"narrow": [
					"1",
					"2",
					"3",
					"4"
				],
				"wide": [
					"ไตรมาส 1",
					"ไตรมาส 2",
					"ไตรมาส 3",
					"ไตรมาส 4"
				]
			}
		},
		"dayPeriods": {
			"format": {
				"abbreviated": [
					"ก่อนเที่ยง",
					"หลังเที่ยง"
				],
				"narrow": [
					"a",
					"p"
				],
				"wide": [
					"ก่อนเที่ยง",
					"หลังเที่ยง"
				]
			},
			"stand-alone": {
				"abbreviated": [
					"ก่อนเที่ยง",
					"หลังเที่ยง"
				],
				"narrow": [
					"ก่อนเที่ยง",
					"หลังเที่ยง"
				],
				"wide": [
					"ก่อนเที่ยง",
					"หลังเที่ยง"
				]
			}
		},
		"era-wide": {
			"232": "เมจิ",
			"233": "ทะอิโช",
			"234": "โชวะ",
			"235": "เฮเซ",
			"236": "เรวะ"
		},
		"era-abbreviated": {
			"232": "เมจิ",
			"233": "ทะอิโช",
			"234": "โชวะ",
			"235": "เฮเซ",
			"236": "เรวะ"
		},
		"era-narrow": {
			"232": "M",
			"233": "T",
			"234": "S",
			"235": "H",
			"236": "R"
		}
	},
	"ca-persian": {
		"dateFormats": {
			"full": "EEEEที่ d MMMM G y",
			"long": "d MMMM G y",
			"medium": "d MMM G y",
			"short": "d/M/y G"
		},
		"timeFormats": {
			"full": "H นาฬิกา mm นาที ss วินาที zzzz",
			"long": "H นาฬิกา mm นาที ss วินาที z",
			"medium": "HH:mm:ss",
			"short": "HH:mm"
		},
		"dateTimeFormats": {
			"full": "{1} {0}",
			"long": "{1} {0}",
			"medium": "{1} {0}",
			"short": "{1} {0}",
			"availableFormats": {
				"Bh": "h B",
				"Bhm": "h:mm B",
				"Bhms": "h:mm:ss B",
				"d": "d",
				"E": "ccc",
				"EBhm": "E h:mm B",
				"EBhms": "E h:mm:ss B",
				"Ed": "E d",
				"Ehm": "E h:mm a",
				"EHm": "E HH:mm",
				"Ehms": "E h:mm:ss a",
				"EHms": "E HH:mm:ss",
				"Gy": "G y",
				"GyMMM": "MMM G y",
				"GyMMMd": "d MMM G y",
				"GyMMMEd": "E d MMM G y",
				"GyMMMEEEEd": "EEEEที่ d MMM G y",
				"h": "h a",
				"H": "HH",
				"hm": "h:mm a",
				"Hm": "HH:mm",
				"hms": "h:mm:ss a",
				"Hms": "HH:mm:ss",
				"M": "L",
				"Md": "d/M",
				"MEd": "E d/M",
				"MMM": "LLL",
				"MMMd": "d MMM",
				"MMMEd": "E d MMM",
				"MMMEEEEd": "EEEEที่ d MMM",
				"MMMMd": "d MMMM",
				"ms": "mm:ss",
				"y": "G y",
				"yyyy": "G y",
				"yyyyM": "M/y G",
				"yyyyMd": "d/M/y GGGGG",
				"yyyyMEd": "E d/M/y GGGGG",
				"yyyyMMM": "MMM G y",
				"yyyyMMMd": "d MMM G y",
				"yyyyMMMEd": "E d MMM G y",
				"yyyyMMMEEEEd": "EEEEที่ d MMM G y",
				"yyyyMMMM": "MMMM G y",
				"yyyyQQQ": "QQQ G y",
				"yyyyQQQQ": "QQQQ G y"
			},
			"appendItems": {
				"Day": "{0} ({2}: {1})",
				"Day-Of-Week": "{0} {1}",
				"Era": "{1} {0}",
				"Hour": "{0} ({2}: {1})",
				"Minute": "{0} ({2}: {1})",
				"Month": "{0} ({2}: {1})",
				"Quarter": "{0} ({2}: {1})",
				"Second": "{0} ({2}: {1})",
				"Timezone": "{0} {1}",
				"Week": "{0} ({2}: {1})",
				"Year": "{1} {0}"
			},
			"intervalFormats": {
				"intervalFormatFallback": "{0} - {1}",
				"d": {
					"d": "d–d"
				},
				"Gy": {
					"G": "G y – G y",
					"y": "G y–y"
				},
				"GyM": {
					"G": "GGGGG y-MM – GGGGG y-MM",
					"M": "GGGGG y-MM – y-MM",
					"y": "GGGGG y-MM – y-MM"
				},
				"GyMd": {
					"d": "GGGGG y-MM-dd – y-MM-dd",
					"G": "GGGGG y-MM-dd – GGGGG y-MM-dd",
					"M": "GGGGG y-MM-dd – y-MM-dd",
					"y": "GGGGG y-MM-dd – y-MM-dd"
				},
				"GyMEd": {
					"d": "GGGGG y-MM-dd, E – y-MM-dd, E",
					"G": "GGGGG y-MM-dd, E – GGGGG y-MM-dd, E",
					"M": "GGGGG y-MM-dd, E – y-MM-dd, E",
					"y": "GGGGG y-MM-dd, E – y-MM-dd, E"
				},
				"GyMMM": {
					"G": "G y MMM – G y MMM",
					"M": "G y MMM–MMM",
					"y": "G y MMM – y MMM"
				},
				"GyMMMd": {
					"d": "G y MMM d–d",
					"G": "G y MMM d – G y MMM d",
					"M": "G y MMM d – MMM d",
					"y": "G y MMM d – y MMM d"
				},
				"GyMMMEd": {
					"d": "G y MMM d, E – MMM d, E",
					"G": "G y MMM d, E – G y MMM d, E",
					"M": "G y MMM d, E – MMM d, E",
					"y": "G y MMM d, E – y MMM d, E"
				},
				"h": {
					"a": "h a – h a",
					"h": "h–h a"
				},
				"H": {
					"H": "H–H"
				},
				"hm": {
					"a": "h:mm a – h:mm a",
					"h": "h:mm–h:mm a",
					"m": "h:mm–h:mm a"
				},
				"Hm": {
					"H": "HH:mm–HH:mm",
					"m": "HH:mm–HH:mm"
				},
				"hmv": {
					"a": "h:mm a – h:mm a v",
					"h": "h:mm–h:mm a v",
					"m": "h:mm–h:mm a v"
				},
				"Hmv": {
					"H": "H:mm–H:mm v",
					"m": "H:mm–H:mm v"
				},
				"hv": {
					"a": "h a – h a v",
					"h": "h–h a v"
				},
				"Hv": {
					"H": "H–H v"
				},
				"M": {
					"M": "M–M"
				},
				"Md": {
					"d": "d/M – d/M",
					"M": "d/M – d/M"
				},
				"MEd": {
					"d": "E d/M – E d/M",
					"M": "E d/M – E d/M"
				},
				"MMM": {
					"M": "LLL–LLL"
				},
				"MMMd": {
					"d": "d – d MMM",
					"M": "d MMM – d MMM"
				},
				"MMMEd": {
					"d": "E d MMM – E d MMM",
					"M": "E d MMM – E d MMM"
				},
				"MMMEEEEd": {
					"d": "EEEEที่ d – EEEEที่ d MMM",
					"M": "EEEEที่ d MMM – EEEEที่ d MMM"
				},
				"y": {
					"y": "G y–y"
				},
				"yM": {
					"M": "M/y – M/y G",
					"y": "M/y – M/y G"
				},
				"yMd": {
					"d": "d/M/y – d/M/y G",
					"M": "d/M/y – d/M/y G",
					"y": "d/M/y – d/M/y G"
				},
				"yMEd": {
					"d": "E d/M/y – E d/M/y G",
					"M": "E d/M/y – E d/M/y G",
					"y": "E d/M/y – E d/M/y G"
				},
				"yMMM": {
					"M": "MMM–MMM G y",
					"y": "MMM G y – MMM y"
				},
				"yMMMd": {
					"d": "d–d MMM G y",
					"M": "d MMM – d MMM G y",
					"y": "d MMM G y – d MMM y"
				},
				"yMMMEd": {
					"d": "E d MMM – E d MMM G y",
					"M": "E d MMM – E d MMM G y",
					"y": "E d MMM G y – E d MMM y"
				},
				"yMMMEEEEd": {
					"d": "EEEEที่ d – EEEEที่ d MMM G y",
					"M": "EEEEที่ d MMM – EEEEที่ d MMM G y",
					"y": "EEEEที่ d MMM G y – EEEEที่ d MMM y"
				},
				"yMMMM": {
					"M": "MMMM – MMMM G y",
					"y": "MMMM G y – MMMM y"
				}
			}
		},
		"months": {
			"format": {
				"abbreviated": [
					"ฟาร์วาร์ดิน",
					"ออร์ดิเบเฮชต์",
					"คอร์แดด",
					"เตอร์",
					"มอร์แดด",
					"ชาหริวาร์",
					"เมฮร์",
					"อะบาน",
					"อะซาร์",
					"เดย์",
					"บาฮ์มาน",
					"เอสฟานด์"
				],
				"narrow": [
					"1",
					"2",
					"3",
					"4",
					"5",
					"6",
					"7",
					"8",
					"9",
					"10",
					"11",
					"12"
				],
				"wide": [
					"ฟาร์วาร์ดิน",
					"ออร์ดิเบเฮชต์",
					"คอร์แดด",
					"เตอร์",
					"มอร์แดด",
					"ชาหริวาร์",
					"เมฮร์",
					"อะบาน",
					"อะซาร์",
					"เดย์",
					"บาฮ์มาน",
					"เอสฟานด์"
				]
			},
			"stand-alone": {
				"abbreviated": [
					"ฟาร์วาร์ดิน",
					"ออร์ดิเบเฮชต์",
					"คอร์แดด",
					"เตอร์",
					"มอร์แดด",
					"ชาหริวาร์",
					"เมฮร์",
					"อะบาน",
					"อะซาร์",
					"เดย์",
					"บาฮ์มาน",
					"เอสฟานด์"
				],
				"narrow": [
					"1",
					"2",
					"3",
					"4",
					"5",
					"6",
					"7",
					"8",
					"9",
					"10",
					"11",
					"12"
				],
				"wide": [
					"ฟาร์วาร์ดิน",
					"ออร์ดิเบเฮชต์",
					"คอร์แดด",
					"เตอร์",
					"มอร์แดด",
					"ชาหริวาร์",
					"เมฮร์",
					"อะบาน",
					"อะซาร์",
					"เดย์",
					"บาฮ์มาน",
					"เอสฟานด์"
				]
			}
		},
		"days": {
			"format": {
				"abbreviated": [
					"อา.",
					"จ.",
					"อ.",
					"พ.",
					"พฤ.",
					"ศ.",
					"ส."
				],
				"narrow": [
					"อา",
					"จ",
					"อ",
					"พ",
					"พฤ",
					"ศ",
					"ส"
				],
				"short": [
					"อา.",
					"จ.",
					"อ.",
					"พ.",
					"พฤ.",
					"ศ.",
					"ส."
				],
				"wide": [
					"วันอาทิตย์",
					"วันจันทร์",
					"วันอังคาร",
					"วันพุธ",
					"วันพฤหัสบดี",
					"วันศุกร์",
					"วันเสาร์"
				]
			},
			"stand-alone": {
				"abbreviated": [
					"อา.",
					"จ.",
					"อ.",
					"พ.",
					"พฤ.",
					"ศ.",
					"ส."
				],
				"narrow": [
					"อา",
					"จ",
					"อ",
					"พ",
					"พฤ",
					"ศ",
					"ส"
				],
				"short": [
					"อา.",
					"จ.",
					"อ.",
					"พ.",
					"พฤ.",
					"ศ.",
					"ส."
				],
				"wide": [
					"วันอาทิตย์",
					"วันจันทร์",
					"วันอังคาร",
					"วันพุธ",
					"วันพฤหัสบดี",
					"วันศุกร์",
					"วันเสาร์"
				]
			}
		},
		"quarters": {
			"format": {
				"abbreviated": [
					"ไตรมาส 1",
					"ไตรมาส 2",
					"ไตรมาส 3",
					"ไตรมาส 4"
				],
				"narrow": [
					"1",
					"2",
					"3",
					"4"
				],
				"wide": [
					"ไตรมาส 1",
					"ไตรมาส 2",
					"ไตรมาส 3",
					"ไตรมาส 4"
				]
			},
			"stand-alone": {
				"abbreviated": [
					"ไตรมาส 1",
					"ไตรมาส 2",
					"ไตรมาส 3",
					"ไตรมาส 4"
				],
				"narrow": [
					"1",
					"2",
					"3",
					"4"
				],
				"wide": [
					"ไตรมาส 1",
					"ไตรมาส 2",
					"ไตรมาส 3",
					"ไตรมาส 4"
				]
			}
		},
		"dayPeriods": {
			"format": {
				"abbreviated": [
					"ก่อนเที่ยง",
					"หลังเที่ยง"
				],
				"narrow": [
					"a",
					"p"
				],
				"wide": [
					"ก่อนเที่ยง",
					"หลังเที่ยง"
				]
			},
			"stand-alone": {
				"abbreviated": [
					"ก่อนเที่ยง",
					"หลังเที่ยง"
				],
				"narrow": [
					"ก่อนเที่ยง",
					"หลังเที่ยง"
				],
				"wide": [
					"ก่อนเที่ยง",
					"หลังเที่ยง"
				]
			}
		},
		"era-wide": {
			"0": "ปีเปอร์เซีย"
		},
		"era-abbreviated": {
			"0": "ปีเปอร์เซีย"
		},
		"era-narrow": {
			"0": "ปีเปอร์เซีย"
		}
	},
	"ca-buddhist": {
		"dateFormats": {
			"full": "EEEEที่ d MMMM G y",
			"long": "d MMMM y",
			"medium": "d MMM y",
			"short": "d/M/yy"
		},
		"timeFormats": {
			"full": "H นาฬิกา mm นาที ss วินาที zzzz",
			"long": "H นาฬิกา mm นาที ss วินาที z",
			"medium": "HH:mm:ss",
			"short": "HH:mm"
		},
		"dateTimeFormats": {
			"full": "{1} {0}",
			"long": "{1} {0}",
			"medium": "{1} {0}",
			"short": "{1} {0}",
			"availableFormats": {
				"Bh": "h B",
				"Bhm": "h:mm B",
				"Bhms": "h:mm:ss B",
				"d": "d",
				"E": "ccc",
				"EBhm": "E h:mm B",
				"EBhms": "E h:mm:ss B",
				"Ed": "E d",
				"Ehm": "E h:mm a",
				"EHm": "E HH:mm",
				"Ehms": "E h:mm:ss a",
				"EHms": "E HH:mm:ss",
				"Gy": "G y",
				"GyMMM": "MMM G y",
				"GyMMMd": "d MMM G y",
				"GyMMMEd": "E d MMM G y",
				"GyMMMEEEEd": "EEEEที่ d MMM G y",
				"h": "h a",
				"H": "HH",
				"hm": "h:mm a",
				"Hm": "HH:mm",
				"hms": "h:mm:ss a",
				"Hms": "HH:mm:ss",
				"M": "L",
				"Md": "d/M",
				"MEd": "E d/M",
				"MMM": "LLL",
				"MMMd": "d MMM",
				"MMMEd": "E d MMM",
				"MMMEEEEd": "EEEEที่ d MMM",
				"MMMMd": "d MMMM",
				"MMMMEd": "E d MMMM",
				"MMMMEEEEd": "EEEEที่ d MMMM",
				"ms": "mm:ss",
				"y": "G y",
				"yyyy": "G y",
				"yyyyM": "M/y",
				"yyyyMd": "d/M/y",
				"yyyyMEd": "E d/M/y",
				"yyyyMMM": "MMM y",
				"yyyyMMMd": "d MMM y",
				"yyyyMMMEd": "E d MMM y",
				"yyyyMMMEEEEd": "EEEEที่ d MMM y",
				"yyyyMMMM": "MMMM y",
				"yyyyQQQ": "QQQ y",
				"yyyyQQQQ": "QQQQ y"
			},
			"appendItems": {
				"Day": "{0} ({2}: {1})",
				"Day-Of-Week": "{0} {1}",
				"Era": "{1} {0}",
				"Hour": "{0} ({2}: {1})",
				"Minute": "{0} ({2}: {1})",
				"Month": "{0} ({2}: {1})",
				"Quarter": "{0} ({2}: {1})",
				"Second": "{0} ({2}: {1})",
				"Timezone": "{0} {1}",
				"Week": "{0} ({2}: {1})",
				"Year": "{1} {0}"
			},
			"intervalFormats": {
				"intervalFormatFallback": "{0} - {1}",
				"d": {
					"d": "d–d"
				},
				"Gy": {
					"G": "G y – G y",
					"y": "G y–y"
				},
				"GyM": {
					"G": "GGGGG y-MM – GGGGG y-MM",
					"M": "GGGGG y-MM – y-MM",
					"y": "GGGGG y-MM – y-MM"
				},
				"GyMd": {
					"d": "GGGGG y-MM-dd – y-MM-dd",
					"G": "GGGGG y-MM-dd – GGGGG y-MM-dd",
					"M": "GGGGG y-MM-dd – y-MM-dd",
					"y": "GGGGG y-MM-dd – y-MM-dd"
				},
				"GyMEd": {
					"d": "GGGGG y-MM-dd, E – y-MM-dd, E",
					"G": "GGGGG y-MM-dd, E – GGGGG y-MM-dd, E",
					"M": "GGGGG y-MM-dd, E – y-MM-dd, E",
					"y": "GGGGG y-MM-dd, E – y-MM-dd, E"
				},
				"GyMMM": {
					"G": "G y MMM – G y MMM",
					"M": "G y MMM–MMM",
					"y": "G y MMM – y MMM"
				},
				"GyMMMd": {
					"d": "G y MMM d–d",
					"G": "G y MMM d – G y MMM d",
					"M": "G y MMM d – MMM d",
					"y": "G y MMM d – y MMM d"
				},
				"GyMMMEd": {
					"d": "G y MMM d, E – MMM d, E",
					"G": "G y MMM d, E – G y MMM d, E",
					"M": "G y MMM d, E – MMM d, E",
					"y": "G y MMM d, E – y MMM d, E"
				},
				"h": {
					"a": "h a – h a",
					"h": "h–h a"
				},
				"H": {
					"H": "H–H"
				},
				"hm": {
					"a": "h:mm a – h:mm a",
					"h": "h:mm–h:mm a",
					"m": "h:mm–h:mm a"
				},
				"Hm": {
					"H": "H:mm–H:mm",
					"m": "H:mm–H:mm"
				},
				"hmv": {
					"a": "h:mm a – h:mm a v",
					"h": "h:mm–h:mm a v",
					"m": "h:mm–h:mm a v"
				},
				"Hmv": {
					"H": "H:mm–H:mm v",
					"m": "H:mm–H:mm v"
				},
				"hv": {
					"a": "h a – h a v",
					"h": "h–h a v"
				},
				"Hv": {
					"H": "H–H v"
				},
				"M": {
					"M": "M–M"
				},
				"Md": {
					"d": "d/M – d/M",
					"M": "d/M – d/M"
				},
				"MEd": {
					"d": "E d – E d/M",
					"M": "E d – E d/M"
				},
				"MMM": {
					"M": "LLL–LLL"
				},
				"MMMd": {
					"d": "d – d MMM",
					"M": "d MMM – d MMM"
				},
				"MMMEd": {
					"d": "E d – E d MMM",
					"M": "E d MMM – E d MMM"
				},
				"MMMEEEEd": {
					"d": "EEEEที่ d – EEEEที่ d MMM",
					"M": "EEEEที่ d MMM – EEEEที่ d MMM"
				},
				"y": {
					"y": "y–y"
				},
				"yM": {
					"M": "M/y – M/y",
					"y": "M/y – M/y"
				},
				"yMd": {
					"d": "d–d/M/y",
					"M": "d/M/y – d/M/y",
					"y": "d/M/y – d/M/y"
				},
				"yMEd": {
					"d": "E d – E d/M/y",
					"M": "E d/M/y – E d/M/y",
					"y": "E d/M/y – E d/M/y"
				},
				"yMMM": {
					"M": "MMM–MMM y",
					"y": "MMM y – MMM y"
				},
				"yMMMd": {
					"d": "d–d MMM y",
					"M": "d MMM – d MMM y",
					"y": "d MMM y – d MMM y"
				},
				"yMMMEd": {
					"d": "E d – E d MMM y",
					"M": "E d MMM – E d MMM y",
					"y": "E d MMM y – E d MMM y"
				},
				"yMMMEEEEd": {
					"d": "EEEEที่ d – EEEEที่ d MMM y",
					"M": "EEEEที่ d MMM – EEEEที่ d MMM y",
					"y": "EEEEที่ d MMM y – EEEEที่ d MMM y"
				},
				"yMMMM": {
					"M": "MMMM–MMMM y",
					"y": "MMMM y – MMMM y"
				}
			}
		},
		"months": {
			"format": {
				"abbreviated": [
					"ม.ค.",
					"ก.พ.",
					"มี.ค.",
					"เม.ย.",
					"พ.ค.",
					"มิ.ย.",
					"ก.ค.",
					"ส.ค.",
					"ก.ย.",
					"ต.ค.",
					"พ.ย.",
					"ธ.ค."
				],
				"narrow": [
					"ม.ค.",
					"ก.พ.",
					"มี.ค.",
					"เม.ย.",
					"พ.ค.",
					"มิ.ย.",
					"ก.ค.",
					"ส.ค.",
					"ก.ย.",
					"ต.ค.",
					"พ.ย.",
					"ธ.ค."
				],
				"wide": [
					"มกราคม",
					"กุมภาพันธ์",
					"มีนาคม",
					"เมษายน",
					"พฤษภาคม",
					"มิถุนายน",
					"กรกฎาคม",
					"สิงหาคม",
					"กันยายน",
					"ตุลาคม",
					"พฤศจิกายน",
					"ธันวาคม"
				]
			},
			"stand-alone": {
				"abbreviated": [
					"ม.ค.",
					"ก.พ.",
					"มี.ค.",
					"เม.ย.",
					"พ.ค.",
					"มิ.ย.",
					"ก.ค.",
					"ส.ค.",
					"ก.ย.",
					"ต.ค.",
					"พ.ย.",
					"ธ.ค."
				],
				"narrow": [
					"ม.ค.",
					"ก.พ.",
					"มี.ค.",
					"เม.ย.",
					"พ.ค.",
					"มิ.ย.",
					"ก.ค.",
					"ส.ค.",
					"ก.ย.",
					"ต.ค.",
					"พ.ย.",
					"ธ.ค."
				],
				"wide": [
					"มกราคม",
					"กุมภาพันธ์",
					"มีนาคม",
					"เมษายน",
					"พฤษภาคม",
					"มิถุนายน",
					"กรกฎาคม",
					"สิงหาคม",
					"กันยายน",
					"ตุลาคม",
					"พฤศจิกายน",
					"ธันวาคม"
				]
			}
		},
		"days": {
			"format": {
				"abbreviated": [
					"อา.",
					"จ.",
					"อ.",
					"พ.",
					"พฤ.",
					"ศ.",
					"ส."
				],
				"narrow": [
					"อา",
					"จ",
					"อ",
					"พ",
					"พฤ",
					"ศ",
					"ส"
				],
				"short": [
					"อา.",
					"จ.",
					"อ.",
					"พ.",
					"พฤ.",
					"ศ.",
					"ส."
				],
				"wide": [
					"วันอาทิตย์",
					"วันจันทร์",
					"วันอังคาร",
					"วันพุธ",
					"วันพฤหัสบดี",
					"วันศุกร์",
					"วันเสาร์"
				]
			},
			"stand-alone": {
				"abbreviated": [
					"อา.",
					"จ.",
					"อ.",
					"พ.",
					"พฤ.",
					"ศ.",
					"ส."
				],
				"narrow": [
					"อา",
					"จ",
					"อ",
					"พ",
					"พฤ",
					"ศ",
					"ส"
				],
				"short": [
					"อา.",
					"จ.",
					"อ.",
					"พ.",
					"พฤ.",
					"ศ.",
					"ส."
				],
				"wide": [
					"วันอาทิตย์",
					"วันจันทร์",
					"วันอังคาร",
					"วันพุธ",
					"วันพฤหัสบดี",
					"วันศุกร์",
					"วันเสาร์"
				]
			}
		},
		"quarters": {
			"format": {
				"abbreviated": [
					"ไตรมาส 1",
					"ไตรมาส 2",
					"ไตรมาส 3",
					"ไตรมาส 4"
				],
				"narrow": [
					"1",
					"2",
					"3",
					"4"
				],
				"wide": [
					"ไตรมาส 1",
					"ไตรมาส 2",
					"ไตรมาส 3",
					"ไตรมาส 4"
				]
			},
			"stand-alone": {
				"abbreviated": [
					"ไตรมาส 1",
					"ไตรมาส 2",
					"ไตรมาส 3",
					"ไตรมาส 4"
				],
				"narrow": [
					"1",
					"2",
					"3",
					"4"
				],
				"wide": [
					"ไตรมาส 1",
					"ไตรมาส 2",
					"ไตรมาส 3",
					"ไตรมาส 4"
				]
			}
		},
		"dayPeriods": {
			"format": {
				"abbreviated": [
					"ก่อนเที่ยง",
					"หลังเที่ยง"
				],
				"narrow": [
					"a",
					"p"
				],
				"wide": [
					"ก่อนเที่ยง",
					"หลังเที่ยง"
				]
			},
			"stand-alone": {
				"abbreviated": [
					"ก่อนเที่ยง",
					"หลังเที่ยง"
				],
				"narrow": [
					"ก่อนเที่ยง",
					"หลังเที่ยง"
				],
				"wide": [
					"ก่อนเที่ยง",
					"หลังเที่ยง"
				]
			}
		},
		"era-wide": {
			"0": "พุทธศักราช"
		},
		"era-abbreviated": {
			"0": "พ.ศ."
		},
		"era-narrow": {
			"0": "พ.ศ."
		}
	},
	"dateFields": {
		"era": {
			"displayName": "สมัย"
		},
		"year-wide": {
			"displayName": "ปี",
			"relative-type--1": "ปีที่แล้ว",
			"relative-type-0": "ปีนี้",
			"relative-type-1": "ปีหน้า",
			"relativeTime-type-future": {
				"relativeTimePattern-count-other": "ในอีก {0} ปี"
			},
			"relativeTime-type-past": {
				"relativeTimePattern-count-other": "{0} ปีที่แล้ว"
			}
		},
		"year-short": {
			"displayName": "ปี",
			"relative-type--1": "ปีที่แล้ว",
			"relative-type-0": "ปีนี้",
			"relative-type-1": "ปีหน้า",
			"relativeTime-type-future": {
				"relativeTimePattern-count-other": "ใน {0} ปี"
			},
			"relativeTime-type-past": {
				"relativeTimePattern-count-other": "{0} ปีที่แล้ว"
			}
		},
		"year-narrow": {
			"displayName": "ปี",
			"relative-type--1": "ปีที่แล้ว",
			"relative-type-0": "ปีนี้",
			"relative-type-1": "ปีหน้า",
			"relativeTime-type-future": {
				"relativeTimePattern-count-other": "ใน {0} ปี"
			},
			"relativeTime-type-past": {
				"relativeTimePattern-count-other": "{0} ปีที่แล้ว"
			}
		},
		"quarter-wide": {
			"displayName": "ไตรมาส",
			"relative-type--1": "ไตรมาสที่แล้ว",
			"relative-type-0": "ไตรมาสนี้",
			"relative-type-1": "ไตรมาสหน้า",
			"relativeTime-type-future": {
				"relativeTimePattern-count-other": "ในอีก {0} ไตรมาส"
			},
			"relativeTime-type-past": {
				"relativeTimePattern-count-other": "{0} ไตรมาสที่แล้ว"
			}
		},
		"quarter-short": {
			"displayName": "ไตรมาส",
			"relative-type--1": "ไตรมาสที่แล้ว",
			"relative-type-0": "ไตรมาสนี้",
			"relative-type-1": "ไตรมาสหน้า",
			"relativeTime-type-future": {
				"relativeTimePattern-count-other": "ใน {0} ไตรมาส"
			},
			"relativeTime-type-past": {
				"relativeTimePattern-count-other": "{0} ไตรมาสที่แล้ว"
			}
		},
		"quarter-narrow": {
			"displayName": "ไตรมาส",
			"relative-type--1": "ไตรมาสที่แล้ว",
			"relative-type-0": "ไตรมาสนี้",
			"relative-type-1": "ไตรมาสหน้า",
			"relativeTime-type-future": {
				"relativeTimePattern-count-other": "ใน {0} ไตรมาส"
			},
			"relativeTime-type-past": {
				"relativeTimePattern-count-other": "{0} ไตรมาสที่แล้ว"
			}
		},
		"month-wide": {
			"displayName": "เดือน",
			"relative-type--1": "เดือนที่แล้ว",
			"relative-type-0": "เดือนนี้",
			"relative-type-1": "เดือนหน้า",
			"relativeTime-type-future": {
				"relativeTimePattern-count-other": "ในอีก {0} เดือน"
			},
			"relativeTime-type-past": {
				"relativeTimePattern-count-other": "{0} เดือนที่ผ่านมา"
			}
		},
		"month-short": {
			"displayName": "เดือน",
			"relative-type--1": "เดือนที่แล้ว",
			"relative-type-0": "เดือนนี้",
			"relative-type-1": "เดือนหน้า",
			"relativeTime-type-future": {
				"relativeTimePattern-count-other": "ใน {0} เดือน"
			},
			"relativeTime-type-past": {
				"relativeTimePattern-count-other": "{0} เดือนที่แล้ว"
			}
		},
		"month-narrow": {
			"displayName": "เดือน",
			"relative-type--1": "เดือนที่แล้ว",
			"relative-type-0": "เดือนนี้",
			"relative-type-1": "เดือนหน้า",
			"relativeTime-type-future": {
				"relativeTimePattern-count-other": "ใน {0} เดือน"
			},
			"relativeTime-type-past": {
				"relativeTimePattern-count-other": "{0} เดือนที่แล้ว"
			}
		},
		"week-wide": {
			"displayName": "สัปดาห์",
			"relative-type--1": "สัปดาห์ที่แล้ว",
			"relative-type-0": "สัปดาห์นี้",
			"relative-type-1": "สัปดาห์หน้า",
			"relativeTime-type-future": {
				"relativeTimePattern-count-other": "ในอีก {0} สัปดาห์"
			},
			"relativeTime-type-past": {
				"relativeTimePattern-count-other": "{0} สัปดาห์ที่ผ่านมา"
			},
			"relativePeriod": "สัปดาห์ที่เริ่มต้นวันที่"
		},
		"week-short": {
			"displayName": "สัปดาห์",
			"relative-type--1": "สัปดาห์ที่แล้ว",
			"relative-type-0": "สัปดาห์นี้",
			"relative-type-1": "สัปดาห์หน้า",
			"relativeTime-type-future": {
				"relativeTimePattern-count-other": "ใน {0} สัปดาห์"
			},
			"relativeTime-type-past": {
				"relativeTimePattern-count-other": "{0} สัปดาห์ที่แล้ว"
			},
			"relativePeriod": "สัปดาห์ที่เริ่มต้นวันที่"
		},
		"week-narrow": {
			"displayName": "สัปดาห์",
			"relative-type--1": "สัปดาห์ที่แล้ว",
			"relative-type-0": "สัปดาห์นี้",
			"relative-type-1": "สัปดาห์หน้า",
			"relativeTime-type-future": {
				"relativeTimePattern-count-other": "ใน {0} สัปดาห์"
			},
			"relativeTime-type-past": {
				"relativeTimePattern-count-other": "{0} สัปดาห์ที่แล้ว"
			},
			"relativePeriod": "สัปดาห์ที่เริ่มต้นวันที่"
		},
		"day-wide": {
			"displayName": "วัน",
			"relative-type--2": "เมื่อวานซืน",
			"relative-type--1": "เมื่อวาน",
			"relative-type-0": "วันนี้",
			"relative-type-1": "พรุ่งนี้",
			"relative-type-2": "มะรืนนี้",
			"relativeTime-type-future": {
				"relativeTimePattern-count-other": "ในอีก {0} วัน"
			},
			"relativeTime-type-past": {
				"relativeTimePattern-count-other": "{0} วันที่ผ่านมา"
			}
		},
		"day-short": {
			"displayName": "วัน",
			"relative-type--2": "เมื่อวานซืน",
			"relative-type--1": "เมื่อวาน",
			"relative-type-0": "วันนี้",
			"relative-type-1": "พรุ่งนี้",
			"relative-type-2": "มะรืนนี้",
			"relativeTime-type-future": {
				"relativeTimePattern-count-other": "ใน {0} วัน"
			},
			"relativeTime-type-past": {
				"relativeTimePattern-count-other": "{0} วันที่แล้ว"
			}
		},
		"day-narrow": {
			"displayName": "วัน",
			"relative-type--2": "เมื่อวานซืน",
			"relative-type--1": "เมื่อวาน",
			"relative-type-0": "วันนี้",
			"relative-type-1": "พรุ่งนี้",
			"relative-type-2": "มะรืนนี้",
			"relativeTime-type-future": {
				"relativeTimePattern-count-other": "ใน {0} วัน"
			},
			"relativeTime-type-past": {
				"relativeTimePattern-count-other": "{0} วันที่แล้ว"
			}
		},
		"weekday": {
			"displayName": "วันของสัปดาห์"
		},
		"hour-wide": {
			"displayName": "ชั่วโมง",
			"relative-type-0": "ชั่วโมงนี้",
			"relativeTime-type-future": {
				"relativeTimePattern-count-other": "ในอีก {0} ชั่วโมง"
			},
			"relativeTime-type-past": {
				"relativeTimePattern-count-other": "{0} ชั่วโมงที่ผ่านมา"
			}
		},
		"hour-short": {
			"displayName": "ชม.",
			"relative-type-0": "ชั่วโมงนี้",
			"relativeTime-type-future": {
				"relativeTimePattern-count-other": "ใน {0} ชม."
			},
			"relativeTime-type-past": {
				"relativeTimePattern-count-other": "{0} ชม. ที่แล้ว"
			}
		},
		"hour-narrow": {
			"displayName": "ชม.",
			"relative-type-0": "ชั่วโมงนี้",
			"relativeTime-type-future": {
				"relativeTimePattern-count-other": "ใน {0} ชม."
			},
			"relativeTime-type-past": {
				"relativeTimePattern-count-other": "{0} ชม. ที่แล้ว"
			}
		},
		"minute-wide": {
			"displayName": "นาที",
			"relative-type-0": "นาทีนี้",
			"relativeTime-type-future": {
				"relativeTimePattern-count-other": "ในอีก {0} นาที"
			},
			"relativeTime-type-past": {
				"relativeTimePattern-count-other": "{0} นาทีที่ผ่านมา"
			}
		},
		"minute-short": {
			"displayName": "น.",
			"relative-type-0": "นาทีนี้",
			"relativeTime-type-future": {
				"relativeTimePattern-count-other": "ใน {0} นาที"
			},
			"relativeTime-type-past": {
				"relativeTimePattern-count-other": "{0} นาทีที่แล้ว"
			}
		},
		"minute-narrow": {
			"displayName": "น.",
			"relative-type-0": "นาทีนี้",
			"relativeTime-type-future": {
				"relativeTimePattern-count-other": "ใน {0} นาที"
			},
			"relativeTime-type-past": {
				"relativeTimePattern-count-other": "{0} นาทีที่แล้ว"
			}
		},
		"second-wide": {
			"displayName": "วินาที",
			"relative-type-0": "ขณะนี้",
			"relativeTime-type-future": {
				"relativeTimePattern-count-other": "ในอีก {0} วินาที"
			},
			"relativeTime-type-past": {
				"relativeTimePattern-count-other": "{0} วินาทีที่ผ่านมา"
			}
		},
		"second-short": {
			"displayName": "วิ",
			"relative-type-0": "ขณะนี้",
			"relativeTime-type-future": {
				"relativeTimePattern-count-other": "ใน {0} วินาที"
			},
			"relativeTime-type-past": {
				"relativeTimePattern-count-other": "{0} วินาทีที่แล้ว"
			}
		},
		"second-narrow": {
			"displayName": "วิ",
			"relative-type-0": "ขณะนี้",
			"relativeTime-type-future": {
				"relativeTimePattern-count-other": "ใน {0} วินาที"
			},
			"relativeTime-type-past": {
				"relativeTimePattern-count-other": "{0} วินาทีที่แล้ว"
			}
		},
		"zone": {
			"displayName": "เขตเวลา"
		}
	},
	"decimalFormat": {
		"standard": "#,##0.###"
	},
	"decimalFormat-long": {
		"1000-other": "0 พัน",
		"10000-other": "0 หมื่น",
		"100000-other": "0 แสน",
		"1000000-other": "0 ล้าน",
		"10000000-other": "00 ล้าน",
		"100000000-other": "000 ล้าน",
		"1000000000-other": "0 พันล้าน",
		"10000000000-other": "0 หมื่นล้าน",
		"100000000000-other": "0 แสนล้าน",
		"1000000000000-other": "0 ล้านล้าน",
		"10000000000000-other": "00 ล้านล้าน",
		"100000000000000-other": "000 ล้านล้าน"
	},
	"decimalFormat-short": {
		"1000-other": "0K",
		"10000-other": "00K",
		"100000-other": "000K",
		"1000000-other": "0M",
		"10000000-other": "00M",
		"100000000-other": "000M",
		"1000000000-other": "0B",
		"10000000000-other": "00B",
		"100000000000-other": "000B",
		"1000000000000-other": "0T",
		"10000000000000-other": "00T",
		"100000000000000-other": "000T"
	},
	"scientificFormat": {
		"standard": "#E0"
	},
	"percentFormat": {
		"standard": "#,##0%"
	},
	"currencyFormat": {
		"standard": "¤#,##0.00",
		"accounting": "¤#,##0.00;(¤#,##0.00)",
		"currencySpacing": {
			"beforeCurrency": {
				"currencyMatch": "[:^S:]",
				"surroundingMatch": "[:digit:]",
				"insertBetween": " "
			},
			"afterCurrency": {
				"currencyMatch": "[:^S:]",
				"surroundingMatch": "[:digit:]",
				"insertBetween": " "
			}
		}
	},
	"currencyFormat-short": {
		"1000-other": "¤0K",
		"10000-other": "¤00K",
		"100000-other": "¤000K",
		"1000000-other": "¤0M",
		"10000000-other": "¤00M",
		"100000000-other": "¤000M",
		"1000000000-other": "¤0B",
		"10000000000-other": "¤00B",
		"100000000000-other": "¤000B",
		"1000000000000-other": "¤0T",
		"10000000000000-other": "¤00T",
		"100000000000000-other": "¤000T"
	},
	"symbols-latn-decimal": ".",
	"symbols-latn-group": ",",
	"symbols-latn-list": ";",
	"symbols-latn-percentSign": "%",
	"symbols-latn-plusSign": "+",
	"symbols-latn-minusSign": "-",
	"symbols-latn-exponential": "E",
	"symbols-latn-superscriptingExponent": "×",
	"symbols-latn-perMille": "‰",
	"symbols-latn-infinity": "∞",
	"symbols-latn-nan": "NaN",
	"symbols-latn-timeSeparator": ":",
	"currencySymbols": {
		"AUD": "AU$",
		"BRL": "R$",
		"CAD": "CA$",
		"CNY": "CN¥",
		"EUR": "€",
		"GBP": "£",
		"HKD": "HK$",
		"ILS": "₪",
		"INR": "₹",
		"JPY": "¥",
		"KRW": "₩",
		"MXN": "MX$",
		"NZD": "NZ$",
		"THB": "฿",
		"TWD": "NT$",
		"USD": "US$",
		"VND": "₫",
		"XAF": "FCFA",
		"XCD": "EC$",
		"XOF": "CFA",
		"XPF": "CFPF"
	},
	"rtl": false,
	"listPattern-standard-wide": {
		"2": "{0}และ{1}",
		"start": "{0} {1}",
		"middle": "{0} {1}",
		"end": "{0} และ{1}"
	},
	"listPattern-or-wide": {
		"2": "{0} หรือ {1}",
		"start": "{0}, {1}",
		"middle": "{0}, {1}",
		"end": "{0} หรือ {1}"
	},
	"listPattern-or-short": {
		"2": "{0} หรือ {1}",
		"start": "{0}, {1}",
		"middle": "{0}, {1}",
		"end": "{0} หรือ {1}"
	},
	"listPattern-standard-short": {
		"2": "{0} และ {1}",
		"start": "{0} {1}",
		"middle": "{0} {1}",
		"end": "{0} และ{1}"
	},
	"units": {
		"short": {
			"per": {
				"compoundUnitPattern": "{0}/{1}"
			},
			"acceleration-g-force": {
				"displayName": "แรง G",
				"unitPattern-count-other": "{0} G"
			},
			"acceleration-meter-per-second-squared": {
				"displayName": "เมตร/วินาที²",
				"unitPattern-count-other": "{0} ม./วิ²"
			},
			"angle-revolution": {
				"displayName": "รอบ",
				"unitPattern-count-other": "{0} รอบ"
			},
			"angle-radian": {
				"displayName": "เรเดียน",
				"unitPattern-count-other": "{0} เรเดียน"
			},
			"angle-degree": {
				"displayName": "องศา",
				"unitPattern-count-other": "{0}°"
			},
			"angle-arc-minute": {
				"displayName": "ลิปดา",
				"unitPattern-count-other": "{0} ลิปดา"
			},
			"angle-arc-second": {
				"displayName": "พิลิปดา",
				"unitPattern-count-other": "{0} พิลิปดา"
			},
			"area-square-kilometer": {
				"displayName": "ตร.กม.",
				"unitPattern-count-other": "{0} ตร.กม.",
				"perUnitPattern": "{0}/ตร.กม."
			},
			"area-hectare": {
				"displayName": "เฮกตาร์",
				"unitPattern-count-other": "{0} เฮกตาร์"
			},
			"area-square-meter": {
				"displayName": "ตร.ม.",
				"unitPattern-count-other": "{0} ตร.ม.",
				"perUnitPattern": "{0}/ตร.ม."
			},
			"area-square-centimeter": {
				"displayName": "ตร.ซม.",
				"unitPattern-count-other": "{0} ตร.ซม.",
				"perUnitPattern": "{0}/ตร.ซม."
			},
			"area-square-mile": {
				"displayName": "ตร.ไมล์",
				"unitPattern-count-other": "{0} ตร.ไมล์",
				"perUnitPattern": "{0}/ตร.ไมล์"
			},
			"area-acre": {
				"displayName": "เอเคอร์",
				"unitPattern-count-other": "{0} เอเคอร์"
			},
			"area-square-yard": {
				"displayName": "ตร.หลา",
				"unitPattern-count-other": "{0} ตร.หลา"
			},
			"area-square-foot": {
				"displayName": "ตร.ฟุต",
				"unitPattern-count-other": "{0} ตร.ฟุต"
			},
			"area-square-inch": {
				"displayName": "ตร.นิ้ว",
				"unitPattern-count-other": "{0} ตร.นิ้ว",
				"perUnitPattern": "{0}/ตร.นิ้ว"
			},
			"concentr-karat": {
				"displayName": "กะรัต",
				"unitPattern-count-other": "{0} กะรัต"
			},
			"concentr-milligram-per-deciliter": {
				"displayName": "มก./ดล.",
				"unitPattern-count-other": "{0} มก./ดล."
			},
			"concentr-millimole-per-liter": {
				"displayName": "มิลลิโมล/ลิตร",
				"unitPattern-count-other": "{0} มลม./ล."
			},
			"concentr-part-per-million": {
				"displayName": "ส่วน/ล้าน",
				"unitPattern-count-other": "{0} สตล."
			},
			"concentr-percent": {
				"displayName": "%",
				"unitPattern-count-other": "{0}%"
			},
			"concentr-permille": {
				"displayName": "‰",
				"unitPattern-count-other": "{0}‰"
			},
			"consumption-liter-per-kilometer": {
				"displayName": "ลิตร/กม.",
				"unitPattern-count-other": "{0} ล./กม."
			},
			"consumption-liter-per-100kilometers": {
				"displayName": "ล./100 กม.",
				"unitPattern-count-other": "{0} ล./100กม."
			},
			"consumption-mile-per-gallon": {
				"displayName": "ไมล์/แกลลอน",
				"unitPattern-count-other": "{0} ไมล์/แกลลอน"
			},
			"consumption-mile-per-gallon-imperial": {
				"displayName": "ไมล์/แกลลอนอังกฤษ",
				"unitPattern-count-other": "{0} ไมล์ต่อแกลลอนอังกฤษ"
			},
			"digital-petabyte": {
				"displayName": "PB",
				"unitPattern-count-other": "{0} PB"
			},
			"digital-terabyte": {
				"displayName": "TB",
				"unitPattern-count-other": "{0} TB"
			},
			"digital-terabit": {
				"displayName": "Tb",
				"unitPattern-count-other": "{0} Tb"
			},
			"digital-gigabyte": {
				"displayName": "GB",
				"unitPattern-count-other": "{0} GB"
			},
			"digital-gigabit": {
				"displayName": "Gb",
				"unitPattern-count-other": "{0} Gb"
			},
			"digital-megabyte": {
				"displayName": "MB",
				"unitPattern-count-other": "{0} MB"
			},
			"digital-megabit": {
				"displayName": "Mb",
				"unitPattern-count-other": "{0} Mb"
			},
			"digital-kilobyte": {
				"displayName": "kB",
				"unitPattern-count-other": "{0} kB"
			},
			"digital-kilobit": {
				"displayName": "kb",
				"unitPattern-count-other": "{0} kb"
			},
			"digital-byte": {
				"displayName": "ไบต์",
				"unitPattern-count-other": "{0} ไบต์"
			},
			"digital-bit": {
				"displayName": "บิต",
				"unitPattern-count-other": "{0} บิต"
			},
			"duration-century": {
				"displayName": "ศตวรรษ",
				"unitPattern-count-other": "{0} ศตวรรษ"
			},
			"duration-year": {
				"displayName": "ปี",
				"unitPattern-count-other": "{0} ปี",
				"perUnitPattern": "{0}/ปี"
			},
			"duration-month": {
				"displayName": "เดือน",
				"unitPattern-count-other": "{0} เดือน",
				"perUnitPattern": "{0}/เดือน"
			},
			"duration-week": {
				"displayName": "สัปดาห์",
				"unitPattern-count-other": "{0} สัปดาห์",
				"perUnitPattern": "{0}/สัปดาห์"
			},
			"duration-day": {
				"displayName": "วัน",
				"unitPattern-count-other": "{0} วัน",
				"perUnitPattern": "{0}/วัน"
			},
			"duration-hour": {
				"displayName": "ชั่วโมง",
				"unitPattern-count-other": "{0} ชม.",
				"perUnitPattern": "{0}/ชม."
			},
			"duration-minute": {
				"displayName": "นาที",
				"unitPattern-count-other": "{0} นาที",
				"perUnitPattern": "{0}/นาที"
			},
			"duration-second": {
				"displayName": "วินาที",
				"unitPattern-count-other": "{0} วิ",
				"perUnitPattern": "{0}/วิ"
			},
			"duration-millisecond": {
				"displayName": "มิลลิวินาที",
				"unitPattern-count-other": "{0} มิลลิวินาที"
			},
			"duration-microsecond": {
				"displayName": "ไมโครวินาที",
				"unitPattern-count-other": "{0} ไมโครวิ"
			},
			"duration-nanosecond": {
				"displayName": "นาโนวินาที",
				"unitPattern-count-other": "{0} นาโนวิ"
			},
			"electric-ampere": {
				"displayName": "แอมป์",
				"unitPattern-count-other": "{0} แอมป์"
			},
			"electric-milliampere": {
				"displayName": "มิลลิแอมป์",
				"unitPattern-count-other": "{0} มิลลิแอมป์"
			},
			"electric-ohm": {
				"displayName": "โอห์ม",
				"unitPattern-count-other": "{0} Ω"
			},
			"electric-volt": {
				"displayName": "โวลต์",
				"unitPattern-count-other": "{0} V"
			},
			"energy-kilocalorie": {
				"displayName": "กิโลแคลอรี",
				"unitPattern-count-other": "{0} กิโลแคลอรี"
			},
			"energy-calorie": {
				"displayName": "แคลอรี",
				"unitPattern-count-other": "{0} แคลอรี"
			},
			"energy-foodcalorie": {
				"displayName": "แคลอรี",
				"unitPattern-count-other": "{0} แคลอรี"
			},
			"energy-kilojoule": {
				"displayName": "กิโลจูล",
				"unitPattern-count-other": "{0} กิโลจูล"
			},
			"energy-joule": {
				"displayName": "จูล",
				"unitPattern-count-other": "{0} จูล"
			},
			"energy-kilowatt-hour": {
				"displayName": "กว.-ชม.",
				"unitPattern-count-other": "{0} กว.-ชม."
			},
			"frequency-gigahertz": {
				"displayName": "GHz",
				"unitPattern-count-other": "{0} GHz"
			},
			"frequency-megahertz": {
				"displayName": "MHz",
				"unitPattern-count-other": "{0} MHz"
			},
			"frequency-kilohertz": {
				"displayName": "kHz",
				"unitPattern-count-other": "{0} kHz"
			},
			"frequency-hertz": {
				"displayName": "Hz",
				"unitPattern-count-other": "{0} Hz"
			},
			"length-kilometer": {
				"displayName": "กม.",
				"unitPattern-count-other": "{0} กม.",
				"perUnitPattern": "{0}/กม."
			},
			"length-meter": {
				"displayName": "เมตร",
				"unitPattern-count-other": "{0} ม.",
				"perUnitPattern": "{0}/ม."
			},
			"length-decimeter": {
				"displayName": "ดม.",
				"unitPattern-count-other": "{0} ดม."
			},
			"length-centimeter": {
				"displayName": "ซม.",
				"unitPattern-count-other": "{0} ซม.",
				"perUnitPattern": "{0}/ซม."
			},
			"length-millimeter": {
				"displayName": "มม.",
				"unitPattern-count-other": "{0} มม."
			},
			"length-micrometer": {
				"displayName": "ไมโครเมตร",
				"unitPattern-count-other": "{0} ไมโครเมตร"
			},
			"length-nanometer": {
				"displayName": "น.ม.",
				"unitPattern-count-other": "{0} น.ม."
			},
			"length-picometer": {
				"displayName": "พิโกเมตร",
				"unitPattern-count-other": "{0} พิโกเมตร"
			},
			"length-mile": {
				"displayName": "ไมล์",
				"unitPattern-count-other": "{0} ไมล์"
			},
			"length-yard": {
				"displayName": "หลา",
				"unitPattern-count-other": "{0} หลา"
			},
			"length-foot": {
				"displayName": "ฟุต",
				"unitPattern-count-other": "{0} ฟุต",
				"perUnitPattern": "{0}/ฟุต"
			},
			"length-inch": {
				"displayName": "นิ้ว",
				"unitPattern-count-other": "{0} นิ้ว",
				"perUnitPattern": "{0}/นิ้ว"
			},
			"length-parsec": {
				"displayName": "พาร์เซก",
				"unitPattern-count-other": "{0} พาร์เซก"
			},
			"length-light-year": {
				"displayName": "ปีแสง",
				"unitPattern-count-other": "{0} ปีแสง"
			},
			"length-astronomical-unit": {
				"displayName": "หน่วยดาราศาสตร์",
				"unitPattern-count-other": "{0} หน่วยดาราศาสตร์"
			},
			"length-furlong": {
				"displayName": "fur",
				"unitPattern-count-other": "{0} fur"
			},
			"length-fathom": {
				"displayName": "fm",
				"unitPattern-count-other": "{0} fth"
			},
			"length-nautical-mile": {
				"displayName": "ไมล์ทะเล",
				"unitPattern-count-other": "{0} ไมล์ทะเล"
			},
			"length-mile-scandinavian": {
				"displayName": "ไมล์สแกนดินีเวีย",
				"unitPattern-count-other": "{0} ไมล์สแกนดินีเวีย"
			},
			"length-point": {
				"displayName": "จุด",
				"unitPattern-count-other": "{0} จุด"
			},
			"light-lux": {
				"displayName": "ลักซ์",
				"unitPattern-count-other": "{0} ลักซ์"
			},
			"mass-metric-ton": {
				"displayName": "ต.",
				"unitPattern-count-other": "{0} ต."
			},
			"mass-kilogram": {
				"displayName": "กก.",
				"unitPattern-count-other": "{0} กก.",
				"perUnitPattern": "{0}/กก."
			},
			"mass-gram": {
				"displayName": "กรัม",
				"unitPattern-count-other": "{0} ก.",
				"perUnitPattern": "{0}/ก."
			},
			"mass-milligram": {
				"displayName": "มก.",
				"unitPattern-count-other": "{0} มก."
			},
			"mass-microgram": {
				"displayName": "มคก.",
				"unitPattern-count-other": "{0} มคก."
			},
			"mass-ton": {
				"displayName": "ตัน",
				"unitPattern-count-other": "{0} ตัน"
			},
			"mass-stone": {
				"displayName": "st",
				"unitPattern-count-other": "{0} st"
			},
			"mass-pound": {
				"displayName": "ปอนด์",
				"unitPattern-count-other": "{0} ปอนด์",
				"perUnitPattern": "{0}/ปอนด์"
			},
			"mass-ounce": {
				"displayName": "ออนซ์",
				"unitPattern-count-other": "{0} ออนซ์",
				"perUnitPattern": "{0}/ออนซ์"
			},
			"mass-ounce-troy": {
				"displayName": "ทรอยออนซ์",
				"unitPattern-count-other": "{0} ทรอยออนซ์"
			},
			"mass-carat": {
				"displayName": "กะรัต",
				"unitPattern-count-other": "{0} กะรัต"
			},
			"power-gigawatt": {
				"displayName": "กิกะวัตต์",
				"unitPattern-count-other": "{0} กิกะวัตต์"
			},
			"power-megawatt": {
				"displayName": "เมกะวัตต์",
				"unitPattern-count-other": "{0} เมกะวัตต์"
			},
			"power-kilowatt": {
				"displayName": "กิโลวัตต์",
				"unitPattern-count-other": "{0} กิโลวัตต์"
			},
			"power-watt": {
				"displayName": "วัตต์",
				"unitPattern-count-other": "{0} วัตต์"
			},
			"power-milliwatt": {
				"displayName": "มิลลิวัตต์",
				"unitPattern-count-other": "{0} มิลลิวัตต์"
			},
			"power-horsepower": {
				"displayName": "แรงม้า",
				"unitPattern-count-other": "{0} แรงม้า"
			},
			"pressure-hectopascal": {
				"displayName": "เฮกโตปาสกาล",
				"unitPattern-count-other": "{0} เฮกโตปาสกาล"
			},
			"pressure-millimeter-of-mercury": {
				"displayName": "มม. ปรอท",
				"unitPattern-count-other": "{0} มม. ปรอท"
			},
			"pressure-pound-per-square-inch": {
				"displayName": "ปอนด์/ตร.นิ้ว",
				"unitPattern-count-other": "{0} ปอนด์/ตร.นิ้ว"
			},
			"pressure-inch-hg": {
				"displayName": "นิ้วปรอท",
				"unitPattern-count-other": "{0} นิ้วปรอท"
			},
			"pressure-millibar": {
				"displayName": "มิลลิบาร์",
				"unitPattern-count-other": "{0} มิลลิบาร์"
			},
			"pressure-atmosphere": {
				"displayName": "บรรยากาศ",
				"unitPattern-count-other": "{0} atm"
			},
			"speed-kilometer-per-hour": {
				"displayName": "กม./ชั่วโมง",
				"unitPattern-count-other": "{0} กม./ชม."
			},
			"speed-meter-per-second": {
				"displayName": "เมตรต่อวินาที",
				"unitPattern-count-other": "{0} ม./วิ"
			},
			"speed-mile-per-hour": {
				"displayName": "ไมล์/ชั่วโมง",
				"unitPattern-count-other": "{0} ไมล์/ชม."
			},
			"speed-knot": {
				"displayName": "นอต",
				"unitPattern-count-other": "{0} นอต"
			},
			"temperature-generic": {
				"displayName": "°",
				"unitPattern-count-other": "{0}°"
			},
			"temperature-celsius": {
				"displayName": "องศาเซลเซียส",
				"unitPattern-count-other": "{0}°C"
			},
			"temperature-fahrenheit": {
				"displayName": "องศาฟาเรนไฮต์",
				"unitPattern-count-other": "{0}°F"
			},
			"temperature-kelvin": {
				"displayName": "K",
				"unitPattern-count-other": "{0} K"
			},
			"volume-cubic-kilometer": {
				"displayName": "ลบ.กม.",
				"unitPattern-count-other": "{0} ลบ.กม."
			},
			"volume-cubic-meter": {
				"displayName": "ลบ.ม.",
				"unitPattern-count-other": "{0} ลบ.ม.",
				"perUnitPattern": "{0}/ลบ.ม."
			},
			"volume-cubic-centimeter": {
				"displayName": "ลบ.ซม.",
				"unitPattern-count-other": "{0} ลบ.ซม.",
				"perUnitPattern": "{0}/ลบ.ซม."
			},
			"volume-cubic-mile": {
				"displayName": "ลบ.ไมล์",
				"unitPattern-count-other": "{0} ลบ.ไมล์"
			},
			"volume-cubic-yard": {
				"displayName": "ลบ.หลา",
				"unitPattern-count-other": "{0} ลบ.หลา"
			},
			"volume-cubic-foot": {
				"displayName": "ลบ.ฟุต",
				"unitPattern-count-other": "{0} ลบ.ฟุต"
			},
			"volume-cubic-inch": {
				"displayName": "ลบ.นิ้ว",
				"unitPattern-count-other": "{0} ลบ.นิ้ว"
			},
			"volume-megaliter": {
				"displayName": "เมกะลิตร",
				"unitPattern-count-other": "{0} เมกะลิตร"
			},
			"volume-hectoliter": {
				"displayName": "ฮล.",
				"unitPattern-count-other": "{0} ฮล."
			},
			"volume-liter": {
				"displayName": "ลิตร",
				"unitPattern-count-other": "{0} ล.",
				"perUnitPattern": "{0}/ล."
			},
			"volume-deciliter": {
				"displayName": "ดล.",
				"unitPattern-count-other": "{0} ดล."
			},
			"volume-centiliter": {
				"displayName": "ซล.",
				"unitPattern-count-other": "{0} ซล."
			},
			"volume-milliliter": {
				"displayName": "มล.",
				"unitPattern-count-other": "{0} มล."
			},
			"volume-pint-metric": {
				"displayName": "ไพนต์เมตริก",
				"unitPattern-count-other": "{0} ไพนต์เมตริก"
			},
			"volume-cup-metric": {
				"displayName": "ถ. เมตริก",
				"unitPattern-count-other": "{0} ถ. เมตริก"
			},
			"volume-acre-foot": {
				"displayName": "เอเคอร์-ฟุต",
				"unitPattern-count-other": "{0} เอเคอร์-ฟุต"
			},
			"volume-bushel": {
				"displayName": "bu",
				"unitPattern-count-other": "{0} bu"
			},
			"volume-gallon": {
				"displayName": "แกลลอน",
				"unitPattern-count-other": "{0} แกลลอน",
				"perUnitPattern": "{0}/แกลลอน"
			},
			"volume-gallon-imperial": {
				"displayName": "แกลลอนอังกฤษ",
				"unitPattern-count-other": "{0} แกลลอนอังกฤษ",
				"perUnitPattern": "{0}/แกลลอนอังกฤษ"
			},
			"volume-quart": {
				"displayName": "คว.",
				"unitPattern-count-other": "{0} คว."
			},
			"volume-pint": {
				"displayName": "ไพนต์",
				"unitPattern-count-other": "{0} ไพนต์"
			},
			"volume-cup": {
				"displayName": "ถ้วย",
				"unitPattern-count-other": "{0} ถ."
			},
			"volume-fluid-ounce": {
				"displayName": "ฟลูอิดออนซ์",
				"unitPattern-count-other": "{0} ฟลูอิดออนซ์"
			},
			"volume-tablespoon": {
				"displayName": "ชต.",
				"unitPattern-count-other": "{0} ชต."
			},
			"volume-teaspoon": {
				"displayName": "ชช.",
				"unitPattern-count-other": "{0} ชช."
			},
			"coordinateUnit": {
				"displayName": "ทิศหลัก",
				"east": "{0} ตอ",
				"north": "{0} น",
				"south": "{0} ต",
				"west": "{0} ตต"
			}
		}
	},
	"currencyDigits": {
		"ADP": 0,
		"AFN": 0,
		"ALL": 0,
		"BHD": 3,
		"BIF": 0,
		"BYR": 0,
		"CLF": 4,
		"CLP": 0,
		"DEFAULT": 2,
		"DJF": 0,
		"ESP": 0,
		"GNF": 0,
		"HUF": 0,
		"IQD": 0,
		"IRR": 0,
		"ISK": 0,
		"ITL": 0,
		"JOD": 3,
		"JPY": 0,
		"KMF": 0,
		"KPW": 0,
		"KRW": 0,
		"KWD": 3,
		"LAK": 0,
		"LBP": 0,
		"LUF": 0,
		"LYD": 3,
		"MGA": 0,
		"MGF": 0,
		"MMK": 0,
		"MRO": 0,
		"OMR": 3,
		"PYG": 0,
		"RSD": 0,
		"RWF": 0,
		"SLL": 0,
		"SOS": 0,
		"STD": 0,
		"SYP": 0,
		"TMM": 0,
		"TND": 3,
		"TRL": 0,
		"TWD": 0,
		"UGX": 0,
		"UYI": 0,
		"UYW": 4,
		"VND": 0,
		"VUV": 0,
		"XAF": 0,
		"XOF": 0,
		"XPF": 0,
		"YER": 0,
		"ZMK": 0,
		"ZWD": 0
	},
	"plurals": {},
	"weekData-minDays": 1,
	"weekData-firstDay": 0,
	"weekData-weekendStart": 6,
	"weekData-weekendEnd": 0,
	"timeData": {
		"_allowed": "H h",
		"_preferred": "H"
	},
	"eras-gregorian": {
		"0": {
			"_end": "0-12-31"
		},
		"1": {
			"_start": "1-01-01"
		}
	},
	"eras-islamic": {
		"0": {
			"_start": "622-7-15"
		}
	},
	"eras-persian": {
		"0": {
			"_start": "622-01-01"
		}
	},
	"eras-buddhist": {
		"0": {
			"_start": "-542-01-01"
		}
	},
	"eras-japanese": {
		"232": {
			"_start": "1868-9-8"
		},
		"233": {
			"_start": "1912-7-30"
		},
		"234": {
			"_start": "1926-12-25"
		},
		"235": {
			"_start": "1989-1-8"
		},
		"236": {
			"_start": "2019-5-1"
		}
	},
	"calendarPreference": "buddhist gregorian"
}